Date;Power
2022-07-19 00:00:00;0.0
2022-07-19 00:01:00;0.0
2022-07-19 00:02:00;0.0
2022-07-19 00:03:00;0.0
2022-07-19 00:04:00;0.0
2022-07-19 00:05:00;0.0
2022-07-19 00:06:00;0.0
2022-07-19 00:07:00;0.0
2022-07-19 00:08:00;0.0
2022-07-19 00:09:00;0.0
2022-07-19 00:10:00;0.0
2022-07-19 00:11:00;0.0
2022-07-19 00:12:00;0.0
2022-07-19 00:13:00;0.0
2022-07-19 00:14:00;0.0
2022-07-19 00:15:00;0.0
2022-07-19 00:16:00;0.0
2022-07-19 00:17:00;0.0
2022-07-19 00:18:00;0.0
2022-07-19 00:19:00;0.0
2022-07-19 00:20:00;0.0
2022-07-19 00:21:00;0.0
2022-07-19 00:22:00;0.0
2022-07-19 00:23:00;0.0
2022-07-19 00:24:00;0.0
2022-07-19 00:25:00;0.0
2022-07-19 00:26:00;0.0
2022-07-19 00:27:00;0.0
2022-07-19 00:28:00;0.0
2022-07-19 00:29:00;0.0
2022-07-19 00:30:00;0.0
2022-07-19 00:31:00;0.0
2022-07-19 00:32:00;0.0
2022-07-19 00:33:00;0.0
2022-07-19 00:34:00;0.0
2022-07-19 00:35:00;0.0
2022-07-19 00:36:00;0.0
2022-07-19 00:37:00;0.0
2022-07-19 00:38:00;0.0
2022-07-19 00:39:00;0.0
2022-07-19 00:40:00;0.0
2022-07-19 00:41:00;0.0
2022-07-19 00:42:00;0.0
2022-07-19 00:43:00;0.0
2022-07-19 00:44:00;0.0
2022-07-19 00:45:00;0.0
2022-07-19 00:46:00;0.0
2022-07-19 00:47:00;0.0
2022-07-19 00:48:00;0.0
2022-07-19 00:49:00;0.0
2022-07-19 00:50:00;0.0
2022-07-19 00:51:00;0.0
2022-07-19 00:52:00;0.0
2022-07-19 00:53:00;0.0
2022-07-19 00:54:00;0.0
2022-07-19 00:55:00;0.0
2022-07-19 00:56:00;0.0
2022-07-19 00:57:00;0.0
2022-07-19 00:58:00;0.0
2022-07-19 00:59:00;0.0
2022-07-19 01:00:00;0.0
2022-07-19 01:01:00;0.0
2022-07-19 01:02:00;0.0
2022-07-19 01:03:00;0.0
2022-07-19 01:04:00;0.0
2022-07-19 01:05:00;0.0
2022-07-19 01:06:00;0.0
2022-07-19 01:07:00;0.0
2022-07-19 01:08:00;0.0
2022-07-19 01:09:00;0.0
2022-07-19 01:10:00;0.0
2022-07-19 01:11:00;0.0
2022-07-19 01:12:00;0.0
2022-07-19 01:13:00;0.0
2022-07-19 01:14:00;0.0
2022-07-19 01:15:00;0.0
2022-07-19 01:16:00;0.0
2022-07-19 01:17:00;0.0
2022-07-19 01:18:00;0.0
2022-07-19 01:19:00;0.0
2022-07-19 01:20:00;0.0
2022-07-19 01:21:00;0.0
2022-07-19 01:22:00;0.0
2022-07-19 01:23:00;0.0
2022-07-19 01:24:00;0.0
2022-07-19 01:25:00;1094.7283333333335
2022-07-19 01:26:00;2460.5750000000003
2022-07-19 01:27:00;2935.045
2022-07-19 01:28:00;2935.0
2022-07-19 01:29:00;2935.0
2022-07-19 01:30:00;2935.0
2022-07-19 01:31:00;2935.0
2022-07-19 01:32:00;2935.0
2022-07-19 01:33:00;2935.0
2022-07-19 01:34:00;2935.0
2022-07-19 01:35:00;2935.0
2022-07-19 01:36:00;2935.0
2022-07-19 01:37:00;2935.0
2022-07-19 01:38:00;2935.0
2022-07-19 01:39:00;2935.0
2022-07-19 01:40:00;2935.0
2022-07-19 01:41:00;2935.0
2022-07-19 01:42:00;2935.0
2022-07-19 01:43:00;2935.0
2022-07-19 01:44:00;2935.0
2022-07-19 01:45:00;2935.0
2022-07-19 01:46:00;2935.0
2022-07-19 01:47:00;2935.0
2022-07-19 01:48:00;2935.0
2022-07-19 01:49:00;2935.0
2022-07-19 01:50:00;2935.0
2022-07-19 01:51:00;2841.7
2022-07-19 01:52:00;136.0
2022-07-19 01:53:00;136.0
2022-07-19 01:54:00;136.0
2022-07-19 01:55:00;136.0
2022-07-19 01:56:00;139.26166666666666
2022-07-19 01:57:00;18.259999999999998
2022-07-19 01:58:00;116.90333333333335
2022-07-19 01:59:00;89.05166666666666
2022-07-19 02:00:00;89.0
2022-07-19 02:01:00;89.0
2022-07-19 02:02:00;89.0
2022-07-19 02:03:00;89.0
2022-07-19 02:04:00;89.0
2022-07-19 02:05:00;89.0
2022-07-19 02:06:00;89.0
2022-07-19 02:07:00;89.0
2022-07-19 02:08:00;89.0
2022-07-19 02:09:00;89.0
2022-07-19 02:10:00;89.0
2022-07-19 02:11:00;89.0
2022-07-19 02:12:00;89.0
2022-07-19 02:13:00;89.0
2022-07-19 02:14:00;89.0
2022-07-19 02:15:00;89.0
2022-07-19 02:16:00;89.0
2022-07-19 02:17:00;89.0
2022-07-19 02:18:00;219.28666666666666
2022-07-19 02:19:00;210.48333333333332
2022-07-19 02:20:00;66.86833333333333
2022-07-19 02:21:00;75.28999999999999
2022-07-19 02:22:00;79.93166666666667
2022-07-19 02:23:00;83.18333333333331
2022-07-19 02:24:00;85.67833333333333
2022-07-19 02:25:00;87.71333333333334
2022-07-19 02:26:00;89.43
2022-07-19 02:27:00;90.91833333333334
2022-07-19 02:28:00;102.69333333333334
2022-07-19 02:29:00;238.715
2022-07-19 02:30:00;257.2633333333333
2022-07-19 02:31:00;95.05166666666666
2022-07-19 02:32:00;90.11166666666668
2022-07-19 02:33:00;90.0
2022-07-19 02:34:00;90.0
2022-07-19 02:35:00;90.0
2022-07-19 02:36:00;90.0
2022-07-19 02:37:00;90.0
2022-07-19 02:38:00;90.0
2022-07-19 02:39:00;90.0
2022-07-19 02:40:00;210.04833333333335
2022-07-19 02:41:00;253.34000000000003
2022-07-19 02:42:00;90.35999999999999
2022-07-19 02:43:00;86.065
2022-07-19 02:44:00;86.0
2022-07-19 02:45:00;86.0
2022-07-19 02:46:00;86.0
2022-07-19 02:47:00;86.0
2022-07-19 02:48:00;86.0
2022-07-19 02:49:00;86.0
2022-07-19 02:50:00;86.0
2022-07-19 02:51:00;194.67166666666662
2022-07-19 02:52:00;227.6183333333333
2022-07-19 02:53:00;98.91166666666665
2022-07-19 02:54:00;316.78
2022-07-19 02:55:00;408.4083333333334
2022-07-19 02:56:00;464.2183333333333
2022-07-19 02:57:00;464.0
2022-07-19 02:58:00;557.84
2022-07-19 02:59:00;547.2
2022-07-19 03:00:00;77.0
2022-07-19 03:01:00;29.21666666666666
2022-07-19 03:02:00;5.408333333333333
2022-07-19 03:03:00;7.0
2022-07-19 03:04:00;7.0
2022-07-19 03:05:00;7.0
2022-07-19 03:06:00;7.0
2022-07-19 03:07:00;7.0
2022-07-19 03:08:00;7.0
2022-07-19 03:09:00;7.0
2022-07-19 03:10:00;7.0
2022-07-19 03:11:00;7.0
2022-07-19 03:12:00;7.0
2022-07-19 03:13:00;7.0
2022-07-19 03:14:00;7.0
2022-07-19 03:15:00;7.0
2022-07-19 03:16:00;815.15
2022-07-19 03:17:00;2837.8850000000007
2022-07-19 03:18:00;2822.2416666666672
2022-07-19 03:19:00;2816.841666666667
2022-07-19 03:20:00;2814.981666666667
2022-07-19 03:21:00;2814.3333333333344
2022-07-19 03:22:00;2814.1216666666664
2022-07-19 03:23:00;269.74
2022-07-19 03:24:00;88.0
2022-07-19 03:25:00;88.0
2022-07-19 03:26:00;88.0
2022-07-19 03:27:00;88.0
2022-07-19 03:28:00;88.0
2022-07-19 03:29:00;88.0
2022-07-19 03:30:00;88.0
2022-07-19 03:31:00;80.0
2022-07-19 03:32:00;76.0
2022-07-19 03:33:00;76.0
2022-07-19 03:34:00;76.0
2022-07-19 03:35:00;76.0
2022-07-19 03:36:00;76.0
2022-07-19 03:37:00;76.0
2022-07-19 03:38:00;76.0
2022-07-19 03:39:00;76.0
2022-07-19 03:40:00;76.0
2022-07-19 03:41:00;76.0
2022-07-19 03:42:00;76.0
2022-07-19 03:43:00;76.0
2022-07-19 03:44:00;76.0
2022-07-19 03:45:00;76.0
2022-07-19 03:46:00;76.0
2022-07-19 03:47:00;76.0
2022-07-19 03:48:00;76.0
2022-07-19 03:49:00;76.0
2022-07-19 03:50:00;74.95
2022-07-19 03:51:00;91.53333333333335
2022-07-19 03:52:00;102.74333333333333
2022-07-19 03:53:00;308.12333333333333
2022-07-19 03:54:00;167.9566666666666
2022-07-19 03:55:00;54.285000000000004
2022-07-19 03:56:00;37.74166666666667
2022-07-19 03:57:00;29.421666666666667
2022-07-19 03:58:00;25.236666666666665
2022-07-19 03:59:00;41.955
2022-07-19 04:00:00;90.46833333333333
2022-07-19 04:01:00;101.11333333333332
2022-07-19 04:02:00;106.95666666666668
2022-07-19 04:03:00;111.03
2022-07-19 04:04:00;266.95
2022-07-19 04:05:00;140.62666666666667
2022-07-19 04:06:00;81.12333333333336
2022-07-19 04:07:00;80.01333333333334
2022-07-19 04:08:00;80.0
2022-07-19 04:09:00;80.0
2022-07-19 04:10:00;80.0
2022-07-19 04:11:00;80.0
2022-07-19 04:12:00;80.0
2022-07-19 04:13:00;79.43333333333334
2022-07-19 04:14:00;96.05166666666668
2022-07-19 04:15:00;325.20166666666665
2022-07-19 04:16:00;190.31666666666666
2022-07-19 04:17:00;78.4
2022-07-19 04:18:00;79.0
2022-07-19 04:19:00;79.0
2022-07-19 04:20:00;79.0
2022-07-19 04:21:00;79.0
2022-07-19 04:22:00;79.0
2022-07-19 04:23:00;79.0
2022-07-19 04:24:00;79.0
2022-07-19 04:25:00;93.08000000000001
2022-07-19 04:26:00;227.18666666666667
2022-07-19 04:27:00;147.98833333333334
2022-07-19 04:28:00;119.72166666666666
2022-07-19 04:29:00;375.1099999999999
2022-07-19 04:30:00;439.43333333333334
2022-07-19 04:31:00;455.0
2022-07-19 04:32:00;455.0
2022-07-19 04:33:00;606.7166666666666
2022-07-19 04:34:00;402.60499999999996
2022-07-19 04:35:00;75.0
2022-07-19 04:36:00;8.75
2022-07-19 04:37:00;0.0
2022-07-19 04:38:00;0.0
2022-07-19 04:39:00;0.0
2022-07-19 04:40:00;0.0
2022-07-19 04:41:00;0.0
2022-07-19 04:42:00;0.0
2022-07-19 04:43:00;0.0
2022-07-19 04:44:00;0.0
2022-07-19 04:45:00;0.0
2022-07-19 04:46:00;0.0
2022-07-19 04:47:00;0.0
2022-07-19 04:48:00;0.0
2022-07-19 04:49:00;0.0
2022-07-19 04:50:00;0.0
2022-07-19 04:51:00;0.0
2022-07-19 04:52:00;0.0
2022-07-19 04:53:00;0.0
2022-07-19 04:54:00;0.0
2022-07-19 04:55:00;0.0
2022-07-19 04:56:00;0.0
2022-07-19 04:57:00;0.0
2022-07-19 04:58:00;0.0
2022-07-19 04:59:00;0.0
2022-07-19 05:00:00;0.0
2022-07-19 05:01:00;0.0
2022-07-19 05:02:00;0.0
2022-07-19 05:03:00;0.0
2022-07-19 05:04:00;0.0
2022-07-19 05:05:00;0.0
2022-07-19 05:06:00;0.0
2022-07-19 05:07:00;0.0
2022-07-19 05:08:00;0.0
2022-07-19 05:09:00;0.0
2022-07-19 05:10:00;0.0
2022-07-19 05:11:00;0.0
2022-07-19 05:12:00;0.0
2022-07-19 05:13:00;0.0
2022-07-19 05:14:00;0.0
2022-07-19 05:15:00;0.0
2022-07-19 05:16:00;0.0
2022-07-19 05:17:00;0.0
2022-07-19 05:18:00;0.0
2022-07-19 05:19:00;0.0
2022-07-19 05:20:00;0.0
2022-07-19 05:21:00;0.0
2022-07-19 05:22:00;0.0
2022-07-19 05:23:00;0.0
2022-07-19 05:24:00;0.0
2022-07-19 05:25:00;0.0
2022-07-19 05:26:00;0.0
2022-07-19 05:27:00;0.0
2022-07-19 05:28:00;0.0
2022-07-19 05:29:00;0.0
2022-07-19 05:30:00;0.0
2022-07-19 05:31:00;0.0
2022-07-19 05:32:00;0.0
2022-07-19 05:33:00;0.0
2022-07-19 05:34:00;0.0
2022-07-19 05:35:00;0.0
2022-07-19 05:36:00;0.0
2022-07-19 05:37:00;0.0
2022-07-19 05:38:00;0.0
2022-07-19 05:39:00;0.0
2022-07-19 05:40:00;0.0
2022-07-19 05:41:00;0.0
2022-07-19 05:42:00;0.0
2022-07-19 05:43:00;0.0
2022-07-19 05:44:00;0.0
2022-07-19 05:45:00;0.0
2022-07-19 05:46:00;0.0
2022-07-19 05:47:00;0.0
2022-07-19 05:48:00;0.0
2022-07-19 05:49:00;0.0
2022-07-19 05:50:00;0.0
2022-07-19 05:51:00;0.0
2022-07-19 05:52:00;0.0
2022-07-19 05:53:00;0.0
2022-07-19 05:54:00;0.0
2022-07-19 05:55:00;0.0
2022-07-19 05:56:00;0.0
2022-07-19 05:57:00;0.0
2022-07-19 05:58:00;0.0
2022-07-19 05:59:00;0.0
2022-07-19 06:00:00;0.0
2022-07-19 06:01:00;0.0
2022-07-19 06:02:00;0.0
2022-07-19 06:03:00;0.0
2022-07-19 06:04:00;0.0
2022-07-19 06:05:00;0.0
2022-07-19 06:06:00;0.0
2022-07-19 06:07:00;0.0
2022-07-19 06:08:00;0.0
2022-07-19 06:09:00;0.0
2022-07-19 06:10:00;0.0
2022-07-19 06:11:00;0.0
2022-07-19 06:12:00;0.0
2022-07-19 06:13:00;0.0
2022-07-19 06:14:00;0.0
2022-07-19 06:15:00;0.0
2022-07-19 06:16:00;0.0
2022-07-19 06:17:00;0.0
2022-07-19 06:18:00;0.0
2022-07-19 06:19:00;0.0
2022-07-19 06:20:00;0.0
2022-07-19 06:21:00;1710.2950000000003
2022-07-19 06:22:00;2578.8033333333337
2022-07-19 06:23:00;2935.0
2022-07-19 06:24:00;2935.0
2022-07-19 06:25:00;2935.0
2022-07-19 06:26:00;2935.0
2022-07-19 06:27:00;2935.0
2022-07-19 06:28:00;2935.0
2022-07-19 06:29:00;2935.0
2022-07-19 06:30:00;2935.0
2022-07-19 06:31:00;2935.0
2022-07-19 06:32:00;2935.0
2022-07-19 06:33:00;2935.0
2022-07-19 06:34:00;2935.0
2022-07-19 06:35:00;2935.0
2022-07-19 06:36:00;2935.0
2022-07-19 06:37:00;2935.0
2022-07-19 06:38:00;2935.0
2022-07-19 06:39:00;2935.0
2022-07-19 06:40:00;2935.0
2022-07-19 06:41:00;2935.0
2022-07-19 06:42:00;2935.0
2022-07-19 06:43:00;2935.0
2022-07-19 06:44:00;2935.0
2022-07-19 06:45:00;2935.0
2022-07-19 06:46:00;2935.0
2022-07-19 06:47:00;2141.95
2022-07-19 06:48:00;136.0
2022-07-19 06:49:00;136.0
2022-07-19 06:50:00;136.0
2022-07-19 06:51:00;126.76666666666667
2022-07-19 06:52:00;128.06833333333333
2022-07-19 06:53:00;33.266666666666666
2022-07-19 06:54:00;110.62166666666668
2022-07-19 06:55:00;89.00333333333333
2022-07-19 06:56:00;89.0
2022-07-19 06:57:00;89.0
2022-07-19 06:58:00;89.0
2022-07-19 06:59:00;89.0
2022-07-19 07:00:00;89.0
2022-07-19 07:01:00;89.0
2022-07-19 07:02:00;89.0
2022-07-19 07:03:00;89.0
2022-07-19 07:04:00;89.0
2022-07-19 07:05:00;89.0
2022-07-19 07:06:00;89.0
2022-07-19 07:07:00;89.0
2022-07-19 07:08:00;89.0
2022-07-19 07:09:00;89.0
2022-07-19 07:10:00;89.0
2022-07-19 07:11:00;89.0
2022-07-19 07:12:00;89.0
2022-07-19 07:13:00;89.0
2022-07-19 07:14:00;280.5433333333333
2022-07-19 07:15:00;142.41666666666666
2022-07-19 07:16:00;69.685
2022-07-19 07:17:00;76.65333333333335
2022-07-19 07:18:00;80.83999999999997
2022-07-19 07:19:00;83.86166666666668
2022-07-19 07:20:00;86.22166666666665
2022-07-19 07:21:00;88.17
2022-07-19 07:22:00;89.82000000000001
2022-07-19 07:23:00;91.26166666666664
2022-07-19 07:24:00;103.51833333333335
2022-07-19 07:25:00;323.81499999999994
2022-07-19 07:26:00;174.045
2022-07-19 07:27:00;91.97833333333331
2022-07-19 07:28:00;90.03833333333334
2022-07-19 07:29:00;90.0
2022-07-19 07:30:00;90.0
2022-07-19 07:31:00;90.0
2022-07-19 07:32:00;90.0
2022-07-19 07:33:00;90.0
2022-07-19 07:34:00;90.0
2022-07-19 07:35:00;90.0
2022-07-19 07:36:00;284.3133333333334
2022-07-19 07:37:00;180.91833333333338
2022-07-19 07:38:00;87.56333333333335
2022-07-19 07:39:00;86.01833333333335
2022-07-19 07:40:00;86.0
2022-07-19 07:41:00;86.0
2022-07-19 07:42:00;86.0
2022-07-19 07:43:00;86.0
2022-07-19 07:44:00;86.0
2022-07-19 07:45:00;86.0
2022-07-19 07:46:00;86.0
2022-07-19 07:47:00;252.11166666666665
2022-07-19 07:48:00;174.64333333333335
2022-07-19 07:49:00;96.97333333333336
2022-07-19 07:50:00;373.90833333333336
2022-07-19 07:51:00;443.4316666666667
2022-07-19 07:52:00;464.04
2022-07-19 07:53:00;464.0
2022-07-19 07:54:00;582.9483333333333
2022-07-19 07:55:00;425.34166666666664
2022-07-19 07:56:00;76.96666666666667
2022-07-19 07:57:00;10.758333333333333
2022-07-19 07:58:00;6.4
2022-07-19 07:59:00;7.0
2022-07-19 08:00:00;7.0
2022-07-19 08:01:00;7.0
2022-07-19 08:02:00;7.0
2022-07-19 08:03:00;7.0
2022-07-19 08:04:00;7.0
2022-07-19 08:05:00;7.0
2022-07-19 08:06:00;7.0
2022-07-19 08:07:00;7.0
2022-07-19 08:08:00;7.0
2022-07-19 08:09:00;7.0
2022-07-19 08:10:00;7.0
2022-07-19 08:11:00;7.0
2022-07-19 08:12:00;1525.4183333333335
2022-07-19 08:13:00;2832.3033333333337
2022-07-19 08:14:00;2820.318333333334
2022-07-19 08:15:00;2816.178333333333
2022-07-19 08:16:00;2814.75
2022-07-19 08:17:00;2814.2616666666677
2022-07-19 08:18:00;2314.315
2022-07-19 08:19:00;88.0
2022-07-19 08:20:00;88.0
2022-07-19 08:21:00;88.0
2022-07-19 08:22:00;88.0
2022-07-19 08:23:00;88.0
2022-07-19 08:24:00;88.0
2022-07-19 08:25:00;88.0
2022-07-19 08:26:00;88.0
2022-07-19 08:27:00;77.0
2022-07-19 08:28:00;76.0
2022-07-19 08:29:00;76.0
2022-07-19 08:30:00;76.0
2022-07-19 08:31:00;76.0
2022-07-19 08:32:00;76.0
2022-07-19 08:33:00;76.0
2022-07-19 08:34:00;76.0
2022-07-19 08:35:00;76.0
2022-07-19 08:36:00;76.0
2022-07-19 08:37:00;76.0
2022-07-19 08:38:00;76.0
2022-07-19 08:39:00;76.0
2022-07-19 08:40:00;76.0
2022-07-19 08:41:00;76.0
2022-07-19 08:42:00;76.0
2022-07-19 08:43:00;76.0
2022-07-19 08:44:00;76.0
2022-07-19 08:45:00;76.0
2022-07-19 08:46:00;76.72999999999998
2022-07-19 08:47:00;95.78666666666668
2022-07-19 08:48:00;104.295
2022-07-19 08:49:00;374.78833333333336
2022-07-19 08:50:00;90.525
2022-07-19 08:51:00;49.03333333333333
2022-07-19 08:52:00;35.1
2022-07-19 08:53:00;28.09333333333333
2022-07-19 08:54:00;24.566666666666663
2022-07-19 08:55:00;57.01499999999999
2022-07-19 08:56:00;94.04999999999998
2022-07-19 08:57:00;102.83
2022-07-19 08:58:00;108.09166666666667
2022-07-19 08:59:00;111.87833333333332
2022-07-19 09:00:00;297.65500000000003
2022-07-19 09:01:00;102.37666666666665
2022-07-19 09:02:00;80.41333333333334
2022-07-19 09:03:00;80.0
2022-07-19 09:04:00;80.0
2022-07-19 09:05:00;80.0
2022-07-19 09:06:00;80.0
2022-07-19 09:07:00;80.0
2022-07-19 09:08:00;80.0
2022-07-19 09:09:00;78.89833333333333
2022-07-19 09:10:00;104.57166666666667
2022-07-19 09:11:00;406.46666666666664
2022-07-19 09:12:00;100.21666666666667
2022-07-19 09:13:00;79.0
2022-07-19 09:14:00;79.0
2022-07-19 09:15:00;79.0
2022-07-19 09:16:00;79.0
2022-07-19 09:17:00;79.0
2022-07-19 09:18:00;79.0
2022-07-19 09:19:00;79.0
2022-07-19 09:20:00;78.41833333333334
2022-07-19 09:21:00;100.83166666666668
2022-07-19 09:22:00;266.76666666666665
2022-07-19 09:23:00;104.24666666666667
2022-07-19 09:24:00;214.16166666666666
2022-07-19 09:25:00;353.23333333333335
2022-07-19 09:26:00;457.8616666666666
2022-07-19 09:27:00;455.0
2022-07-19 09:28:00;499.65500000000003
2022-07-19 09:29:00;593.0666666666667
2022-07-19 09:30:00;276.6
2022-07-19 09:31:00;65.0
2022-07-19 09:32:00;0.0
2022-07-19 09:33:00;0.0
2022-07-19 09:34:00;0.0
2022-07-19 09:35:00;0.0
2022-07-19 09:36:00;0.0
2022-07-19 09:37:00;0.0
2022-07-19 09:38:00;0.0
2022-07-19 09:39:00;0.0
2022-07-19 09:40:00;0.0
2022-07-19 09:41:00;0.0
2022-07-19 09:42:00;0.0
2022-07-19 09:43:00;0.0
2022-07-19 09:44:00;0.0
2022-07-19 09:45:00;0.0
2022-07-19 09:46:00;0.0
2022-07-19 09:47:00;0.0
2022-07-19 09:48:00;0.0
2022-07-19 09:49:00;0.0
2022-07-19 09:50:00;0.0
2022-07-19 09:51:00;0.0
2022-07-19 09:52:00;0.0
2022-07-19 09:53:00;0.0
2022-07-19 09:54:00;0.0
2022-07-19 09:55:00;662.4883333333332
2022-07-19 09:56:00;2452.223333333334
2022-07-19 09:57:00;2935.3866666666668
2022-07-19 09:58:00;2935.0
2022-07-19 09:59:00;2935.0
2022-07-19 10:00:00;2935.0
2022-07-19 10:01:00;2935.0
2022-07-19 10:02:00;2935.0
2022-07-19 10:03:00;2935.0
2022-07-19 10:04:00;2935.0
2022-07-19 10:05:00;2935.0
2022-07-19 10:06:00;2935.0
2022-07-19 10:07:00;2935.0
2022-07-19 10:08:00;2935.0
2022-07-19 10:09:00;2935.0
2022-07-19 10:10:00;2935.0
2022-07-19 10:11:00;2935.0
2022-07-19 10:12:00;2935.0
2022-07-19 10:13:00;2935.0
2022-07-19 10:14:00;2935.0
2022-07-19 10:15:00;2935.0
2022-07-19 10:16:00;2935.0
2022-07-19 10:17:00;2935.0
2022-07-19 10:18:00;2935.0
2022-07-19 10:19:00;2935.0
2022-07-19 10:20:00;2935.0
2022-07-19 10:21:00;2935.0
2022-07-19 10:22:00;462.55
2022-07-19 10:23:00;136.0
2022-07-19 10:24:00;136.0
2022-07-19 10:25:00;136.0
2022-07-19 10:26:00;133.99666666666667
2022-07-19 10:27:00;43.12833333333334
2022-07-19 10:28:00;104.22166666666668
2022-07-19 10:29:00;89.17999999999999
2022-07-19 10:30:00;89.0
2022-07-19 10:31:00;89.0
2022-07-19 10:32:00;89.0
2022-07-19 10:33:00;89.0
2022-07-19 10:34:00;89.0
2022-07-19 10:35:00;89.0
2022-07-19 10:36:00;89.0
2022-07-19 10:37:00;89.0
2022-07-19 10:38:00;89.0
2022-07-19 10:39:00;89.0
2022-07-19 10:40:00;89.0
2022-07-19 10:41:00;89.0
2022-07-19 10:42:00;89.0
2022-07-19 10:43:00;89.0
2022-07-19 10:44:00;89.0
2022-07-19 10:45:00;89.0
2022-07-19 10:46:00;89.0
2022-07-19 10:47:00;89.0
2022-07-19 10:48:00;182.38999999999996
2022-07-19 10:49:00;252.1866666666667
2022-07-19 10:50:00;64.68166666666667
2022-07-19 10:51:00;74.38166666666667
2022-07-19 10:52:00;79.34833333333334
2022-07-19 10:53:00;82.75333333333334
2022-07-19 10:54:00;85.33999999999997
2022-07-19 10:55:00;87.43000000000002
2022-07-19 10:56:00;89.19
2022-07-19 10:57:00;90.70666666666666
2022-07-19 10:58:00;102.06
2022-07-19 10:59:00;192.13333333333335
2022-07-19 11:00:00;300.8
2022-07-19 11:01:00;98.86333333333333
2022-07-19 11:02:00;90.20333333333335
2022-07-19 11:03:00;90.0
2022-07-19 11:04:00;90.0
2022-07-19 11:05:00;90.0
2022-07-19 11:06:00;90.0
2022-07-19 11:07:00;90.0
2022-07-19 11:08:00;90.0
2022-07-19 11:09:00;90.0
2022-07-19 11:10:00;181.83666666666662
2022-07-19 11:11:00;278.3783333333334
2022-07-19 11:12:00;94.07166666666667
2022-07-19 11:13:00;86.12666666666668
2022-07-19 11:14:00;86.0
2022-07-19 11:15:00;86.0
2022-07-19 11:16:00;86.0
2022-07-19 11:17:00;86.0
2022-07-19 11:18:00;86.0
2022-07-19 11:19:00;86.0
2022-07-19 11:20:00;86.0
2022-07-19 11:21:00;171.17
2022-07-19 11:22:00;246.875
2022-07-19 11:23:00;101.62166666666667
2022-07-19 11:24:00;282.215
2022-07-19 11:25:00;387.4466666666668
2022-07-19 11:26:00;464.58000000000004
2022-07-19 11:27:00;464.0
2022-07-19 11:28:00;541.9083333333333
2022-07-19 11:29:00;564.4816666666667
2022-07-19 11:30:00;133.7
2022-07-19 11:31:00;40.285000000000004
2022-07-19 11:32:00;4.84
2022-07-19 11:33:00;7.0
2022-07-19 11:34:00;7.0
2022-07-19 11:35:00;7.0
2022-07-19 11:36:00;7.0
2022-07-19 11:37:00;7.0
2022-07-19 11:38:00;7.0
2022-07-19 11:39:00;7.0
2022-07-19 11:40:00;7.0
2022-07-19 11:41:00;7.0
2022-07-19 11:42:00;7.0
2022-07-19 11:43:00;7.0
2022-07-19 11:44:00;7.0
2022-07-19 11:45:00;7.0
2022-07-19 11:46:00;387.7883333333333
2022-07-19 11:47:00;2842.02
2022-07-19 11:48:00;2823.666666666666
2022-07-19 11:49:00;2817.3333333333335
2022-07-19 11:50:00;2815.1516666666676
2022-07-19 11:51:00;2814.393333333334
2022-07-19 11:52:00;2814.1366666666668
2022-07-19 11:53:00;678.6550000000001
2022-07-19 11:54:00;88.0
2022-07-19 11:55:00;88.0
2022-07-19 11:56:00;88.0
2022-07-19 11:57:00;88.0
2022-07-19 11:58:00;88.0
2022-07-19 11:59:00;88.0
2022-07-19 12:00:00;88.0
2022-07-19 12:01:00;81.8
2022-07-19 12:02:00;76.0
2022-07-19 12:03:00;76.0
2022-07-19 12:04:00;76.0
2022-07-19 12:05:00;76.0
2022-07-19 12:06:00;76.0
2022-07-19 12:07:00;76.0
2022-07-19 12:08:00;76.0
2022-07-19 12:09:00;76.0
2022-07-19 12:10:00;76.0
2022-07-19 12:11:00;76.0
2022-07-19 12:12:00;76.0
2022-07-19 12:13:00;76.0
2022-07-19 12:14:00;76.0
2022-07-19 12:15:00;76.0
2022-07-19 12:16:00;76.0
2022-07-19 12:17:00;76.0
2022-07-19 12:18:00;76.0
2022-07-19 12:19:00;76.0
2022-07-19 12:20:00;76.0
2022-07-19 12:21:00;87.13833333333334
2022-07-19 12:22:00;101.68499999999999
2022-07-19 12:23:00;267.9766666666667
2022-07-19 12:24:00;213.48833333333332
2022-07-19 12:25:00;57.894999999999996
2022-07-19 12:26:00;39.56166666666666
2022-07-19 12:27:00;30.33333333333333
2022-07-19 12:28:00;25.698333333333334
2022-07-19 12:29:00;33.91
2022-07-19 12:30:00;87.66833333333334
2022-07-19 12:31:00;99.97333333333333
2022-07-19 12:32:00;106.22166666666666
2022-07-19 12:33:00;110.49333333333334
2022-07-19 12:34:00;221.24833333333336
2022-07-19 12:35:00;190.26333333333332
2022-07-19 12:36:00;82.04499999999999
2022-07-19 12:37:00;80.02833333333335
2022-07-19 12:38:00;80.0
2022-07-19 12:39:00;80.0
2022-07-19 12:40:00;80.0
2022-07-19 12:41:00;80.0
2022-07-19 12:42:00;80.0
2022-07-19 12:43:00;80.0
2022-07-19 12:44:00;91.14000000000001
2022-07-19 12:45:00;275.99666666666667
2022-07-19 12:46:00;244.46666666666667
2022-07-19 12:47:00;77.95
2022-07-19 12:48:00;79.0
2022-07-19 12:49:00;79.0
2022-07-19 12:50:00;79.0
2022-07-19 12:51:00;79.0
2022-07-19 12:52:00;79.0
2022-07-19 12:53:00;79.0
2022-07-19 12:54:00;79.0
2022-07-19 12:55:00;89.16666666666667
2022-07-19 12:56:00;203.05000000000004
2022-07-19 12:57:00;174.69166666666666
2022-07-19 12:58:00;93.24333333333334
2022-07-19 12:59:00;366.04833333333335
2022-07-19 13:00:00;419.9149999999999
2022-07-19 13:01:00;455.005
2022-07-19 13:02:00;455.0
2022-07-19 13:03:00;588.0849999999998
2022-07-19 13:04:00;478.2366666666666
2022-07-19 13:05:00;75.0
2022-07-19 13:06:00;20.0
2022-07-19 13:07:00;0.0
2022-07-19 13:08:00;0.0
2022-07-19 13:09:00;0.0
2022-07-19 13:10:00;0.0
2022-07-19 13:11:00;0.0
2022-07-19 13:12:00;0.0
2022-07-19 13:13:00;0.0
2022-07-19 13:14:00;0.0
2022-07-19 13:15:00;0.0
2022-07-19 13:16:00;0.0
2022-07-19 13:17:00;0.0
2022-07-19 13:18:00;0.0
2022-07-19 13:19:00;0.0
2022-07-19 13:20:00;0.0
2022-07-19 13:21:00;0.0
2022-07-19 13:22:00;0.0
2022-07-19 13:23:00;0.0
2022-07-19 13:24:00;0.0
2022-07-19 13:25:00;0.0
2022-07-19 13:26:00;0.0
2022-07-19 13:27:00;0.0
2022-07-19 13:28:00;0.0
2022-07-19 13:29:00;0.0
2022-07-19 13:30:00;0.0
2022-07-19 13:31:00;0.0
2022-07-19 13:32:00;0.0
2022-07-19 13:33:00;0.0
2022-07-19 13:34:00;0.0
2022-07-19 13:35:00;0.0
2022-07-19 13:36:00;0.0
2022-07-19 13:37:00;0.0
2022-07-19 13:38:00;0.0
2022-07-19 13:39:00;0.0
2022-07-19 13:40:00;0.0
2022-07-19 13:41:00;0.0
2022-07-19 13:42:00;0.0
2022-07-19 13:43:00;0.0
2022-07-19 13:44:00;0.0
2022-07-19 13:45:00;0.0
2022-07-19 13:46:00;0.0
2022-07-19 13:47:00;0.0
2022-07-19 13:48:00;0.0
2022-07-19 13:49:00;0.0
2022-07-19 13:50:00;0.0
2022-07-19 13:51:00;0.0
2022-07-19 13:52:00;0.0
2022-07-19 13:53:00;0.0
2022-07-19 13:54:00;0.0
2022-07-19 13:55:00;0.0
2022-07-19 13:56:00;0.0
2022-07-19 13:57:00;0.0
2022-07-19 13:58:00;0.0
2022-07-19 13:59:00;0.0
2022-07-19 14:00:00;0.0
2022-07-19 14:01:00;0.0
2022-07-19 14:02:00;0.0
2022-07-19 14:03:00;0.0
2022-07-19 14:04:00;0.0
2022-07-19 14:05:00;0.0
2022-07-19 14:06:00;0.0
2022-07-19 14:07:00;0.0
2022-07-19 14:08:00;0.0
2022-07-19 14:09:00;0.0
2022-07-19 14:10:00;0.0
2022-07-19 14:11:00;0.0
2022-07-19 14:12:00;0.0
2022-07-19 14:13:00;0.0
2022-07-19 14:14:00;0.0
2022-07-19 14:15:00;0.0
2022-07-19 14:16:00;0.0
2022-07-19 14:17:00;0.0
2022-07-19 14:18:00;0.0
2022-07-19 14:19:00;0.0
2022-07-19 14:20:00;0.0
2022-07-19 14:21:00;0.0
2022-07-19 14:22:00;0.0
2022-07-19 14:23:00;0.0
2022-07-19 14:24:00;0.0
2022-07-19 14:25:00;0.0
2022-07-19 14:26:00;0.0
2022-07-19 14:27:00;0.0
2022-07-19 14:28:00;0.0
2022-07-19 14:29:00;0.0
2022-07-19 14:30:00;0.0
2022-07-19 14:31:00;0.0
2022-07-19 14:32:00;0.0
2022-07-19 14:33:00;0.0
2022-07-19 14:34:00;0.0
2022-07-19 14:35:00;0.0
2022-07-19 14:36:00;0.0
2022-07-19 14:37:00;0.0
2022-07-19 14:38:00;0.0
2022-07-19 14:39:00;0.0
2022-07-19 14:40:00;0.0
2022-07-19 14:41:00;0.0
2022-07-19 14:42:00;0.0
2022-07-19 14:43:00;0.0
2022-07-19 14:44:00;0.0
2022-07-19 14:45:00;0.0
2022-07-19 14:46:00;0.0
2022-07-19 14:47:00;0.0
2022-07-19 14:48:00;0.0
2022-07-19 14:49:00;0.0
2022-07-19 14:50:00;0.0
2022-07-19 14:51:00;0.0
2022-07-19 14:52:00;0.0
2022-07-19 14:53:00;0.0
2022-07-19 14:54:00;0.0
2022-07-19 14:55:00;0.0
2022-07-19 14:56:00;0.0
2022-07-19 14:57:00;0.0
2022-07-19 14:58:00;0.0
2022-07-19 14:59:00;0.0
2022-07-19 15:00:00;0.0
2022-07-19 15:01:00;0.0
2022-07-19 15:02:00;0.0
2022-07-19 15:03:00;0.0
2022-07-19 15:04:00;0.0
2022-07-19 15:05:00;0.0
2022-07-19 15:06:00;0.0
2022-07-19 15:07:00;0.0
2022-07-19 15:08:00;0.0
2022-07-19 15:09:00;0.0
2022-07-19 15:10:00;0.0
2022-07-19 15:11:00;0.0
2022-07-19 15:12:00;0.0
2022-07-19 15:13:00;0.0
2022-07-19 15:14:00;0.0
2022-07-19 15:15:00;0.0
2022-07-19 15:16:00;0.0
2022-07-19 15:17:00;0.0
2022-07-19 15:18:00;0.0
2022-07-19 15:19:00;0.0
2022-07-19 15:20:00;0.0
2022-07-19 15:21:00;0.0
2022-07-19 15:22:00;0.0
2022-07-19 15:23:00;0.0
2022-07-19 15:24:00;0.0
2022-07-19 15:25:00;0.0
2022-07-19 15:26:00;0.0
2022-07-19 15:27:00;0.0
2022-07-19 15:28:00;0.0
2022-07-19 15:29:00;0.0
2022-07-19 15:30:00;0.0
2022-07-19 15:31:00;0.0
2022-07-19 15:32:00;0.0
2022-07-19 15:33:00;0.0
2022-07-19 15:34:00;0.0
2022-07-19 15:35:00;0.0
2022-07-19 15:36:00;0.0
2022-07-19 15:37:00;0.0
2022-07-19 15:38:00;0.0
2022-07-19 15:39:00;0.0
2022-07-19 15:40:00;0.0
2022-07-19 15:41:00;0.0
2022-07-19 15:42:00;0.0
2022-07-19 15:43:00;0.0
2022-07-19 15:44:00;0.0
2022-07-19 15:45:00;0.0
2022-07-19 15:46:00;0.0
2022-07-19 15:47:00;0.0
2022-07-19 15:48:00;0.0
2022-07-19 15:49:00;0.0
2022-07-19 15:50:00;0.0
2022-07-19 15:51:00;0.0
2022-07-19 15:52:00;0.0
2022-07-19 15:53:00;0.0
2022-07-19 15:54:00;0.0
2022-07-19 15:55:00;0.0
2022-07-19 15:56:00;0.0
2022-07-19 15:57:00;0.0
2022-07-19 15:58:00;0.0
2022-07-19 15:59:00;0.0
2022-07-19 16:00:00;0.0
2022-07-19 16:01:00;0.0
2022-07-19 16:02:00;0.0
2022-07-19 16:03:00;0.0
2022-07-19 16:04:00;0.0
2022-07-19 16:05:00;0.0
2022-07-19 16:06:00;0.0
2022-07-19 16:07:00;0.0
2022-07-19 16:08:00;0.0
2022-07-19 16:09:00;0.0
2022-07-19 16:10:00;0.0
2022-07-19 16:11:00;0.0
2022-07-19 16:12:00;0.0
2022-07-19 16:13:00;0.0
2022-07-19 16:14:00;0.0
2022-07-19 16:15:00;0.0
2022-07-19 16:16:00;0.0
2022-07-19 16:17:00;0.0
2022-07-19 16:18:00;0.0
2022-07-19 16:19:00;0.0
2022-07-19 16:20:00;0.0
2022-07-19 16:21:00;0.0
2022-07-19 16:22:00;0.0
2022-07-19 16:23:00;0.0
2022-07-19 16:24:00;0.0
2022-07-19 16:25:00;0.0
2022-07-19 16:26:00;0.0
2022-07-19 16:27:00;0.0
2022-07-19 16:28:00;0.0
2022-07-19 16:29:00;0.0
2022-07-19 16:30:00;0.0
2022-07-19 16:31:00;0.0
2022-07-19 16:32:00;0.0
2022-07-19 16:33:00;0.0
2022-07-19 16:34:00;0.0
2022-07-19 16:35:00;0.0
2022-07-19 16:36:00;0.0
2022-07-19 16:37:00;0.0
2022-07-19 16:38:00;0.0
2022-07-19 16:39:00;0.0
2022-07-19 16:40:00;0.0
2022-07-19 16:41:00;0.0
2022-07-19 16:42:00;0.0
2022-07-19 16:43:00;0.0
2022-07-19 16:44:00;0.0
2022-07-19 16:45:00;0.0
2022-07-19 16:46:00;0.0
2022-07-19 16:47:00;0.0
2022-07-19 16:48:00;0.0
2022-07-19 16:49:00;0.0
2022-07-19 16:50:00;0.0
2022-07-19 16:51:00;0.0
2022-07-19 16:52:00;0.0
2022-07-19 16:53:00;0.0
2022-07-19 16:54:00;0.0
2022-07-19 16:55:00;0.0
2022-07-19 16:56:00;0.0
2022-07-19 16:57:00;0.0
2022-07-19 16:58:00;0.0
2022-07-19 16:59:00;0.0
2022-07-19 17:00:00;0.0
2022-07-19 17:01:00;0.0
2022-07-19 17:02:00;0.0
2022-07-19 17:03:00;0.0
2022-07-19 17:04:00;0.0
2022-07-19 17:05:00;0.0
2022-07-19 17:06:00;0.0
2022-07-19 17:07:00;0.0
2022-07-19 17:08:00;0.0
2022-07-19 17:09:00;0.0
2022-07-19 17:10:00;0.0
2022-07-19 17:11:00;0.0
2022-07-19 17:12:00;0.0
2022-07-19 17:13:00;0.0
2022-07-19 17:14:00;0.0
2022-07-19 17:15:00;0.0
2022-07-19 17:16:00;0.0
2022-07-19 17:17:00;0.0
2022-07-19 17:18:00;0.0
2022-07-19 17:19:00;0.0
2022-07-19 17:20:00;0.0
2022-07-19 17:21:00;0.0
2022-07-19 17:22:00;0.0
2022-07-19 17:23:00;0.0
2022-07-19 17:24:00;0.0
2022-07-19 17:25:00;0.0
2022-07-19 17:26:00;0.0
2022-07-19 17:27:00;0.0
2022-07-19 17:28:00;0.0
2022-07-19 17:29:00;0.0
2022-07-19 17:30:00;0.0
2022-07-19 17:31:00;0.0
2022-07-19 17:32:00;0.0
2022-07-19 17:33:00;0.0
2022-07-19 17:34:00;0.0
2022-07-19 17:35:00;0.0
2022-07-19 17:36:00;0.0
2022-07-19 17:37:00;0.0
2022-07-19 17:38:00;0.0
2022-07-19 17:39:00;0.0
2022-07-19 17:40:00;0.0
2022-07-19 17:41:00;0.0
2022-07-19 17:42:00;0.0
2022-07-19 17:43:00;0.0
2022-07-19 17:44:00;0.0
2022-07-19 17:45:00;0.0
2022-07-19 17:46:00;0.0
2022-07-19 17:47:00;0.0
2022-07-19 17:48:00;0.0
2022-07-19 17:49:00;0.0
2022-07-19 17:50:00;0.0
2022-07-19 17:51:00;0.0
2022-07-19 17:52:00;0.0
2022-07-19 17:53:00;0.0
2022-07-19 17:54:00;0.0
2022-07-19 17:55:00;0.0
2022-07-19 17:56:00;0.0
2022-07-19 17:57:00;0.0
2022-07-19 17:58:00;0.0
2022-07-19 17:59:00;0.0
2022-07-19 18:00:00;0.0
2022-07-19 18:01:00;0.0
2022-07-19 18:02:00;0.0
2022-07-19 18:03:00;0.0
2022-07-19 18:04:00;0.0
2022-07-19 18:05:00;0.0
2022-07-19 18:06:00;0.0
2022-07-19 18:07:00;0.0
2022-07-19 18:08:00;0.0
2022-07-19 18:09:00;0.0
2022-07-19 18:10:00;0.0
2022-07-19 18:11:00;0.0
2022-07-19 18:12:00;0.0
2022-07-19 18:13:00;0.0
2022-07-19 18:14:00;0.0
2022-07-19 18:15:00;0.0
2022-07-19 18:16:00;0.0
2022-07-19 18:17:00;0.0
2022-07-19 18:18:00;0.0
2022-07-19 18:19:00;0.0
2022-07-19 18:20:00;0.0
2022-07-19 18:21:00;0.0
2022-07-19 18:22:00;0.0
2022-07-19 18:23:00;0.0
2022-07-19 18:24:00;0.0
2022-07-19 18:25:00;0.0
2022-07-19 18:26:00;0.0
2022-07-19 18:27:00;0.0
2022-07-19 18:28:00;0.0
2022-07-19 18:29:00;0.0
2022-07-19 18:30:00;0.0
2022-07-19 18:31:00;0.0
2022-07-19 18:32:00;0.0
2022-07-19 18:33:00;0.0
2022-07-19 18:34:00;0.0
2022-07-19 18:35:00;0.0
2022-07-19 18:36:00;0.0
2022-07-19 18:37:00;0.0
2022-07-19 18:38:00;0.0
2022-07-19 18:39:00;0.0
2022-07-19 18:40:00;0.0
2022-07-19 18:41:00;0.0
2022-07-19 18:42:00;0.0
2022-07-19 18:43:00;0.0
2022-07-19 18:44:00;0.0
2022-07-19 18:45:00;0.0
2022-07-19 18:46:00;0.0
2022-07-19 18:47:00;0.0
2022-07-19 18:48:00;0.0
2022-07-19 18:49:00;0.0
2022-07-19 18:50:00;0.0
2022-07-19 18:51:00;0.0
2022-07-19 18:52:00;0.0
2022-07-19 18:53:00;0.0
2022-07-19 18:54:00;0.0
2022-07-19 18:55:00;0.0
2022-07-19 18:56:00;0.0
2022-07-19 18:57:00;0.0
2022-07-19 18:58:00;0.0
2022-07-19 18:59:00;0.0
2022-07-19 19:00:00;0.0
2022-07-19 19:01:00;0.0
2022-07-19 19:02:00;0.0
2022-07-19 19:03:00;0.0
2022-07-19 19:04:00;0.0
2022-07-19 19:05:00;0.0
2022-07-19 19:06:00;0.0
2022-07-19 19:07:00;0.0
2022-07-19 19:08:00;0.0
2022-07-19 19:09:00;0.0
2022-07-19 19:10:00;0.0
2022-07-19 19:11:00;0.0
2022-07-19 19:12:00;0.0
2022-07-19 19:13:00;0.0
2022-07-19 19:14:00;0.0
2022-07-19 19:15:00;0.0
2022-07-19 19:16:00;0.0
2022-07-19 19:17:00;0.0
2022-07-19 19:18:00;0.0
2022-07-19 19:19:00;0.0
2022-07-19 19:20:00;0.0
2022-07-19 19:21:00;0.0
2022-07-19 19:22:00;0.0
2022-07-19 19:23:00;0.0
2022-07-19 19:24:00;0.0
2022-07-19 19:25:00;0.0
2022-07-19 19:26:00;0.0
2022-07-19 19:27:00;0.0
2022-07-19 19:28:00;0.0
2022-07-19 19:29:00;0.0
2022-07-19 19:30:00;0.0
2022-07-19 19:31:00;0.0
2022-07-19 19:32:00;0.0
2022-07-19 19:33:00;0.0
2022-07-19 19:34:00;0.0
2022-07-19 19:35:00;0.0
2022-07-19 19:36:00;0.0
2022-07-19 19:37:00;0.0
2022-07-19 19:38:00;0.0
2022-07-19 19:39:00;0.0
2022-07-19 19:40:00;0.0
2022-07-19 19:41:00;0.0
2022-07-19 19:42:00;0.0
2022-07-19 19:43:00;0.0
2022-07-19 19:44:00;0.0
2022-07-19 19:45:00;0.0
2022-07-19 19:46:00;0.0
2022-07-19 19:47:00;0.0
2022-07-19 19:48:00;0.0
2022-07-19 19:49:00;0.0
2022-07-19 19:50:00;0.0
2022-07-19 19:51:00;0.0
2022-07-19 19:52:00;0.0
2022-07-19 19:53:00;0.0
2022-07-19 19:54:00;0.0
2022-07-19 19:55:00;0.0
2022-07-19 19:56:00;0.0
2022-07-19 19:57:00;0.0
2022-07-19 19:58:00;0.0
2022-07-19 19:59:00;0.0
2022-07-19 20:00:00;0.0
2022-07-19 20:01:00;0.0
2022-07-19 20:02:00;0.0
2022-07-19 20:03:00;0.0
2022-07-19 20:04:00;0.0
2022-07-19 20:05:00;0.0
2022-07-19 20:06:00;0.0
2022-07-19 20:07:00;0.0
2022-07-19 20:08:00;0.0
2022-07-19 20:09:00;0.0
2022-07-19 20:10:00;0.0
2022-07-19 20:11:00;0.0
2022-07-19 20:12:00;0.0
2022-07-19 20:13:00;0.0
2022-07-19 20:14:00;0.0
2022-07-19 20:15:00;0.0
2022-07-19 20:16:00;0.0
2022-07-19 20:17:00;0.0
2022-07-19 20:18:00;0.0
2022-07-19 20:19:00;0.0
2022-07-19 20:20:00;0.0
2022-07-19 20:21:00;0.0
2022-07-19 20:22:00;0.0
2022-07-19 20:23:00;0.0
2022-07-19 20:24:00;0.0
2022-07-19 20:25:00;0.0
2022-07-19 20:26:00;0.0
2022-07-19 20:27:00;0.0
2022-07-19 20:28:00;0.0
2022-07-19 20:29:00;0.0
2022-07-19 20:30:00;0.0
2022-07-19 20:31:00;0.0
2022-07-19 20:32:00;0.0
2022-07-19 20:33:00;0.0
2022-07-19 20:34:00;0.0
2022-07-19 20:35:00;0.0
2022-07-19 20:36:00;0.0
2022-07-19 20:37:00;0.0
2022-07-19 20:38:00;0.0
2022-07-19 20:39:00;0.0
2022-07-19 20:40:00;0.0
2022-07-19 20:41:00;0.0
2022-07-19 20:42:00;0.0
2022-07-19 20:43:00;0.0
2022-07-19 20:44:00;0.0
2022-07-19 20:45:00;0.0
2022-07-19 20:46:00;0.0
2022-07-19 20:47:00;0.0
2022-07-19 20:48:00;0.0
2022-07-19 20:49:00;0.0
2022-07-19 20:50:00;0.0
2022-07-19 20:51:00;0.0
2022-07-19 20:52:00;0.0
2022-07-19 20:53:00;0.0
2022-07-19 20:54:00;0.0
2022-07-19 20:55:00;0.0
2022-07-19 20:56:00;0.0
2022-07-19 20:57:00;0.0
2022-07-19 20:58:00;0.0
2022-07-19 20:59:00;0.0
2022-07-19 21:00:00;0.0
2022-07-19 21:01:00;0.0
2022-07-19 21:02:00;0.0
2022-07-19 21:03:00;0.0
2022-07-19 21:04:00;0.0
2022-07-19 21:05:00;0.0
2022-07-19 21:06:00;0.0
2022-07-19 21:07:00;0.0
2022-07-19 21:08:00;0.0
2022-07-19 21:09:00;0.0
2022-07-19 21:10:00;0.0
2022-07-19 21:11:00;0.0
2022-07-19 21:12:00;0.0
2022-07-19 21:13:00;0.0
2022-07-19 21:14:00;0.0
2022-07-19 21:15:00;0.0
2022-07-19 21:16:00;0.0
2022-07-19 21:17:00;0.0
2022-07-19 21:18:00;0.0
2022-07-19 21:19:00;0.0
2022-07-19 21:20:00;0.0
2022-07-19 21:21:00;0.0
2022-07-19 21:22:00;0.0
2022-07-19 21:23:00;0.0
2022-07-19 21:24:00;0.0
2022-07-19 21:25:00;0.0
2022-07-19 21:26:00;0.0
2022-07-19 21:27:00;0.0
2022-07-19 21:28:00;0.0
2022-07-19 21:29:00;0.0
2022-07-19 21:30:00;0.0
2022-07-19 21:31:00;0.0
2022-07-19 21:32:00;0.0
2022-07-19 21:33:00;0.0
2022-07-19 21:34:00;0.0
2022-07-19 21:35:00;0.0
2022-07-19 21:36:00;0.0
2022-07-19 21:37:00;0.0
2022-07-19 21:38:00;0.0
2022-07-19 21:39:00;0.0
2022-07-19 21:40:00;0.0
2022-07-19 21:41:00;0.0
2022-07-19 21:42:00;0.0
2022-07-19 21:43:00;0.0
2022-07-19 21:44:00;0.0
2022-07-19 21:45:00;0.0
2022-07-19 21:46:00;0.0
2022-07-19 21:47:00;0.0
2022-07-19 21:48:00;0.0
2022-07-19 21:49:00;0.0
2022-07-19 21:50:00;0.0
2022-07-19 21:51:00;0.0
2022-07-19 21:52:00;0.0
2022-07-19 21:53:00;0.0
2022-07-19 21:54:00;0.0
2022-07-19 21:55:00;0.0
2022-07-19 21:56:00;0.0
2022-07-19 21:57:00;0.0
2022-07-19 21:58:00;0.0
2022-07-19 21:59:00;0.0
2022-07-19 22:00:00;0.0
2022-07-19 22:01:00;0.0
2022-07-19 22:02:00;0.0
2022-07-19 22:03:00;0.0
2022-07-19 22:04:00;0.0
2022-07-19 22:05:00;0.0
2022-07-19 22:06:00;0.0
2022-07-19 22:07:00;0.0
2022-07-19 22:08:00;0.0
2022-07-19 22:09:00;0.0
2022-07-19 22:10:00;0.0
2022-07-19 22:11:00;0.0
2022-07-19 22:12:00;0.0
2022-07-19 22:13:00;0.0
2022-07-19 22:14:00;0.0
2022-07-19 22:15:00;0.0
2022-07-19 22:16:00;0.0
2022-07-19 22:17:00;0.0
2022-07-19 22:18:00;0.0
2022-07-19 22:19:00;0.0
2022-07-19 22:20:00;0.0
2022-07-19 22:21:00;0.0
2022-07-19 22:22:00;0.0
2022-07-19 22:23:00;0.0
2022-07-19 22:24:00;0.0
2022-07-19 22:25:00;0.0
2022-07-19 22:26:00;0.0
2022-07-19 22:27:00;0.0
2022-07-19 22:28:00;0.0
2022-07-19 22:29:00;0.0
2022-07-19 22:30:00;0.0
2022-07-19 22:31:00;0.0
2022-07-19 22:32:00;0.0
2022-07-19 22:33:00;0.0
2022-07-19 22:34:00;0.0
2022-07-19 22:35:00;0.0
2022-07-19 22:36:00;0.0
2022-07-19 22:37:00;0.0
2022-07-19 22:38:00;0.0
2022-07-19 22:39:00;0.0
2022-07-19 22:40:00;0.0
2022-07-19 22:41:00;0.0
2022-07-19 22:42:00;0.0
2022-07-19 22:43:00;0.0
2022-07-19 22:44:00;0.0
2022-07-19 22:45:00;0.0
2022-07-19 22:46:00;0.0
2022-07-19 22:47:00;0.0
2022-07-19 22:48:00;0.0
2022-07-19 22:49:00;0.0
2022-07-19 22:50:00;0.0
2022-07-19 22:51:00;0.0
2022-07-19 22:52:00;0.0
2022-07-19 22:53:00;0.0
2022-07-19 22:54:00;0.0
2022-07-19 22:55:00;0.0
2022-07-19 22:56:00;0.0
2022-07-19 22:57:00;0.0
2022-07-19 22:58:00;0.0
2022-07-19 22:59:00;0.0
2022-07-19 23:00:00;0.0
2022-07-19 23:01:00;0.0
2022-07-19 23:02:00;0.0
2022-07-19 23:03:00;0.0
2022-07-19 23:04:00;0.0
2022-07-19 23:05:00;0.0
2022-07-19 23:06:00;0.0
2022-07-19 23:07:00;0.0
2022-07-19 23:08:00;0.0
2022-07-19 23:09:00;0.0
2022-07-19 23:10:00;0.0
2022-07-19 23:11:00;0.0
2022-07-19 23:12:00;0.0
2022-07-19 23:13:00;0.0
2022-07-19 23:14:00;0.0
2022-07-19 23:15:00;0.0
2022-07-19 23:16:00;0.0
2022-07-19 23:17:00;0.0
2022-07-19 23:18:00;0.0
2022-07-19 23:19:00;0.0
2022-07-19 23:20:00;0.0
2022-07-19 23:21:00;0.0
2022-07-19 23:22:00;0.0
2022-07-19 23:23:00;0.0
2022-07-19 23:24:00;0.0
2022-07-19 23:25:00;0.0
2022-07-19 23:26:00;0.0
2022-07-19 23:27:00;0.0
2022-07-19 23:28:00;0.0
2022-07-19 23:29:00;0.0
2022-07-19 23:30:00;0.0
2022-07-19 23:31:00;0.0
2022-07-19 23:32:00;0.0
2022-07-19 23:33:00;0.0
2022-07-19 23:34:00;0.0
2022-07-19 23:35:00;0.0
2022-07-19 23:36:00;0.0
2022-07-19 23:37:00;0.0
2022-07-19 23:38:00;0.0
2022-07-19 23:39:00;0.0
2022-07-19 23:40:00;0.0
2022-07-19 23:41:00;0.0
2022-07-19 23:42:00;0.0
2022-07-19 23:43:00;0.0
2022-07-19 23:44:00;0.0
2022-07-19 23:45:00;0.0
2022-07-19 23:46:00;0.0
2022-07-19 23:47:00;0.0
2022-07-19 23:48:00;0.0
2022-07-19 23:49:00;0.0
2022-07-19 23:50:00;0.0
2022-07-19 23:51:00;0.0
2022-07-19 23:52:00;0.0
2022-07-19 23:53:00;0.0
2022-07-19 23:54:00;0.0
2022-07-19 23:55:00;0.0
2022-07-19 23:56:00;0.0
2022-07-19 23:57:00;0.0
2022-07-19 23:58:00;0.0
2022-07-19 23:59:00;0.0
