Date;Power
2022-07-19 00:00:00;1791.0
2022-07-19 00:01:00;1791.0
2022-07-19 00:02:00;1790.9999999999998
2022-07-19 00:03:00;1791.0
2022-07-19 00:04:00;1791.0
2022-07-19 00:05:00;1791.0
2022-07-19 00:06:00;1791.0000000000005
2022-07-19 00:07:00;1791.0000000000005
2022-07-19 00:08:00;1790.9999999999995
2022-07-19 00:09:00;1791.0
2022-07-19 00:10:00;1791.0
2022-07-19 00:11:00;1790.9999999999995
2022-07-19 00:12:00;1791.0
2022-07-19 00:13:00;1791.0
2022-07-19 00:14:00;1791.0
2022-07-19 00:15:00;1791.0
2022-07-19 00:16:00;1790.9999999999998
2022-07-19 00:17:00;1791.0
2022-07-19 00:18:00;1790.9999999999998
2022-07-19 00:19:00;1791.0
2022-07-19 00:20:00;1790.9999999999993
2022-07-19 00:21:00;1791.0
2022-07-19 00:22:00;1791.0
2022-07-19 00:23:00;1791.0
2022-07-19 00:24:00;1791.0
2022-07-19 00:25:00;1790.9999999999998
2022-07-19 00:26:00;1791.0
2022-07-19 00:27:00;1791.0000000000002
2022-07-19 00:28:00;1791.0
2022-07-19 00:29:00;1791.0
2022-07-19 00:30:00;1790.9999999999998
2022-07-19 00:31:00;1791.0
2022-07-19 00:32:00;1791.0000000000005
2022-07-19 00:33:00;1791.0
2022-07-19 00:34:00;1791.0
2022-07-19 00:35:00;1790.9999999999998
2022-07-19 00:36:00;1790.9999999999998
2022-07-19 00:37:00;1790.9999999999998
2022-07-19 00:38:00;1791.0
2022-07-19 00:39:00;1791.0
2022-07-19 00:40:00;1790.9999999999998
2022-07-19 00:41:00;1791.0
2022-07-19 00:42:00;1791.0
2022-07-19 00:43:00;1790.9999999999995
2022-07-19 00:44:00;1791.0000000000002
2022-07-19 00:45:00;1791.0000000000002
2022-07-19 00:46:00;1791.0
2022-07-19 00:47:00;1791.0
2022-07-19 00:48:00;1790.9999999999998
2022-07-19 00:49:00;1791.0
2022-07-19 00:50:00;1791.0
2022-07-19 00:51:00;1790.9999999999998
2022-07-19 00:52:00;1791.0
2022-07-19 00:53:00;1791.0
2022-07-19 00:54:00;1791.0
2022-07-19 00:55:00;1791.0000000000005
2022-07-19 00:56:00;1791.0
2022-07-19 00:57:00;1791.0
2022-07-19 00:58:00;1790.9999999999998
2022-07-19 00:59:00;1791.0
2022-07-19 01:00:00;1791.0
2022-07-19 01:01:00;1791.0
2022-07-19 01:02:00;1790.9999999999998
2022-07-19 01:03:00;1791.0
2022-07-19 01:04:00;1790.9999999999995
2022-07-19 01:05:00;1790.9999999999998
2022-07-19 01:06:00;1790.9999999999993
2022-07-19 01:07:00;1790.9999999999998
2022-07-19 01:08:00;1791.0
2022-07-19 01:09:00;1791.0
2022-07-19 01:10:00;1791.0
2022-07-19 01:11:00;1791.0
2022-07-19 01:12:00;1791.0
2022-07-19 01:13:00;1791.0
2022-07-19 01:14:00;1790.9999999999998
2022-07-19 01:15:00;1791.0
2022-07-19 01:16:00;1791.0
2022-07-19 01:17:00;1791.0
2022-07-19 01:18:00;1790.9999999999998
2022-07-19 01:19:00;1790.9999999999998
2022-07-19 01:20:00;1791.0
2022-07-19 01:21:00;1791.0
2022-07-19 01:22:00;1791.0000000000002
2022-07-19 01:23:00;1791.0
2022-07-19 01:24:00;1791.0
2022-07-19 01:25:00;2945.0450000000005
2022-07-19 01:26:00;6764.02
2022-07-19 01:27:00;7666.295
2022-07-19 01:28:00;7660.999999999999
2022-07-19 01:29:00;7661.0
2022-07-19 01:30:00;7661.000000000001
2022-07-19 01:31:00;7661.0
2022-07-19 01:32:00;7883.306666666666
2022-07-19 01:33:00;8178.133333333334
2022-07-19 01:34:00;8211.525
2022-07-19 01:35:00;8230.468333333334
2022-07-19 01:36:00;8243.823333333332
2022-07-19 01:37:00;8254.156666666666
2022-07-19 01:38:00;8262.586666666668
2022-07-19 01:39:00;8269.715
2022-07-19 01:40:00;8275.89
2022-07-19 01:41:00;8281.326666666668
2022-07-19 01:42:00;8286.195000000002
2022-07-19 01:43:00;8290.596666666666
2022-07-19 01:44:00;8294.619999999999
2022-07-19 01:45:00;8298.316666666668
2022-07-19 01:46:00;8301.738333333333
2022-07-19 01:47:00;8304.928333333331
2022-07-19 01:48:00;9447.568333333335
2022-07-19 01:49:00;10775.278333333334
2022-07-19 01:50:00;11248.381666666666
2022-07-19 01:51:00;11157.546666666667
2022-07-19 01:52:00;6494.911666666666
2022-07-19 01:53:00;5657.468333333333
2022-07-19 01:54:00;5659.62
2022-07-19 01:55:00;5661.668333333334
2022-07-19 01:56:00;5659.8966666666665
2022-07-19 01:57:00;5483.82
2022-07-19 01:58:00;5600.553333333333
2022-07-19 01:59:00;5575.908333333334
2022-07-19 02:00:00;5576.755
2022-07-19 02:01:00;5578.373333333335
2022-07-19 02:02:00;5579.94
2022-07-19 02:03:00;5581.451666666666
2022-07-19 02:04:00;5582.935
2022-07-19 02:05:00;5584.345
2022-07-19 02:06:00;5585.723333333333
2022-07-19 02:07:00;5587.0633333333335
2022-07-19 02:08:00;5588.800000000001
2022-07-19 02:09:00;5631.0216666666665
2022-07-19 02:10:00;5648.041666666667
2022-07-19 02:11:00;5655.528333333333
2022-07-19 02:12:00;5660.47
2022-07-19 02:13:00;5664.178333333333
2022-07-19 02:14:00;5527.198333333333
2022-07-19 02:15:00;2870.626666666667
2022-07-19 02:16:00;2872.748333333333
2022-07-19 02:17:00;2874.6150000000002
2022-07-19 02:18:00;3049.66
2022-07-19 02:19:00;3223.7783333333336
2022-07-19 02:20:00;2708.4133333333334
2022-07-19 02:21:00;2833.1166666666672
2022-07-19 02:22:00;2815.076666666667
2022-07-19 02:23:00;2822.965
2022-07-19 02:24:00;2829.155
2022-07-19 02:25:00;2834.298333333333
2022-07-19 02:26:00;2838.7100000000005
2022-07-19 02:27:00;2842.583333333333
2022-07-19 02:28:00;2864.8633333333337
2022-07-19 02:29:00;3044.4799999999996
2022-07-19 02:30:00;3263.791666666667
2022-07-19 02:31:00;2866.818333333333
2022-07-19 02:32:00;2845.323333333333
2022-07-19 02:33:00;2845.4266666666667
2022-07-19 02:34:00;2846.018333333333
2022-07-19 02:35:00;2846.5933333333337
2022-07-19 02:36:00;2847.1499999999996
2022-07-19 02:37:00;2847.6816666666673
2022-07-19 02:38:00;2848.2
2022-07-19 02:39:00;2848.7
2022-07-19 02:40:00;2995.586666666667
2022-07-19 02:41:00;3392.736666666666
2022-07-19 02:42:00;2980.506666666667
2022-07-19 02:43:00;2820.9733333333334
2022-07-19 02:44:00;2829.3533333333335
2022-07-19 02:45:00;2834.385
2022-07-19 02:46:00;2838.016666666667
2022-07-19 02:47:00;2840.9049999999997
2022-07-19 02:48:00;2843.3116666666674
2022-07-19 02:49:00;2845.4149999999995
2022-07-19 02:50:00;2847.258333333333
2022-07-19 02:51:00;2982.208333333333
2022-07-19 02:52:00;3365.8250000000003
2022-07-19 02:53:00;3044.925
2022-07-19 02:54:00;3235.8866666666668
2022-07-19 02:55:00;3446.8516666666665
2022-07-19 02:56:00;3606.4383333333326
2022-07-19 02:57:00;3604.651666666666
2022-07-19 02:58:00;3752.746666666667
2022-07-19 02:59:00;3794.758333333333
2022-07-19 03:00:00;2977.3516666666665
2022-07-19 03:01:00;2760.753333333333
2022-07-19 03:02:00;2687.808333333333
2022-07-19 03:03:00;2815.3450000000003
2022-07-19 03:04:00;2853.3450000000003
2022-07-19 03:05:00;2693.0099999999998
2022-07-19 03:06:00;2689.2616666666663
2022-07-19 03:07:00;2689.4633333333327
2022-07-19 03:08:00;2689.7133333333336
2022-07-19 03:09:00;2689.97
2022-07-19 03:10:00;2690.21
2022-07-19 03:11:00;2690.4550000000004
2022-07-19 03:12:00;2690.693333333333
2022-07-19 03:13:00;2690.923333333333
2022-07-19 03:14:00;2802.0633333333335
2022-07-19 03:15:00;2831.148333333333
2022-07-19 03:16:00;3512.465
2022-07-19 03:17:00;8455.324999999999
2022-07-19 03:18:00;8650.773333333334
2022-07-19 03:19:00;8691.35333333333
2022-07-19 03:20:00;8686.855
2022-07-19 03:21:00;8781.041666666668
2022-07-19 03:22:00;8760.215
2022-07-19 03:23:00;4118.2699999999995
2022-07-19 03:24:00;2797.2733333333335
2022-07-19 03:25:00;2774.9583333333335
2022-07-19 03:26:00;2776.6816666666673
2022-07-19 03:27:00;2776.8716666666664
2022-07-19 03:28:00;2777.0600000000004
2022-07-19 03:29:00;2777.2499999999995
2022-07-19 03:30:00;2777.438333333333
2022-07-19 03:31:00;2765.6216666666664
2022-07-19 03:32:00;2753.8
2022-07-19 03:33:00;2753.9766666666665
2022-07-19 03:34:00;2754.16
2022-07-19 03:35:00;2754.33
2022-07-19 03:36:00;2754.4966666666664
2022-07-19 03:37:00;2754.6666666666665
2022-07-19 03:38:00;2754.8416666666667
2022-07-19 03:39:00;3610.58
2022-07-19 03:40:00;5585.641666666666
2022-07-19 03:41:00;5570.428333333333
2022-07-19 03:42:00;5565.29
2022-07-19 03:43:00;5563.618333333334
2022-07-19 03:44:00;5563.121666666668
2022-07-19 03:45:00;5563.111666666667
2022-07-19 03:46:00;2973.41
2022-07-19 03:47:00;2837.3016666666667
2022-07-19 03:48:00;5229.018333333333
2022-07-19 03:49:00;5762.345
2022-07-19 03:50:00;5771.686666666666
2022-07-19 03:51:00;5795.783333333333
2022-07-19 03:52:00;5823.993333333333
2022-07-19 03:53:00;6148.011666666667
2022-07-19 03:54:00;6049.133333333333
2022-07-19 03:55:00;5726.593333333332
2022-07-19 03:56:00;5689.380000000001
2022-07-19 03:57:00;5670.748333333333
2022-07-19 03:58:00;5661.4366666666665
2022-07-19 03:59:00;5677.825000000001
2022-07-19 04:00:00;5783.463333333335
2022-07-19 04:01:00;5809.809999999999
2022-07-19 04:02:00;5822.630000000001
2022-07-19 04:03:00;5831.37
2022-07-19 04:04:00;6068.288333333335
2022-07-19 04:05:00;5975.906666666666
2022-07-19 04:06:00;5776.299999999999
2022-07-19 04:07:00;5771.1483333333335
2022-07-19 04:08:00;5771.173333333333
2022-07-19 04:09:00;5771.3
2022-07-19 04:10:00;5771.431666666666
2022-07-19 04:11:00;5771.548333333334
2022-07-19 04:12:00;5771.67
2022-07-19 04:13:00;5770.208333333333
2022-07-19 04:14:00;4037.5466666666666
2022-07-19 04:15:00;3380.396666666667
2022-07-19 04:16:00;3550.6949999999997
2022-07-19 04:17:00;3055.923333333333
2022-07-19 04:18:00;2940.9400000000005
2022-07-19 04:19:00;2879.1199999999994
2022-07-19 04:20:00;2871.175
2022-07-19 04:21:00;2875.2549999999997
2022-07-19 04:22:00;2891.7366666666658
2022-07-19 04:23:00;2939.691666666667
2022-07-19 04:24:00;2950.3000000000006
2022-07-19 04:25:00;2976.1683333333326
2022-07-19 04:26:00;3202.5433333333335
2022-07-19 04:27:00;3317.816666666666
2022-07-19 04:28:00;3038.84
2022-07-19 04:29:00;3471.2650000000003
2022-07-19 04:30:00;3608.0033333333336
2022-07-19 04:31:00;3681.868333333332
2022-07-19 04:32:00;3681.9283333333333
2022-07-19 04:33:00;3943.9066666666668
2022-07-19 04:34:00;3745.573333333333
2022-07-19 04:35:00;2922.2383333333332
2022-07-19 04:36:00;2813.8866666666663
2022-07-19 04:37:00;2789.378333333333
2022-07-19 04:38:00;3023.1933333333336
2022-07-19 04:39:00;2876.9416666666666
2022-07-19 04:40:00;2783.125
2022-07-19 04:41:00;3026.9783333333335
2022-07-19 04:42:00;2741.9550000000004
2022-07-19 04:43:00;2755.6949999999997
2022-07-19 04:44:00;2761.4366666666665
2022-07-19 04:45:00;2765.2233333333334
2022-07-19 04:46:00;2768.0699999999997
2022-07-19 04:47:00;2770.3633333333337
2022-07-19 04:48:00;2611.2133333333336
2022-07-19 04:49:00;2284.0049999999997
2022-07-19 04:50:00;2096.1016666666665
2022-07-19 04:51:00;2081.413333333333
2022-07-19 04:52:00;2542.848333333333
2022-07-19 04:53:00;2370.0399999999995
2022-07-19 04:54:00;2360.8566666666666
2022-07-19 04:55:00;2360.2183333333337
2022-07-19 04:56:00;2513.985
2022-07-19 04:57:00;2299.403333333333
2022-07-19 04:58:00;1980.2
2022-07-19 04:59:00;1912.6999999999998
2022-07-19 05:00:00;1905.2
2022-07-19 05:01:00;1905.1999999999998
2022-07-19 05:02:00;1954.8566666666666
2022-07-19 05:03:00;2885.946666666667
2022-07-19 05:04:00;5118.388333333333
2022-07-19 05:05:00;5536.008333333333
2022-07-19 05:06:00;5538.32
2022-07-19 05:07:00;5544.253333333333
2022-07-19 05:08:00;5549.011666666666
2022-07-19 05:09:00;5583.458333333334
2022-07-19 05:10:00;6416.75
2022-07-19 05:11:00;7642.371666666668
2022-07-19 05:12:00;7645.021666666667
2022-07-19 05:13:00;7647.405
2022-07-19 05:14:00;7881.735
2022-07-19 05:15:00;7683.815
2022-07-19 05:16:00;7809.898333333333
2022-07-19 05:17:00;7948.014999999999
2022-07-19 05:18:00;8214.028333333334
2022-07-19 05:19:00;8568.52333333333
2022-07-19 05:20:00;8639.700000000003
2022-07-19 05:21:00;8726.35
2022-07-19 05:22:00;8417.015
2022-07-19 05:23:00;8243.87
2022-07-19 05:24:00;8205.593333333332
2022-07-19 05:25:00;8213.198333333334
2022-07-19 05:26:00;8217.874999999998
2022-07-19 05:27:00;8222.468333333334
2022-07-19 05:28:00;8226.995
2022-07-19 05:29:00;8231.453333333333
2022-07-19 05:30:00;6276.571666666668
2022-07-19 05:31:00;5441.239999999999
2022-07-19 05:32:00;5445.5633333333335
2022-07-19 05:33:00;5449.856666666667
2022-07-19 05:34:00;5447.1050000000005
2022-07-19 05:35:00;5394.398333333334
2022-07-19 05:36:00;3621.1650000000004
2022-07-19 05:37:00;3427.528333333333
2022-07-19 05:38:00;3432.585
2022-07-19 05:39:00;5955.331666666667
2022-07-19 05:40:00;6270.475
2022-07-19 05:41:00;6267.278333333334
2022-07-19 05:42:00;6269.478333333333
2022-07-19 05:43:00;6273.535
2022-07-19 05:44:00;6278.213333333333
2022-07-19 05:45:00;4829.221666666666
2022-07-19 05:46:00;3563.815
2022-07-19 05:47:00;3576.541666666668
2022-07-19 05:48:00;3579.5999999999995
2022-07-19 05:49:00;3582.6549999999997
2022-07-19 05:50:00;3585.6933333333327
2022-07-19 05:51:00;5232.623333333334
2022-07-19 05:52:00;5525.785
2022-07-19 05:53:00;5525.571666666666
2022-07-19 05:54:00;5519.775000000001
2022-07-19 05:55:00;5522.778333333334
2022-07-19 05:56:00;5568.886666666666
2022-07-19 05:57:00;5749.405
2022-07-19 05:58:00;5503.741666666666
2022-07-19 05:59:00;5518.889999999999
2022-07-19 06:00:00;5527.299999999998
2022-07-19 06:01:00;5533.876666666665
2022-07-19 06:02:00;5539.701666666668
2022-07-19 06:03:00;5561.215
2022-07-19 06:04:00;5570.7
2022-07-19 06:05:00;5575.743333333333
2022-07-19 06:06:00;5587.835
2022-07-19 06:07:00;5632.525
2022-07-19 06:08:00;5834.073333333334
2022-07-19 06:09:00;5599.905000000001
2022-07-19 06:10:00;5583.821666666665
2022-07-19 06:11:00;5584.41
2022-07-19 06:12:00;5585.316666666667
2022-07-19 06:13:00;5592.286666666666
2022-07-19 06:14:00;5610.56
2022-07-19 06:15:00;5712.426666666667
2022-07-19 06:16:00;5496.323333333332
2022-07-19 06:17:00;3553.778333333333
2022-07-19 06:18:00;3558.9700000000003
2022-07-19 06:19:00;3767.6099999999997
2022-07-19 06:20:00;3530.4016666666666
2022-07-19 06:21:00;5221.818333333334
2022-07-19 06:22:00;6146.68
2022-07-19 06:23:00;6521.0216666666665
2022-07-19 06:24:00;6528.585000000001
2022-07-19 06:25:00;6533.655
2022-07-19 06:26:00;6607.890000000001
2022-07-19 06:27:00;6657.548333333334
2022-07-19 06:28:00;6510.918333333333
2022-07-19 06:29:00;6520.01
2022-07-19 06:30:00;6729.2266666666665
2022-07-19 06:31:00;6529.110000000001
2022-07-19 06:32:00;6659.581666666668
2022-07-19 06:33:00;6783.568333333332
2022-07-19 06:34:00;6887.473333333334
2022-07-19 06:35:00;6885.94
2022-07-19 06:36:00;7681.023333333332
2022-07-19 06:37:00;9164.468333333332
2022-07-19 06:38:00;8615.251666666665
2022-07-19 06:39:00;7371.443333333334
2022-07-19 06:40:00;7324.136666666666
2022-07-19 06:41:00;7327.166666666667
2022-07-19 06:42:00;6819.181666666666
2022-07-19 06:43:00;6901.535000000001
2022-07-19 06:44:00;7917.108333333334
2022-07-19 06:45:00;9847.456666666665
2022-07-19 06:46:00;10309.178333333333
2022-07-19 06:47:00;9493.205000000002
2022-07-19 06:48:00;7214.488333333333
2022-07-19 06:49:00;9799.326666666666
2022-07-19 06:50:00;8294.131666666666
2022-07-19 06:51:00;8743.978333333333
2022-07-19 06:52:00;8128.881666666667
2022-07-19 06:53:00;8100.480000000001
2022-07-19 06:54:00;8177.873333333332
2022-07-19 06:55:00;10956.086666666664
2022-07-19 06:56:00;11146.82666666667
2022-07-19 06:57:00;11762.58
2022-07-19 06:58:00;10548.473333333333
2022-07-19 06:59:00;10508.92
2022-07-19 07:00:00;10508.713333333333
2022-07-19 07:01:00;8873.103333333333
2022-07-19 07:02:00;7782.7733333333335
2022-07-19 07:03:00;7782.883333333333
2022-07-19 07:04:00;7782.989999999999
2022-07-19 07:05:00;7783.098333333334
2022-07-19 07:06:00;8627.843333333334
2022-07-19 07:07:00;9649.861666666668
2022-07-19 07:08:00;8825.55
2022-07-19 07:09:00;7781.849999999999
2022-07-19 07:10:00;8201.761666666667
2022-07-19 07:11:00;8113.871666666666
2022-07-19 07:12:00;4985.098333333333
2022-07-19 07:13:00;5579.831666666667
2022-07-19 07:14:00;5510.251666666667
2022-07-19 07:15:00;7160.796666666666
2022-07-19 07:16:00;6664.231666666667
2022-07-19 07:17:00;7339.879999999998
2022-07-19 07:18:00;7000.283333333333
2022-07-19 07:19:00;6286.8116666666665
2022-07-19 07:20:00;4894.9
2022-07-19 07:21:00;5774.523333333334
2022-07-19 07:22:00;5874.883333333332
2022-07-19 07:23:00;4958.386666666667
2022-07-19 07:24:00;4200.9349999999995
2022-07-19 07:25:00;4170.611666666668
2022-07-19 07:26:00;4009.8666666666672
2022-07-19 07:27:00;3453.3633333333337
2022-07-19 07:28:00;3829.1466666666665
2022-07-19 07:29:00;6256.881666666668
2022-07-19 07:30:00;5727.581666666668
2022-07-19 07:31:00;5054.815000000001
2022-07-19 07:32:00;6432.071666666667
2022-07-19 07:33:00;6940.1866666666665
2022-07-19 07:34:00;7814.118333333334
2022-07-19 07:35:00;8800.293333333333
2022-07-19 07:36:00;8832.816666666666
2022-07-19 07:37:00;7366.411666666667
2022-07-19 07:38:00;7868.609999999999
2022-07-19 07:39:00;7458.353333333334
2022-07-19 07:40:00;7510.261666666667
2022-07-19 07:41:00;7667.674999999999
2022-07-19 07:42:00;7456.358333333334
2022-07-19 07:43:00;7092.551666666666
2022-07-19 07:44:00;6954.878333333331
2022-07-19 07:45:00;6952.766666666667
2022-07-19 07:46:00;6954.391666666666
2022-07-19 07:47:00;7122.055
2022-07-19 07:48:00;7287.009999999999
2022-07-19 07:49:00;7528.681666666669
2022-07-19 07:50:00;7378.141666666666
2022-07-19 07:51:00;7316.0233333333335
2022-07-19 07:52:00;7339.683333333332
2022-07-19 07:53:00;7785.558333333334
2022-07-19 07:54:00;9680.246666666666
2022-07-19 07:55:00;7190.453333333331
2022-07-19 07:56:00;5282.39
2022-07-19 07:57:00;4645.4366666666665
2022-07-19 07:58:00;3505.163333333333
2022-07-19 07:59:00;2964.088333333333
2022-07-19 08:00:00;3567.426666666667
2022-07-19 08:01:00;3796.5350000000003
2022-07-19 08:02:00;2965.466666666667
2022-07-19 08:03:00;2337.1083333333336
2022-07-19 08:04:00;2174.5166666666664
2022-07-19 08:05:00;2244.615
2022-07-19 08:06:00;2156.7133333333336
2022-07-19 08:07:00;2387.6316666666667
2022-07-19 08:08:00;3070.403333333333
2022-07-19 08:09:00;3750.508333333333
2022-07-19 08:10:00;4531.04
2022-07-19 08:11:00;4131.511666666667
2022-07-19 08:12:00;5365.210000000001
2022-07-19 08:13:00;7735.256666666666
2022-07-19 08:14:00;7942.263333333332
2022-07-19 08:15:00;7997.191666666666
2022-07-19 08:16:00;8741.026666666667
2022-07-19 08:17:00;8622.338333333335
2022-07-19 08:18:00;7475.915
2022-07-19 08:19:00;4963.621666666667
2022-07-19 08:20:00;4048.8766666666675
2022-07-19 08:21:00;4019.1716666666675
2022-07-19 08:22:00;6281.154999999999
2022-07-19 08:23:00;5866.244999999999
2022-07-19 08:24:00;4774.431666666667
2022-07-19 08:25:00;5071.131666666667
2022-07-19 08:26:00;5490.458333333333
2022-07-19 08:27:00;4600.655
2022-07-19 08:28:00;3931.666666666667
2022-07-19 08:29:00;4393.458333333333
2022-07-19 08:30:00;4271.248333333333
2022-07-19 08:31:00;5707.713333333334
2022-07-19 08:32:00;7231.865
2022-07-19 08:33:00;6088.81
2022-07-19 08:34:00;6497.076666666667
2022-07-19 08:35:00;8317.779999999999
2022-07-19 08:36:00;10978.419999999998
2022-07-19 08:37:00;10739.026666666668
2022-07-19 08:38:00;8779.928333333333
2022-07-19 08:39:00;7346.5599999999995
2022-07-19 08:40:00;6871.213333333332
2022-07-19 08:41:00;6506.911666666667
2022-07-19 08:42:00;8334.67
2022-07-19 08:43:00;5826.693333333332
2022-07-19 08:44:00;4062.798333333333
2022-07-19 08:45:00;4706.843333333334
2022-07-19 08:46:00;4017.463333333334
2022-07-19 08:47:00;2973.7500000000005
2022-07-19 08:48:00;3381.755
2022-07-19 08:49:00;4405.750000000002
2022-07-19 08:50:00;3465.97
2022-07-19 08:51:00;2803.1000000000004
2022-07-19 08:52:00;2785.4
2022-07-19 08:53:00;2384.9733333333334
2022-07-19 08:54:00;2957.9766666666665
2022-07-19 08:55:00;2937.948333333334
2022-07-19 08:56:00;3249.626666666667
2022-07-19 08:57:00;6134.356666666667
2022-07-19 08:58:00;5758.189999999999
2022-07-19 08:59:00;3817.7516666666666
2022-07-19 09:00:00;4843.491666666667
2022-07-19 09:01:00;5030.731666666667
2022-07-19 09:02:00;3123.38
2022-07-19 09:03:00;2287.586666666666
2022-07-19 09:04:00;3429.4249999999993
2022-07-19 09:05:00;3019.5183333333334
2022-07-19 09:06:00;4332.096666666667
2022-07-19 09:07:00;4067.366666666665
2022-07-19 09:08:00;4698.879999999999
2022-07-19 09:09:00;6250.349999999999
2022-07-19 09:10:00;5674.948333333333
2022-07-19 09:11:00;4135.161666666667
2022-07-19 09:12:00;2846.411666666667
2022-07-19 09:13:00;3097.551666666667
2022-07-19 09:14:00;3563.491666666667
2022-07-19 09:15:00;2729.7350000000006
2022-07-19 09:16:00;3195.8383333333336
2022-07-19 09:17:00;2859.471666666667
2022-07-19 09:18:00;2732.411666666667
2022-07-19 09:19:00;2845.0900000000006
2022-07-19 09:20:00;4011.086666666666
2022-07-19 09:21:00;3448.9133333333334
2022-07-19 09:22:00;6696.736666666667
2022-07-19 09:23:00;5937.191666666668
2022-07-19 09:24:00;4635.541666666667
2022-07-19 09:25:00;4853.003333333334
2022-07-19 09:26:00;4894.15
2022-07-19 09:27:00;3979.091666666667
2022-07-19 09:28:00;2948.778333333333
2022-07-19 09:29:00;3861.0000000000005
2022-07-19 09:30:00;2608.1516666666666
2022-07-19 09:31:00;2211.28
2022-07-19 09:32:00;2124.721666666667
2022-07-19 09:33:00;3552.3233333333333
2022-07-19 09:34:00;4130.386666666666
2022-07-19 09:35:00;3712.6316666666667
2022-07-19 09:36:00;4132.656666666667
2022-07-19 09:37:00;3097.8916666666664
2022-07-19 09:38:00;2966.6399999999994
2022-07-19 09:39:00;3004.1566666666677
2022-07-19 09:40:00;4014.8933333333334
2022-07-19 09:41:00;5080.808333333333
2022-07-19 09:42:00;4811.665
2022-07-19 09:43:00;4195.08
2022-07-19 09:44:00;4204.539999999999
2022-07-19 09:45:00;5133.535000000001
2022-07-19 09:46:00;5823.3550000000005
2022-07-19 09:47:00;4821.163333333333
2022-07-19 09:48:00;4786.23
2022-07-19 09:49:00;4524.941666666667
2022-07-19 09:50:00;4616.346666666667
2022-07-19 09:51:00;4622.286666666667
2022-07-19 09:52:00;4610.341666666667
2022-07-19 09:53:00;4796.805
2022-07-19 09:54:00;4630.598333333334
2022-07-19 09:55:00;5020.141666666668
2022-07-19 09:56:00;6856.5666666666675
2022-07-19 09:57:00;8332.386666666664
2022-07-19 09:58:00;8311.331666666665
2022-07-19 09:59:00;8286.194999999998
2022-07-19 10:00:00;8292.42333333333
2022-07-19 10:01:00;8301.114999999998
2022-07-19 10:02:00;8300.741666666667
2022-07-19 10:03:00;8296.911666666665
2022-07-19 10:04:00;8296.16333333333
2022-07-19 10:05:00;8290.878333333332
2022-07-19 10:06:00;7032.65
2022-07-19 10:07:00;6417.0166666666655
2022-07-19 10:08:00;6290.601666666665
2022-07-19 10:09:00;5270.3899999999985
2022-07-19 10:10:00;5274.853333333332
2022-07-19 10:11:00;5330.884999999999
2022-07-19 10:12:00;5330.801666666665
2022-07-19 10:13:00;5328.199999999998
2022-07-19 10:14:00;5328.866666666666
2022-07-19 10:15:00;5328.086666666665
2022-07-19 10:16:00;5329.134999999998
2022-07-19 10:17:00;5291.855
2022-07-19 10:18:00;5216.844999999999
2022-07-19 10:19:00;6781.626666666667
2022-07-19 10:20:00;7374.616666666666
2022-07-19 10:21:00;8569.193333333333
2022-07-19 10:22:00;6587.374999999999
2022-07-19 10:23:00;6257.458333333332
2022-07-19 10:24:00;6261.076666666666
2022-07-19 10:25:00;6292.333333333334
2022-07-19 10:26:00;6984.1833333333325
2022-07-19 10:27:00;6279.261666666667
2022-07-19 10:28:00;6368.099999999999
2022-07-19 10:29:00;6342.956666666667
2022-07-19 10:30:00;6107.083333333333
2022-07-19 10:31:00;5746.335
2022-07-19 10:32:00;6282.218333333332
2022-07-19 10:33:00;4355.006666666666
2022-07-19 10:34:00;4361.411666666667
2022-07-19 10:35:00;4363.748333333334
2022-07-19 10:36:00;4365.611666666666
2022-07-19 10:37:00;4365.488333333333
2022-07-19 10:38:00;4365.343333333334
2022-07-19 10:39:00;4365.674999999999
2022-07-19 10:40:00;5484.49
2022-07-19 10:41:00;6242.718333333334
2022-07-19 10:42:00;5147.578333333335
2022-07-19 10:43:00;4325.331666666669
2022-07-19 10:44:00;4326.034999999999
2022-07-19 10:45:00;4328.415
2022-07-19 10:46:00;4331.526666666667
2022-07-19 10:47:00;2905.3366666666666
2022-07-19 10:48:00;2643.7016666666664
2022-07-19 10:49:00;2711.068333333333
2022-07-19 10:50:00;4265.868333333334
2022-07-19 10:51:00;4247.198333333334
2022-07-19 10:52:00;3232.811666666667
2022-07-19 10:53:00;3228.7783333333327
2022-07-19 10:54:00;3591.9466666666667
2022-07-19 10:55:00;3485.0116666666668
2022-07-19 10:56:00;3570.401666666666
2022-07-19 10:57:00;4892.5233333333335
2022-07-19 10:58:00;4209.586666666667
2022-07-19 10:59:00;4409.511666666668
2022-07-19 11:00:00;4513.316666666667
2022-07-19 11:01:00;3833.178333333333
2022-07-19 11:02:00;3426.1900000000005
2022-07-19 11:03:00;3474.9850000000006
2022-07-19 11:04:00;4735.615
2022-07-19 11:05:00;4510.081666666667
2022-07-19 11:06:00;4953.5616666666665
2022-07-19 11:07:00;4496.115000000001
2022-07-19 11:08:00;4092.5733333333333
2022-07-19 11:09:00;3459.3433333333332
2022-07-19 11:10:00;3550.3616666666676
2022-07-19 11:11:00;3689.26
2022-07-19 11:12:00;3516.8633333333332
2022-07-19 11:13:00;4087.501666666666
2022-07-19 11:14:00;3520.5483333333336
2022-07-19 11:15:00;4012.731666666666
2022-07-19 11:16:00;3314.380000000001
2022-07-19 11:17:00;2379.1949999999997
2022-07-19 11:18:00;2386.91
2022-07-19 11:19:00;2392.2500000000005
2022-07-19 11:20:00;2402.13
2022-07-19 11:21:00;2526.891666666668
2022-07-19 11:22:00;2514.3599999999997
2022-07-19 11:23:00;2352.925
2022-07-19 11:24:00;2536.938333333334
2022-07-19 11:25:00;2692.383333333333
2022-07-19 11:26:00;2749.380000000001
2022-07-19 11:27:00;2798.9083333333338
2022-07-19 11:28:00;2851.175000000001
2022-07-19 11:29:00;2960.4583333333344
2022-07-19 11:30:00;2516.591666666667
2022-07-19 11:31:00;2414.9249999999993
2022-07-19 11:32:00;2372.486666666666
2022-07-19 11:33:00;2375.3216666666667
2022-07-19 11:34:00;2351.65
2022-07-19 11:35:00;2329.433333333333
2022-07-19 11:36:00;2353.3383333333327
2022-07-19 11:37:00;2418.326666666667
2022-07-19 11:38:00;2458.8433333333332
2022-07-19 11:39:00;2470.916666666666
2022-07-19 11:40:00;2447.685
2022-07-19 11:41:00;2446.1433333333334
2022-07-19 11:42:00;2411.55
2022-07-19 11:43:00;2411.1966666666663
2022-07-19 11:44:00;2385.7866666666664
2022-07-19 11:45:00;2384.8233333333333
2022-07-19 11:46:00;2766.5149999999994
2022-07-19 11:47:00;5241.013333333333
2022-07-19 11:48:00;5220.831666666668
2022-07-19 11:49:00;5216.293333333333
2022-07-19 11:50:00;5227.118333333333
2022-07-19 11:51:00;5220.174999999999
2022-07-19 11:52:00;5195.460000000002
2022-07-19 11:53:00;3050.0233333333335
2022-07-19 11:54:00;2446.993333333334
2022-07-19 11:55:00;2462.93
2022-07-19 11:56:00;2488.26
2022-07-19 11:57:00;2459.5533333333333
2022-07-19 11:58:00;2453.693333333333
2022-07-19 11:59:00;2525.9933333333333
2022-07-19 12:00:00;2472.92
2022-07-19 12:01:00;2440.851666666667
2022-07-19 12:02:00;2405.5016666666666
2022-07-19 12:03:00;2437.6400000000003
2022-07-19 12:04:00;2363.7283333333335
2022-07-19 12:05:00;2317.4200000000005
2022-07-19 12:06:00;2408.823333333333
2022-07-19 12:07:00;2389.771666666666
2022-07-19 12:08:00;2386.2666666666673
2022-07-19 12:09:00;2345.8350000000005
2022-07-19 12:10:00;2332.428333333333
2022-07-19 12:11:00;2314.976666666667
2022-07-19 12:12:00;2319.4049999999997
2022-07-19 12:13:00;2325.001666666667
2022-07-19 12:14:00;2332.703333333333
2022-07-19 12:15:00;2332.773333333333
2022-07-19 12:16:00;2333.8399999999997
2022-07-19 12:17:00;2334.255
2022-07-19 12:18:00;2329.2250000000004
2022-07-19 12:19:00;2326.076666666667
2022-07-19 12:20:00;2325.9466666666667
2022-07-19 12:21:00;2335.8833333333337
2022-07-19 12:22:00;2357.1583333333338
2022-07-19 12:23:00;2548.5316666666668
2022-07-19 12:24:00;3308.7133333333336
2022-07-19 12:25:00;3507.0816666666674
2022-07-19 12:26:00;3423.45
2022-07-19 12:27:00;3366.8216666666667
2022-07-19 12:28:00;3969.478333333334
2022-07-19 12:29:00;4177.465
2022-07-19 12:30:00;3488.62
2022-07-19 12:31:00;3523.441666666666
2022-07-19 12:32:00;2428.536666666667
2022-07-19 12:33:00;2609.8016666666667
2022-07-19 12:34:00;2729.375
2022-07-19 12:35:00;2561.8500000000004
2022-07-19 12:36:00;2143.325
2022-07-19 12:37:00;2141.713333333333
2022-07-19 12:38:00;2142.7750000000005
2022-07-19 12:39:00;2092.536666666667
2022-07-19 12:40:00;2078.026666666666
2022-07-19 12:41:00;2077.418333333333
2022-07-19 12:42:00;2706.895
2022-07-19 12:43:00;2692.0083333333337
2022-07-19 12:44:00;2171.2799999999997
2022-07-19 12:45:00;2672.711666666667
2022-07-19 12:46:00;2283.7033333333334
2022-07-19 12:47:00;2131.0583333333334
2022-07-19 12:48:00;2124.7233333333334
2022-07-19 12:49:00;2130.86
2022-07-19 12:50:00;2119.063333333333
2022-07-19 12:51:00;2116.3783333333336
2022-07-19 12:52:00;2070.98
2022-07-19 12:53:00;2013.1166666666668
2022-07-19 12:54:00;2002.6000000000001
2022-07-19 12:55:00;2012.7633333333333
2022-07-19 12:56:00;2125.125
2022-07-19 12:57:00;2100.4300000000003
2022-07-19 12:58:00;2097.0033333333336
2022-07-19 12:59:00;2382.3116666666665
2022-07-19 13:00:00;2455.3500000000004
2022-07-19 13:01:00;2480.2683333333334
2022-07-19 13:02:00;2471.02
2022-07-19 13:03:00;2516.47
2022-07-19 13:04:00;2408.84
2022-07-19 13:05:00;2006.2633333333333
2022-07-19 13:06:00;2310.5566666666673
2022-07-19 13:07:00;2875.703333333333
2022-07-19 13:08:00;1986.8849999999998
2022-07-19 13:09:00;2758.5516666666663
2022-07-19 13:10:00;3371.7666666666673
2022-07-19 13:11:00;2487.146666666667
2022-07-19 13:12:00;2077.846666666667
2022-07-19 13:13:00;2491.5883333333336
2022-07-19 13:14:00;2508.041666666667
2022-07-19 13:15:00;3279.42
2022-07-19 13:16:00;4459.428333333334
2022-07-19 13:17:00;3542.913333333334
2022-07-19 13:18:00;4315.625
2022-07-19 13:19:00;4584.241666666667
2022-07-19 13:20:00;2232.92
2022-07-19 13:21:00;2810.1499999999996
2022-07-19 13:22:00;2199.4233333333336
2022-07-19 13:23:00;2175.6566666666668
2022-07-19 13:24:00;2164.5450000000005
2022-07-19 13:25:00;2187.3
2022-07-19 13:26:00;2211.9883333333332
2022-07-19 13:27:00;2165.3150000000005
2022-07-19 13:28:00;2207.3216666666667
2022-07-19 13:29:00;2195.5933333333337
2022-07-19 13:30:00;3455.9049999999997
2022-07-19 13:31:00;2398.74
2022-07-19 13:32:00;2176.741666666667
2022-07-19 13:33:00;2823.7116666666666
2022-07-19 13:34:00;2178.9649999999997
2022-07-19 13:35:00;2178.955
2022-07-19 13:36:00;2815.071666666667
2022-07-19 13:37:00;3537.8466666666664
2022-07-19 13:38:00;3470.6533333333336
2022-07-19 13:39:00;3385.163333333334
2022-07-19 13:40:00;3529.971666666667
2022-07-19 13:41:00;2270.4466666666667
2022-07-19 13:42:00;3222.386666666667
2022-07-19 13:43:00;3074.6716666666675
2022-07-19 13:44:00;2218.561666666666
2022-07-19 13:45:00;2369.283333333333
2022-07-19 13:46:00;3527.9749999999995
2022-07-19 13:47:00;2775.8483333333334
2022-07-19 13:48:00;2768.35
2022-07-19 13:49:00;3087.210000000001
2022-07-19 13:50:00;3162.0933333333337
2022-07-19 13:51:00;3099.2716666666665
2022-07-19 13:52:00;2823.585
2022-07-19 13:53:00;2817.355
2022-07-19 13:54:00;3713.7666666666664
2022-07-19 13:55:00;4085.7399999999993
2022-07-19 13:56:00;2837.573333333333
2022-07-19 13:57:00;3719.8483333333334
2022-07-19 13:58:00;4787.878333333333
2022-07-19 13:59:00;3350.3733333333334
2022-07-19 14:00:00;2900.326666666667
2022-07-19 14:01:00;3000.6566666666663
2022-07-19 14:02:00;3789.225
2022-07-19 14:03:00;5174.393333333332
2022-07-19 14:04:00;5772.733333333334
2022-07-19 14:05:00;5223.199999999999
2022-07-19 14:06:00;5710.3150000000005
2022-07-19 14:07:00;4187.52
2022-07-19 14:08:00;5326.6083333333345
2022-07-19 14:09:00;4102.121666666667
2022-07-19 14:10:00;4080.9616666666666
2022-07-19 14:11:00;4103.428333333332
2022-07-19 14:12:00;4085.2633333333333
2022-07-19 14:13:00;4067.5699999999997
2022-07-19 14:14:00;4328.195
2022-07-19 14:15:00;4327.59
2022-07-19 14:16:00;3546.281666666667
2022-07-19 14:17:00;4077.395000000001
2022-07-19 14:18:00;4403.979999999999
2022-07-19 14:19:00;5053.138333333334
2022-07-19 14:20:00;4984.219999999999
2022-07-19 14:21:00;7173.568333333333
2022-07-19 14:22:00;5932.848333333333
2022-07-19 14:23:00;6399.836666666667
2022-07-19 14:24:00;6985.565
2022-07-19 14:25:00;7795.185000000001
2022-07-19 14:26:00;8337.401666666665
2022-07-19 14:27:00;7459.848333333333
2022-07-19 14:28:00;7039.291666666667
2022-07-19 14:29:00;7022.548333333333
2022-07-19 14:30:00;7821.988333333333
2022-07-19 14:31:00;7037.414999999999
2022-07-19 14:32:00;6940.656666666667
2022-07-19 14:33:00;6943.538333333333
2022-07-19 14:34:00;6971.605
2022-07-19 14:35:00;8120.634999999998
2022-07-19 14:36:00;6460.255
2022-07-19 14:37:00;5833.625
2022-07-19 14:38:00;6491.718333333333
2022-07-19 14:39:00;6915.608333333335
2022-07-19 14:40:00;8498.87833333333
2022-07-19 14:41:00;7734.271666666667
2022-07-19 14:42:00;7118.915000000001
2022-07-19 14:43:00;6501.295000000001
2022-07-19 14:44:00;6413.24
2022-07-19 14:45:00;5862.981666666667
2022-07-19 14:46:00;5862.001666666666
2022-07-19 14:47:00;3369.445
2022-07-19 14:48:00;3092.4783333333326
2022-07-19 14:49:00;3096.205
2022-07-19 14:50:00;3097.4016666666666
2022-07-19 14:51:00;3090.383333333333
2022-07-19 14:52:00;3025.173333333333
2022-07-19 14:53:00;4084.3099999999995
2022-07-19 14:54:00;4263.886666666667
2022-07-19 14:55:00;4262.301666666666
2022-07-19 14:56:00;4269.373333333335
2022-07-19 14:57:00;4243.766666666666
2022-07-19 14:58:00;4233.003333333333
2022-07-19 14:59:00;4222.836666666667
2022-07-19 15:00:00;4219.8099999999995
2022-07-19 15:01:00;4230.905000000001
2022-07-19 15:02:00;4230.393333333333
2022-07-19 15:03:00;4240.553333333333
2022-07-19 15:04:00;4185.043333333333
2022-07-19 15:05:00;3275.1950000000006
2022-07-19 15:06:00;3023.9716666666673
2022-07-19 15:07:00;3011.131666666667
2022-07-19 15:08:00;3704.9683333333337
2022-07-19 15:09:00;4267.541666666667
2022-07-19 15:10:00;4277.81
2022-07-19 15:11:00;4369.699999999999
2022-07-19 15:12:00;4502.491666666666
2022-07-19 15:13:00;6249.59
2022-07-19 15:14:00;6720.361666666667
2022-07-19 15:15:00;6557.28
2022-07-19 15:16:00;6564.005
2022-07-19 15:17:00;6599.865
2022-07-19 15:18:00;6722.395
2022-07-19 15:19:00;6689.743333333336
2022-07-19 15:20:00;6108.226666666667
2022-07-19 15:21:00;5530.014999999999
2022-07-19 15:22:00;5524.288333333334
2022-07-19 15:23:00;5539.993333333334
2022-07-19 15:24:00;5642.421666666667
2022-07-19 15:25:00;5736.496666666669
2022-07-19 15:26:00;5569.59
2022-07-19 15:27:00;5623.749999999999
2022-07-19 15:28:00;5639.664999999999
2022-07-19 15:29:00;5644.024999999999
2022-07-19 15:30:00;6171.75
2022-07-19 15:31:00;6739.380000000002
2022-07-19 15:32:00;6752.481666666667
2022-07-19 15:33:00;6835.454999999999
2022-07-19 15:34:00;6885.910000000003
2022-07-19 15:35:00;6940.200000000001
2022-07-19 15:36:00;7065.168333333333
2022-07-19 15:37:00;6881.213333333334
2022-07-19 15:38:00;6208.523333333334
2022-07-19 15:39:00;4829.711666666666
2022-07-19 15:40:00;4869.2283333333335
2022-07-19 15:41:00;4897.571666666668
2022-07-19 15:42:00;4342.746666666668
2022-07-19 15:43:00;3691.5033333333336
2022-07-19 15:44:00;3695.9466666666663
2022-07-19 15:45:00;4080.336666666667
2022-07-19 15:46:00;4290.741666666666
2022-07-19 15:47:00;4360.775000000001
2022-07-19 15:48:00;4303.9349999999995
2022-07-19 15:49:00;4538.431666666666
2022-07-19 15:50:00;4603.058333333333
2022-07-19 15:51:00;4675.448333333333
2022-07-19 15:52:00;4674.594999999999
2022-07-19 15:53:00;5285.299999999999
2022-07-19 15:54:00;6727.704999999999
2022-07-19 15:55:00;6257.318333333333
2022-07-19 15:56:00;6121.495000000001
2022-07-19 15:57:00;6089.18
2022-07-19 15:58:00;6036.8566666666675
2022-07-19 15:59:00;6006.736666666667
2022-07-19 16:00:00;6011.18
2022-07-19 16:01:00;5989.2283333333335
2022-07-19 16:02:00;5985.41
2022-07-19 16:03:00;6012.336666666668
2022-07-19 16:04:00;6001.981666666667
2022-07-19 16:05:00;6050.326666666666
2022-07-19 16:06:00;6058.16
2022-07-19 16:07:00;6028.513333333333
2022-07-19 16:08:00;5974.916666666667
2022-07-19 16:09:00;5977.351666666668
2022-07-19 16:10:00;6023.5666666666675
2022-07-19 16:11:00;6412.981666666668
2022-07-19 16:12:00;8841.778333333332
2022-07-19 16:13:00;8825.146666666666
2022-07-19 16:14:00;8835.138333333334
2022-07-19 16:15:00;8846.996666666666
2022-07-19 16:16:00;8831.704999999998
2022-07-19 16:17:00;8896.194999999998
2022-07-19 16:18:00;6730.593333333334
2022-07-19 16:19:00;5021.23
2022-07-19 16:20:00;4293.293333333334
2022-07-19 16:21:00;4303.498333333333
2022-07-19 16:22:00;4286.235000000001
2022-07-19 16:23:00;4325.5599999999995
2022-07-19 16:24:00;4380.006666666667
2022-07-19 16:25:00;4341.551666666667
2022-07-19 16:26:00;4381.678333333333
2022-07-19 16:27:00;4338.171666666666
2022-07-19 16:28:00;4308.445
2022-07-19 16:29:00;4301.223333333333
2022-07-19 16:30:00;4319.900000000001
2022-07-19 16:31:00;4283.13
2022-07-19 16:32:00;4221.65
2022-07-19 16:33:00;4164.495
2022-07-19 16:34:00;4182.278333333334
2022-07-19 16:35:00;4369.7266666666665
2022-07-19 16:36:00;4316.955000000001
2022-07-19 16:37:00;4307.918333333334
2022-07-19 16:38:00;4520.086666666668
2022-07-19 16:39:00;5435.788333333334
2022-07-19 16:40:00;5418.218333333333
2022-07-19 16:41:00;5464.956666666666
2022-07-19 16:42:00;5515.666666666666
2022-07-19 16:43:00;5527.545
2022-07-19 16:44:00;5509.466666666666
2022-07-19 16:45:00;5466.126666666667
2022-07-19 16:46:00;5474.611666666667
2022-07-19 16:47:00;5156.9783333333335
2022-07-19 16:48:00;4954.476666666665
2022-07-19 16:49:00;4754.903333333333
2022-07-19 16:50:00;4410.493333333334
2022-07-19 16:51:00;3418.504999999999
2022-07-19 16:52:00;3411.3016666666654
2022-07-19 16:53:00;3383.7783333333327
2022-07-19 16:54:00;3453.3883333333333
2022-07-19 16:55:00;3504.5550000000003
2022-07-19 16:56:00;3475.2900000000004
2022-07-19 16:57:00;3487.4316666666664
2022-07-19 16:58:00;3573.198333333332
2022-07-19 16:59:00;3688.128333333334
2022-07-19 17:00:00;3598.995
2022-07-19 17:01:00;3576.791666666667
2022-07-19 17:02:00;3499.488333333333
2022-07-19 17:03:00;3436.7599999999993
2022-07-19 17:04:00;3422.708333333333
2022-07-19 17:05:00;3502.078333333334
2022-07-19 17:06:00;3575.9100000000003
2022-07-19 17:07:00;3592.6550000000007
2022-07-19 17:08:00;3552.9983333333334
2022-07-19 17:09:00;3474.885
2022-07-19 17:10:00;3601.818333333333
2022-07-19 17:11:00;3504.1550000000007
2022-07-19 17:12:00;3321.32
2022-07-19 17:13:00;3340.3899999999994
2022-07-19 17:14:00;3597.4249999999997
2022-07-19 17:15:00;3987.0249999999996
2022-07-19 17:16:00;3957.8266666666677
2022-07-19 17:17:00;4007.498333333333
2022-07-19 17:18:00;3998.473333333333
2022-07-19 17:19:00;4051.855
2022-07-19 17:20:00;4073.691666666666
2022-07-19 17:21:00;4152.511666666666
2022-07-19 17:22:00;4065.0500000000006
2022-07-19 17:23:00;3986.083333333333
2022-07-19 17:24:00;4247.2266666666665
2022-07-19 17:25:00;4337.525
2022-07-19 17:26:00;4364.521666666667
2022-07-19 17:27:00;4351.956666666667
2022-07-19 17:28:00;4461.5
2022-07-19 17:29:00;4334.74
2022-07-19 17:30:00;3936.8650000000007
2022-07-19 17:31:00;3900.8100000000004
2022-07-19 17:32:00;3881.6583333333338
2022-07-19 17:33:00;3881.418333333333
2022-07-19 17:34:00;3896.0433333333326
2022-07-19 17:35:00;3792.4849999999997
2022-07-19 17:36:00;3744.9300000000003
2022-07-19 17:37:00;3770.298333333333
2022-07-19 17:38:00;3804.1566666666668
2022-07-19 17:39:00;3801.0849999999996
2022-07-19 17:40:00;3808.965
2022-07-19 17:41:00;3811.5299999999997
2022-07-19 17:42:00;3932.1333333333328
2022-07-19 17:43:00;3923.8133333333335
2022-07-19 17:44:00;3969.1900000000005
2022-07-19 17:45:00;3992.833333333334
2022-07-19 17:46:00;3988.1449999999995
2022-07-19 17:47:00;3992.8916666666664
2022-07-19 17:48:00;3995.1949999999997
2022-07-19 17:49:00;4076.2116666666666
2022-07-19 17:50:00;3979.4116666666673
2022-07-19 17:51:00;3969.1333333333328
2022-07-19 17:52:00;3930.4316666666664
2022-07-19 17:53:00;3965.0666666666666
2022-07-19 17:54:00;3993.528333333334
2022-07-19 17:55:00;3990.0566666666664
2022-07-19 17:56:00;3943.4283333333333
2022-07-19 17:57:00;3940.816666666667
2022-07-19 17:58:00;3892.981666666666
2022-07-19 17:59:00;3873.411666666667
2022-07-19 18:00:00;4087.998333333333
2022-07-19 18:01:00;4214.226666666667
2022-07-19 18:02:00;4252.363333333334
2022-07-19 18:03:00;4271.566666666667
2022-07-19 18:04:00;4242.846666666666
2022-07-19 18:05:00;4247.6466666666665
2022-07-19 18:06:00;4279.411666666667
2022-07-19 18:07:00;4255.280000000001
2022-07-19 18:08:00;4251.599999999999
2022-07-19 18:09:00;4275.6466666666665
2022-07-19 18:10:00;4287.278333333333
2022-07-19 18:11:00;4281.668333333332
2022-07-19 18:12:00;4285.528333333335
2022-07-19 18:13:00;4331.8516666666665
2022-07-19 18:14:00;4330.116666666667
2022-07-19 18:15:00;4307.886666666667
2022-07-19 18:16:00;4279.530000000001
2022-07-19 18:17:00;4297.631666666666
2022-07-19 18:18:00;4339.448333333333
2022-07-19 18:19:00;4289.226666666667
2022-07-19 18:20:00;4275.548333333333
2022-07-19 18:21:00;4256.605
2022-07-19 18:22:00;3926.3433333333337
2022-07-19 18:23:00;3588.781666666667
2022-07-19 18:24:00;3465.8116666666674
2022-07-19 18:25:00;3469.6283333333336
2022-07-19 18:26:00;3441.1333333333337
2022-07-19 18:27:00;3425.331666666667
2022-07-19 18:28:00;3490.9099999999994
2022-07-19 18:29:00;3502.6749999999997
2022-07-19 18:30:00;3549.6633333333334
2022-07-19 18:31:00;3593.3883333333333
2022-07-19 18:32:00;3672.6499999999996
2022-07-19 18:33:00;3525.2816666666663
2022-07-19 18:34:00;3533.3566666666666
2022-07-19 18:35:00;3509.5866666666666
2022-07-19 18:36:00;3570.7149999999997
2022-07-19 18:37:00;3584.0633333333335
2022-07-19 18:38:00;3579.1699999999996
2022-07-19 18:39:00;3543.6283333333336
2022-07-19 18:40:00;3654.5916666666662
2022-07-19 18:41:00;3639.7583333333337
2022-07-19 18:42:00;3662.4183333333335
2022-07-19 18:43:00;3671.1583333333338
2022-07-19 18:44:00;3661.0150000000003
2022-07-19 18:45:00;3644.4383333333335
2022-07-19 18:46:00;3632.858333333332
2022-07-19 18:47:00;3630.626666666667
2022-07-19 18:48:00;3624.406666666667
2022-07-19 18:49:00;3604.3433333333332
2022-07-19 18:50:00;3641.15
2022-07-19 18:51:00;3626.4649999999992
2022-07-19 18:52:00;3568.9883333333337
2022-07-19 18:53:00;3489.181666666666
2022-07-19 18:54:00;3452.1683333333335
2022-07-19 18:55:00;3459.2699999999995
2022-07-19 18:56:00;3451.040000000001
2022-07-19 18:57:00;3472.71
2022-07-19 18:58:00;3476.816666666667
2022-07-19 18:59:00;3472.0316666666668
2022-07-19 19:00:00;3519.451666666666
2022-07-19 19:01:00;3495.1166666666672
2022-07-19 19:02:00;3522.77
2022-07-19 19:03:00;3725.6499999999996
2022-07-19 19:04:00;5163.778333333333
2022-07-19 19:05:00;4216.063333333333
2022-07-19 19:06:00;4397.415000000001
2022-07-19 19:07:00;4403.843333333334
2022-07-19 19:08:00;4487.665000000001
2022-07-19 19:09:00;4478.391666666666
2022-07-19 19:10:00;4470.221666666666
2022-07-19 19:11:00;4474.956666666667
2022-07-19 19:12:00;4404.038333333333
2022-07-19 19:13:00;4391.195000000001
2022-07-19 19:14:00;4317.8550000000005
2022-07-19 19:15:00;4193.733333333334
2022-07-19 19:16:00;4056.635
2022-07-19 19:17:00;4040.513333333333
2022-07-19 19:18:00;5076.028333333334
2022-07-19 19:19:00;5281.215
2022-07-19 19:20:00;5050.771666666667
2022-07-19 19:21:00;5039.248333333333
2022-07-19 19:22:00;5026.429999999999
2022-07-19 19:23:00;6055.275
2022-07-19 19:24:00;8479.796666666665
2022-07-19 19:25:00;7506.6449999999995
2022-07-19 19:26:00;6744.435
2022-07-19 19:27:00;6782.611666666667
2022-07-19 19:28:00;6817.923333333333
2022-07-19 19:29:00;6797.951666666667
2022-07-19 19:30:00;6824.209999999998
2022-07-19 19:31:00;6853.174999999999
2022-07-19 19:32:00;6905.838333333333
2022-07-19 19:33:00;6922.221666666666
2022-07-19 19:34:00;6924.233333333334
2022-07-19 19:35:00;6933.001666666667
2022-07-19 19:36:00;6930.933333333333
2022-07-19 19:37:00;6902.991666666667
2022-07-19 19:38:00;6750.326666666667
2022-07-19 19:39:00;6766.528333333334
2022-07-19 19:40:00;6785.59
2022-07-19 19:41:00;6795.395000000001
2022-07-19 19:42:00;6805.368333333334
2022-07-19 19:43:00;6822.915
2022-07-19 19:44:00;6810.376666666667
2022-07-19 19:45:00;7427.2716666666665
2022-07-19 19:46:00;8034.460000000002
2022-07-19 19:47:00;8225.688333333335
2022-07-19 19:48:00;7341.518333333333
2022-07-19 19:49:00;6910.576666666666
2022-07-19 19:50:00;6889.288333333333
2022-07-19 19:51:00;7479.928333333334
2022-07-19 19:52:00;6915.838333333333
2022-07-19 19:53:00;6308.391666666666
2022-07-19 19:54:00;5247.228333333333
2022-07-19 19:55:00;5356.6050000000005
2022-07-19 19:56:00;5662.111666666667
2022-07-19 19:57:00;4818.846666666667
2022-07-19 19:58:00;3415.8566666666675
2022-07-19 19:59:00;3494.303333333333
2022-07-19 20:00:00;3493.4266666666676
2022-07-19 20:01:00;3495.8166666666666
2022-07-19 20:02:00;3497.333333333332
2022-07-19 20:03:00;3566.9983333333334
2022-07-19 20:04:00;3559.4483333333333
2022-07-19 20:05:00;5072.775
2022-07-19 20:06:00;6491.796666666667
2022-07-19 20:07:00;5580.77
2022-07-19 20:08:00;5349.711666666666
2022-07-19 20:09:00;5372.6849999999995
2022-07-19 20:10:00;5314.376666666666
2022-07-19 20:11:00;5304.843333333334
2022-07-19 20:12:00;6852.865000000001
2022-07-19 20:13:00;5908.911666666667
2022-07-19 20:14:00;6143.656666666667
2022-07-19 20:15:00;6197.093333333332
2022-07-19 20:16:00;7026.951666666667
2022-07-19 20:17:00;8297.138333333334
2022-07-19 20:18:00;9044.178333333333
2022-07-19 20:19:00;8309.145
2022-07-19 20:20:00;7767.599999999999
2022-07-19 20:21:00;7760.368333333335
2022-07-19 20:22:00;9342.868333333334
2022-07-19 20:23:00;9568.573333333334
2022-07-19 20:24:00;9046.531666666666
2022-07-19 20:25:00;7864.318333333333
2022-07-19 20:26:00;7699.531666666667
2022-07-19 20:27:00;7650.848333333333
2022-07-19 20:28:00;7672.48
2022-07-19 20:29:00;7733.73
2022-07-19 20:30:00;7728.318333333333
2022-07-19 20:31:00;7753.846666666666
2022-07-19 20:32:00;8548.24
2022-07-19 20:33:00;9025.744999999999
2022-07-19 20:34:00;8740.841666666667
2022-07-19 20:35:00;8771.746666666664
2022-07-19 20:36:00;8825.089999999997
2022-07-19 20:37:00;8763.201666666668
2022-07-19 20:38:00;7946.744999999999
2022-07-19 20:39:00;7829.6916666666675
2022-07-19 20:40:00;7841.488333333334
2022-07-19 20:41:00;7889.660000000001
2022-07-19 20:42:00;7927.335000000001
2022-07-19 20:43:00;7986.666666666666
2022-07-19 20:44:00;7975.126666666666
2022-07-19 20:45:00;7974.000000000001
2022-07-19 20:46:00;7934.790000000001
2022-07-19 20:47:00;7954.573333333332
2022-07-19 20:48:00;7887.856666666666
2022-07-19 20:49:00;7889.241666666667
2022-07-19 20:50:00;7838.9
2022-07-19 20:51:00;7863.626666666666
2022-07-19 20:52:00;7832.685
2022-07-19 20:53:00;7876.155000000001
2022-07-19 20:54:00;8279.793333333333
2022-07-19 20:55:00;7453.135
2022-07-19 20:56:00;6160.8983333333335
2022-07-19 20:57:00;6159.538333333335
2022-07-19 20:58:00;6239.793333333333
2022-07-19 20:59:00;8922.039999999999
2022-07-19 21:00:00;7405.666666666666
2022-07-19 21:01:00;6467.321666666668
2022-07-19 21:02:00;6094.476666666667
2022-07-19 21:03:00;6117.133333333333
2022-07-19 21:04:00;6822.9016666666685
2022-07-19 21:05:00;5255.098333333334
2022-07-19 21:06:00;5226.683333333334
2022-07-19 21:07:00;5146.831666666667
2022-07-19 21:08:00;5284.8966666666665
2022-07-19 21:09:00;6908.370000000001
2022-07-19 21:10:00;6350.883333333333
2022-07-19 21:11:00;4816.525000000001
2022-07-19 21:12:00;5087.2716666666665
2022-07-19 21:13:00;6340.231666666668
2022-07-19 21:14:00;6975.436666666666
2022-07-19 21:15:00;6135.1466666666665
2022-07-19 21:16:00;5931.793333333332
2022-07-19 21:17:00;5881.241666666666
2022-07-19 21:18:00;5980.77
2022-07-19 21:19:00;7267.163333333334
2022-07-19 21:20:00;7716.66
2022-07-19 21:21:00;6710.179999999999
2022-07-19 21:22:00;6764.571666666666
2022-07-19 21:23:00;7263.806666666667
2022-07-19 21:24:00;7034.1883333333335
2022-07-19 21:25:00;5964.318333333334
2022-07-19 21:26:00;5876.288333333334
2022-07-19 21:27:00;6174.171666666666
2022-07-19 21:28:00;6585.703333333332
2022-07-19 21:29:00;4988.313333333333
2022-07-19 21:30:00;4970.498333333333
2022-07-19 21:31:00;5004.83
2022-07-19 21:32:00;4997.528333333333
2022-07-19 21:33:00;4988.463333333333
2022-07-19 21:34:00;5004.663333333334
2022-07-19 21:35:00;6074.615
2022-07-19 21:36:00;6711.24
2022-07-19 21:37:00;5872.748333333333
2022-07-19 21:38:00;5902.161666666668
2022-07-19 21:39:00;5839.011666666666
2022-07-19 21:40:00;5831.946666666667
2022-07-19 21:41:00;5771.808333333333
2022-07-19 21:42:00;5769.53
2022-07-19 21:43:00;5768.87
2022-07-19 21:44:00;5779.456666666667
2022-07-19 21:45:00;5775.918333333333
2022-07-19 21:46:00;5790.646666666667
2022-07-19 21:47:00;5837.3533333333335
2022-07-19 21:48:00;5836.765
2022-07-19 21:49:00;5798.254999999999
2022-07-19 21:50:00;5762.241666666667
2022-07-19 21:51:00;5756.996666666667
2022-07-19 21:52:00;5772.009999999999
2022-07-19 21:53:00;5792.025
2022-07-19 21:54:00;5775.240000000001
2022-07-19 21:55:00;5781.945000000001
2022-07-19 21:56:00;5797.971666666666
2022-07-19 21:57:00;5746.7
2022-07-19 21:58:00;5667.974999999999
2022-07-19 21:59:00;5664.788333333334
2022-07-19 22:00:00;4818.818333333333
2022-07-19 22:01:00;4777.496666666667
2022-07-19 22:02:00;4765.948333333334
2022-07-19 22:03:00;4645.508333333332
2022-07-19 22:04:00;5217.846666666667
2022-07-19 22:05:00;5448.0599999999995
2022-07-19 22:06:00;3113.6683333333335
2022-07-19 22:07:00;2018.7600000000002
2022-07-19 22:08:00;2237.831666666667
2022-07-19 22:09:00;3379.288333333333
2022-07-19 22:10:00;2474.2033333333334
2022-07-19 22:11:00;2879.0966666666664
2022-07-19 22:12:00;3486.9750000000004
2022-07-19 22:13:00;3439.01
2022-07-19 22:14:00;2912.125
2022-07-19 22:15:00;2934.36
2022-07-19 22:16:00;2911.3666666666672
2022-07-19 22:17:00;2896.145
2022-07-19 22:18:00;2909.565
2022-07-19 22:19:00;2974.1316666666667
2022-07-19 22:20:00;2973.2683333333334
2022-07-19 22:21:00;2986.378333333333
2022-07-19 22:22:00;3004.7216666666664
2022-07-19 22:23:00;3031.8416666666667
2022-07-19 22:24:00;3117.0383333333334
2022-07-19 22:25:00;3107.666666666667
2022-07-19 22:26:00;3105.72
2022-07-19 22:27:00;3106.795
2022-07-19 22:28:00;2981.385
2022-07-19 22:29:00;3050.8550000000014
2022-07-19 22:30:00;3089.6816666666664
2022-07-19 22:31:00;3118.18
2022-07-19 22:32:00;3186.838333333334
2022-07-19 22:33:00;3142.92
2022-07-19 22:34:00;3142.8100000000004
2022-07-19 22:35:00;3142.961666666667
2022-07-19 22:36:00;3147.4033333333336
2022-07-19 22:37:00;3145.498333333333
2022-07-19 22:38:00;3147.5599999999995
2022-07-19 22:39:00;3147.1783333333333
2022-07-19 22:40:00;3139.7649999999994
2022-07-19 22:41:00;3146.6466666666665
2022-07-19 22:42:00;3151.081666666668
2022-07-19 22:43:00;3254.6949999999997
2022-07-19 22:44:00;4910.945000000001
2022-07-19 22:45:00;4575.349999999999
2022-07-19 22:46:00;3972.881666666666
2022-07-19 22:47:00;4022.9599999999996
2022-07-19 22:48:00;4041.355
2022-07-19 22:49:00;4052.655
2022-07-19 22:50:00;3585.370000000001
2022-07-19 22:51:00;3151.131666666667
2022-07-19 22:52:00;3164.5066666666667
2022-07-19 22:53:00;3143.478333333333
2022-07-19 22:54:00;3143.633333333333
2022-07-19 22:55:00;3721.188333333333
2022-07-19 22:56:00;4575.228333333333
2022-07-19 22:57:00;3934.9733333333334
2022-07-19 22:58:00;3900.7283333333335
2022-07-19 22:59:00;3891.54
2022-07-19 23:00:00;3892.6766666666667
2022-07-19 23:01:00;3884.814999999999
2022-07-19 23:02:00;3890.9633333333336
2022-07-19 23:03:00;3894.875
2022-07-19 23:04:00;3891.8433333333332
2022-07-19 23:05:00;3892.58
2022-07-19 23:06:00;3895.6083333333336
2022-07-19 23:07:00;3898.665
2022-07-19 23:08:00;3314.043333333333
2022-07-19 23:09:00;4579.283333333333
2022-07-19 23:10:00;3953.3233333333337
2022-07-19 23:11:00;3813.0666666666666
2022-07-19 23:12:00;3823.0249999999996
2022-07-19 23:13:00;3831.596666666667
2022-07-19 23:14:00;3818.5966666666664
2022-07-19 23:15:00;3829.0549999999994
2022-07-19 23:16:00;3750.0633333333335
2022-07-19 23:17:00;3722.208333333334
2022-07-19 23:18:00;3721.2
2022-07-19 23:19:00;3793.75
2022-07-19 23:20:00;3790.445
2022-07-19 23:21:00;3789.48
2022-07-19 23:22:00;3791.8149999999996
2022-07-19 23:23:00;3537.883333333333
2022-07-19 23:24:00;2935.2816666666663
2022-07-19 23:25:00;2940.205
2022-07-19 23:26:00;2941.286666666667
2022-07-19 23:27:00;2938.7900000000004
2022-07-19 23:28:00;2936.3633333333332
2022-07-19 23:29:00;2934.4750000000004
2022-07-19 23:30:00;2930.888333333334
2022-07-19 23:31:00;2931.771666666667
2022-07-19 23:32:00;2937.725
2022-07-19 23:33:00;3130.4966666666664
2022-07-19 23:34:00;3401.038333333332
2022-07-19 23:35:00;2486.5833333333335
2022-07-19 23:36:00;2099.246666666667
2022-07-19 23:37:00;2099.2283333333335
2022-07-19 23:38:00;3022.385
2022-07-19 23:39:00;2053.4850000000006
2022-07-19 23:40:00;1951.425
2022-07-19 23:41:00;1922.746666666667
2022-07-19 23:42:00;1921.8183333333332
2022-07-19 23:43:00;1920.885
2022-07-19 23:44:00;1919.956666666667
2022-07-19 23:45:00;1919.0283333333332
2022-07-19 23:46:00;1914.5383333333327
2022-07-19 23:47:00;1819.2666666666669
2022-07-19 23:48:00;1818.3383333333331
2022-07-19 23:49:00;1817.4083333333333
2022-07-19 23:50:00;1801.7283333333332
2022-07-19 23:51:00;1791.0
2022-07-19 23:52:00;1791.0
2022-07-19 23:53:00;1791.0
2022-07-19 23:54:00;1791.0
2022-07-19 23:55:00;1791.0
2022-07-19 23:56:00;1791.0
2022-07-19 23:57:00;1791.0
2022-07-19 23:58:00;1791.0
2022-07-19 23:59:00;1791.0
