Time;Source;Event
2021-07-01 00:00:00;fridge operation;START
2021-07-01 00:00:00;REFRIGERATOR;ON
2021-07-01 00:14:00;REFRIGERATOR;OFF
2021-07-01 00:14:00;fridge operation;END
2021-07-01 01:10:00;fridge operation;START
2021-07-01 01:10:00;REFRIGERATOR;ON
2021-07-01 01:24:00;REFRIGERATOR;OFF
2021-07-01 01:24:00;fridge operation;END
2021-07-01 02:07:48;fridge operation;START
2021-07-01 02:07:48;REFRIGERATOR;ON
2021-07-01 02:21:48;REFRIGERATOR;OFF
2021-07-01 02:21:48;fridge operation;END
2021-07-01 03:06:25;fridge operation;START
2021-07-01 03:06:25;REFRIGERATOR;ON
2021-07-01 03:20:25;REFRIGERATOR;OFF
2021-07-01 03:20:25;fridge operation;END
2021-07-01 03:52:04;fridge operation;START
2021-07-01 03:52:04;REFRIGERATOR;ON
2021-07-01 04:06:04;REFRIGERATOR;OFF
2021-07-01 04:06:04;fridge operation;END
2021-07-01 04:50:01;fridge operation;START
2021-07-01 04:50:01;REFRIGERATOR;ON
2021-07-01 05:04:01;REFRIGERATOR;OFF
2021-07-01 05:04:01;fridge operation;END
2021-07-01 05:38:46;fridge operation;START
2021-07-01 05:38:46;REFRIGERATOR;ON
2021-07-01 05:52:46;REFRIGERATOR;OFF
2021-07-01 05:52:46;fridge operation;END
2021-07-01 06:17:55;fridge operation;START
2021-07-01 06:17:55;REFRIGERATOR;ON
2021-07-01 06:31:55;REFRIGERATOR;OFF
2021-07-01 06:31:55;fridge operation;END
2021-07-01 07:32:29;fridge operation;START
2021-07-01 07:32:29;REFRIGERATOR;ON
2021-07-01 07:46:29;REFRIGERATOR;OFF
2021-07-01 07:46:29;fridge operation;END
2021-07-01 08:15:22;fridge operation;START
2021-07-01 08:15:22;REFRIGERATOR;ON
2021-07-01 08:29:22;REFRIGERATOR;OFF
2021-07-01 08:29:22;fridge operation;END
2021-07-01 08:59:51;fridge operation;START
2021-07-01 08:59:51;REFRIGERATOR;ON
2021-07-01 09:13:51;REFRIGERATOR;OFF
2021-07-01 09:13:51;fridge operation;END
2021-07-01 09:38:58;use a personal computer;START
2021-07-01 09:38:58;PC;ON
2021-07-01 09:49:00;fridge operation;START
2021-07-01 09:49:00;REFRIGERATOR;ON
2021-07-01 09:49:44;dishwasher operation;START
2021-07-01 09:49:50;DISHWASHER;ON
2021-07-01 10:03:00;REFRIGERATOR;OFF
2021-07-01 10:03:00;fridge operation;END
2021-07-01 10:45:43;washing a load of laundry;START
2021-07-01 10:45:50;WASHINGMACHINE;ON
2021-07-01 10:52:59;fridge operation;START
2021-07-01 10:52:59;REFRIGERATOR;ON
2021-07-01 10:54:17;PC;OFF
2021-07-01 10:54:17;use a personal computer;END
2021-07-01 10:57:06;DISHWASHER;OFF
2021-07-01 10:57:06;dishwasher operation;END
2021-07-01 11:06:59;REFRIGERATOR;OFF
2021-07-01 11:06:59;fridge operation;END
2021-07-01 11:52:58;use a personal computer;START
2021-07-01 11:52:58;PC;ON
2021-07-01 12:02:27;vacuuming;START
2021-07-01 12:02:27;VACUUMCLEANER;ON
2021-07-01 12:05:25;fridge operation;START
2021-07-01 12:05:25;REFRIGERATOR;ON
2021-07-01 12:14:27;VACUUMCLEANER;OFF
2021-07-01 12:14:27;vacuuming;END
2021-07-01 12:19:25;REFRIGERATOR;OFF
2021-07-01 12:19:25;fridge operation;END
2021-07-01 12:37:25;use a personal computer;START
2021-07-01 12:37:25;PC;ON
2021-07-01 12:46:07;fridge operation;START
2021-07-01 12:46:07;REFRIGERATOR;ON
2021-07-01 13:00:07;REFRIGERATOR;OFF
2021-07-01 13:00:07;fridge operation;END
2021-07-01 13:08:17;PC;OFF
2021-07-01 13:08:17;use a personal computer;END
2021-07-01 13:29:25;vacuuming;START
2021-07-01 13:29:25;VACUUMCLEANER;ON
2021-07-01 13:41:25;VACUUMCLEANER;OFF
2021-07-01 13:41:25;vacuuming;END
2021-07-01 13:41:26;dishwasher operation;START
2021-07-01 13:41:36;DISHWASHER;ON
2021-07-01 13:42:15;fridge operation;START
2021-07-01 13:42:15;REFRIGERATOR;ON
2021-07-01 13:52:44;PC;OFF
2021-07-01 13:52:44;use a personal computer;END
2021-07-01 13:56:15;REFRIGERATOR;OFF
2021-07-01 13:56:15;fridge operation;END
2021-07-01 13:56:17;WASHINGMACHINE;OFF
2021-07-01 13:56:17;washing a load of laundry;END
2021-07-01 14:18:26;fridge operation;START
2021-07-01 14:18:26;REFRIGERATOR;ON
2021-07-01 14:32:26;REFRIGERATOR;OFF
2021-07-01 14:32:26;fridge operation;END
2021-07-01 14:48:52;DISHWASHER;OFF
2021-07-01 14:48:52;dishwasher operation;END
2021-07-01 15:09:02;fridge operation;START
2021-07-01 15:09:02;REFRIGERATOR;ON
2021-07-01 15:23:02;REFRIGERATOR;OFF
2021-07-01 15:23:02;fridge operation;END
2021-07-01 15:48:50;watching TV;START
2021-07-01 15:48:50;TV;ON
2021-07-01 15:51:56;watching TV;START
2021-07-01 15:51:56;TV;ON
2021-07-01 15:54:38;fridge operation;START
2021-07-01 15:54:38;REFRIGERATOR;ON
2021-07-01 16:08:38;REFRIGERATOR;OFF
2021-07-01 16:08:38;fridge operation;END
2021-07-01 17:02:13;TV;OFF
2021-07-01 17:02:14;TV;ON
2021-07-01 17:28:27;fridge operation;START
2021-07-01 17:28:27;REFRIGERATOR;ON
2021-07-01 17:29:26;TV;OFF
2021-07-01 17:29:26;watching TV;END
2021-07-01 17:41:06;TV;OFF
2021-07-01 17:41:07;TV;ON
2021-07-01 17:42:27;REFRIGERATOR;OFF
2021-07-01 17:42:27;fridge operation;END
2021-07-01 18:01:45;TV;OFF
2021-07-01 18:01:45;watching TV;END
2021-07-01 18:38:01;use a personal computer;START
2021-07-01 18:38:01;PC;ON
2021-07-01 19:01:06;fridge operation;START
2021-07-01 19:01:06;REFRIGERATOR;ON
2021-07-01 19:15:06;REFRIGERATOR;OFF
2021-07-01 19:15:06;fridge operation;END
2021-07-01 19:42:51;fridge operation;START
2021-07-01 19:42:51;REFRIGERATOR;ON
2021-07-01 19:53:20;PC;OFF
2021-07-01 19:53:20;use a personal computer;END
2021-07-01 19:56:51;REFRIGERATOR;OFF
2021-07-01 19:56:51;fridge operation;END
2021-07-01 20:03:36;watching TV;START
2021-07-01 20:03:36;TV;ON
2021-07-01 20:58:27;fridge operation;START
2021-07-01 20:58:27;REFRIGERATOR;ON
2021-07-01 21:12:27;REFRIGERATOR;OFF
2021-07-01 21:12:27;fridge operation;END
2021-07-01 21:22:43;TV;OFF
2021-07-01 21:22:44;TV;ON
2021-07-01 21:29:00;watching TV;START
2021-07-01 21:29:00;TV;ON
2021-07-01 21:46:47;TV;OFF
2021-07-01 21:46:47;watching TV;END
2021-07-01 21:59:54;TV;OFF
2021-07-01 21:59:55;TV;ON
2021-07-01 22:10:05;fridge operation;START
2021-07-01 22:10:05;REFRIGERATOR;ON
2021-07-01 22:18:04;TV;OFF
2021-07-01 22:18:04;watching TV;END
2021-07-01 22:24:05;REFRIGERATOR;OFF
2021-07-01 22:24:05;fridge operation;END
2021-07-01 23:08:49;fridge operation;START
2021-07-01 23:08:49;REFRIGERATOR;ON
2021-07-01 23:22:49;REFRIGERATOR;OFF
2021-07-01 23:22:49;fridge operation;END
2021-07-02 00:26:14;fridge operation;START
2021-07-02 00:26:14;REFRIGERATOR;ON
2021-07-02 00:40:14;REFRIGERATOR;OFF
2021-07-02 00:40:14;fridge operation;END
2021-07-02 01:23:49;fridge operation;START
2021-07-02 01:23:49;REFRIGERATOR;ON
2021-07-02 01:37:49;REFRIGERATOR;OFF
2021-07-02 01:37:49;fridge operation;END
2021-07-02 02:10:06;fridge operation;START
2021-07-02 02:10:06;REFRIGERATOR;ON
2021-07-02 02:24:06;REFRIGERATOR;OFF
2021-07-02 02:24:06;fridge operation;END
2021-07-02 02:48:35;fridge operation;START
2021-07-02 02:48:35;REFRIGERATOR;ON
2021-07-02 03:02:35;REFRIGERATOR;OFF
2021-07-02 03:02:35;fridge operation;END
2021-07-02 03:39:46;fridge operation;START
2021-07-02 03:39:46;REFRIGERATOR;ON
2021-07-02 03:53:46;REFRIGERATOR;OFF
2021-07-02 03:53:46;fridge operation;END
2021-07-02 04:26:35;fridge operation;START
2021-07-02 04:26:35;REFRIGERATOR;ON
2021-07-02 04:40:35;REFRIGERATOR;OFF
2021-07-02 04:40:35;fridge operation;END
2021-07-02 05:00:23;fridge operation;START
2021-07-02 05:00:23;REFRIGERATOR;ON
2021-07-02 05:14:23;REFRIGERATOR;OFF
2021-07-02 05:14:23;fridge operation;END
2021-07-02 06:00:21;fridge operation;START
2021-07-02 06:00:21;REFRIGERATOR;ON
2021-07-02 06:14:21;REFRIGERATOR;OFF
2021-07-02 06:14:21;fridge operation;END
2021-07-02 06:46:58;fridge operation;START
2021-07-02 06:46:58;REFRIGERATOR;ON
2021-07-02 07:00:58;REFRIGERATOR;OFF
2021-07-02 07:00:58;fridge operation;END
2021-07-02 07:32:23;fridge operation;START
2021-07-02 07:32:23;REFRIGERATOR;ON
2021-07-02 07:46:23;REFRIGERATOR;OFF
2021-07-02 07:46:23;fridge operation;END
2021-07-02 08:38:58;fridge operation;START
2021-07-02 08:38:58;REFRIGERATOR;ON
2021-07-02 08:52:58;REFRIGERATOR;OFF
2021-07-02 08:52:58;fridge operation;END
2021-07-02 09:30:26;fridge operation;START
2021-07-02 09:30:26;REFRIGERATOR;ON
2021-07-02 09:44:26;REFRIGERATOR;OFF
2021-07-02 09:44:26;fridge operation;END
2021-07-02 10:17:42;fridge operation;START
2021-07-02 10:17:42;REFRIGERATOR;ON
2021-07-02 10:31:42;REFRIGERATOR;OFF
2021-07-02 10:31:42;fridge operation;END
2021-07-02 11:22:07;fridge operation;START
2021-07-02 11:22:07;REFRIGERATOR;ON
2021-07-02 11:36:07;REFRIGERATOR;OFF
2021-07-02 11:36:07;fridge operation;END
2021-07-02 12:01:13;fridge operation;START
2021-07-02 12:01:13;REFRIGERATOR;ON
2021-07-02 12:15:13;REFRIGERATOR;OFF
2021-07-02 12:15:13;fridge operation;END
2021-07-02 12:50:26;fridge operation;START
2021-07-02 12:50:26;REFRIGERATOR;ON
2021-07-02 13:04:26;REFRIGERATOR;OFF
2021-07-02 13:04:26;fridge operation;END
2021-07-02 13:46:26;fridge operation;START
2021-07-02 13:46:26;REFRIGERATOR;ON
2021-07-02 14:00:26;REFRIGERATOR;OFF
2021-07-02 14:00:26;fridge operation;END
2021-07-02 15:01:41;fridge operation;START
2021-07-02 15:01:41;REFRIGERATOR;ON
2021-07-02 15:15:41;REFRIGERATOR;OFF
2021-07-02 15:15:41;fridge operation;END
2021-07-02 16:17:44;vacuuming;START
2021-07-02 16:17:44;VACUUMCLEANER;ON
2021-07-02 16:25:59;fridge operation;START
2021-07-02 16:25:59;REFRIGERATOR;ON
2021-07-02 16:29:44;VACUUMCLEANER;OFF
2021-07-02 16:29:44;vacuuming;END
2021-07-02 16:39:59;REFRIGERATOR;OFF
2021-07-02 16:39:59;fridge operation;END
2021-07-02 17:14:53;watching TV;START
2021-07-02 17:14:53;TV;ON
2021-07-02 17:18:55;use a personal computer;START
2021-07-02 17:18:55;PC;ON
2021-07-02 17:54:43;fridge operation;START
2021-07-02 17:54:43;REFRIGERATOR;ON
2021-07-02 18:08:43;REFRIGERATOR;OFF
2021-07-02 18:08:43;fridge operation;END
2021-07-02 18:11:08;TV;OFF
2021-07-02 18:11:09;TV;ON
2021-07-02 18:34:14;PC;OFF
2021-07-02 18:34:14;use a personal computer;END
2021-07-02 18:34:19;dishwasher operation;START
2021-07-02 18:34:25;DISHWASHER;ON
2021-07-02 18:38:00;TV;OFF
2021-07-02 18:38:00;watching TV;END
2021-07-02 18:42:25;fridge operation;START
2021-07-02 18:42:25;REFRIGERATOR;ON
2021-07-02 18:50:48;use a personal computer;START
2021-07-02 18:50:48;PC;ON
2021-07-02 18:56:25;REFRIGERATOR;OFF
2021-07-02 18:56:25;fridge operation;END
2021-07-02 19:36:56;fridge operation;START
2021-07-02 19:36:56;REFRIGERATOR;ON
2021-07-02 19:41:41;DISHWASHER;OFF
2021-07-02 19:41:41;dishwasher operation;END
2021-07-02 19:47:46;watching TV;START
2021-07-02 19:47:46;TV;ON
2021-07-02 19:50:56;REFRIGERATOR;OFF
2021-07-02 19:50:56;fridge operation;END
2021-07-02 20:06:07;PC;OFF
2021-07-02 20:06:07;use a personal computer;END
2021-07-02 20:22:27;dishwasher operation;START
2021-07-02 20:22:36;DISHWASHER;ON
2021-07-02 20:37:40;TV;OFF
2021-07-02 20:37:41;TV;ON
2021-07-02 20:50:25;fridge operation;START
2021-07-02 20:50:25;REFRIGERATOR;ON
2021-07-02 21:04:25;REFRIGERATOR;OFF
2021-07-02 21:04:25;fridge operation;END
2021-07-02 21:04:39;TV;OFF
2021-07-02 21:04:39;watching TV;END
2021-07-02 21:07:09;watching TV;START
2021-07-02 21:07:09;TV;ON
2021-07-02 21:29:52;DISHWASHER;OFF
2021-07-02 21:29:52;dishwasher operation;END
2021-07-02 21:35:44;watching TV;START
2021-07-02 21:35:44;TV;ON
2021-07-02 22:01:45;fridge operation;START
2021-07-02 22:01:45;REFRIGERATOR;ON
2021-07-02 22:15:45;REFRIGERATOR;OFF
2021-07-02 22:15:45;fridge operation;END
2021-07-02 22:27:12;TV;OFF
2021-07-02 22:27:13;TV;ON
2021-07-02 22:43:14;TV;OFF
2021-07-02 22:43:15;TV;ON
2021-07-02 22:49:01;TV;OFF
2021-07-02 22:49:02;TV;ON
2021-07-02 22:51:42;fridge operation;START
2021-07-02 22:51:42;REFRIGERATOR;ON
2021-07-02 23:03:00;TV;OFF
2021-07-02 23:03:01;TV;ON
2021-07-02 23:05:42;REFRIGERATOR;OFF
2021-07-02 23:05:42;fridge operation;END
2021-07-02 23:16:37;TV;OFF
2021-07-02 23:16:37;watching TV;END
2021-07-02 23:27:54;TV;OFF
2021-07-02 23:27:54;watching TV;END
2021-07-03 00:36:25;fridge operation;START
2021-07-03 00:36:25;REFRIGERATOR;ON
2021-07-03 00:50:25;REFRIGERATOR;OFF
2021-07-03 00:50:25;fridge operation;END
2021-07-03 01:13:41;fridge operation;START
2021-07-03 01:13:41;REFRIGERATOR;ON
2021-07-03 01:27:41;REFRIGERATOR;OFF
2021-07-03 01:27:41;fridge operation;END
2021-07-03 02:01:37;fridge operation;START
2021-07-03 02:01:37;REFRIGERATOR;ON
2021-07-03 02:15:37;REFRIGERATOR;OFF
2021-07-03 02:15:37;fridge operation;END
2021-07-03 03:07:35;fridge operation;START
2021-07-03 03:07:35;REFRIGERATOR;ON
2021-07-03 03:21:35;REFRIGERATOR;OFF
2021-07-03 03:21:35;fridge operation;END
2021-07-03 04:05:51;fridge operation;START
2021-07-03 04:05:51;REFRIGERATOR;ON
2021-07-03 04:19:51;REFRIGERATOR;OFF
2021-07-03 04:19:51;fridge operation;END
2021-07-03 05:15:04;fridge operation;START
2021-07-03 05:15:04;REFRIGERATOR;ON
2021-07-03 05:29:04;REFRIGERATOR;OFF
2021-07-03 05:29:04;fridge operation;END
2021-07-03 05:49:18;fridge operation;START
2021-07-03 05:49:18;REFRIGERATOR;ON
2021-07-03 06:03:18;REFRIGERATOR;OFF
2021-07-03 06:03:18;fridge operation;END
2021-07-03 07:00:00;dishwasher operation;START
2021-07-03 07:00:06;DISHWASHER;ON
2021-07-03 07:18:57;fridge operation;START
2021-07-03 07:18:57;REFRIGERATOR;ON
2021-07-03 07:32:57;REFRIGERATOR;OFF
2021-07-03 07:32:57;fridge operation;END
2021-07-03 08:07:22;DISHWASHER;OFF
2021-07-03 08:07:22;dishwasher operation;END
2021-07-03 08:14:23;fridge operation;START
2021-07-03 08:14:23;REFRIGERATOR;ON
2021-07-03 08:28:23;REFRIGERATOR;OFF
2021-07-03 08:28:23;fridge operation;END
2021-07-03 08:49:08;fridge operation;START
2021-07-03 08:49:08;REFRIGERATOR;ON
2021-07-03 09:03:08;REFRIGERATOR;OFF
2021-07-03 09:03:08;fridge operation;END
2021-07-03 09:49:51;fridge operation;START
2021-07-03 09:49:51;REFRIGERATOR;ON
2021-07-03 10:03:51;REFRIGERATOR;OFF
2021-07-03 10:03:51;fridge operation;END
2021-07-03 11:01:59;fridge operation;START
2021-07-03 11:01:59;REFRIGERATOR;ON
2021-07-03 11:15:59;REFRIGERATOR;OFF
2021-07-03 11:15:59;fridge operation;END
2021-07-03 11:45:03;fridge operation;START
2021-07-03 11:45:03;REFRIGERATOR;ON
2021-07-03 11:59:03;REFRIGERATOR;OFF
2021-07-03 11:59:03;fridge operation;END
2021-07-03 12:50:25;fridge operation;START
2021-07-03 12:50:25;REFRIGERATOR;ON
2021-07-03 13:04:25;REFRIGERATOR;OFF
2021-07-03 13:04:25;fridge operation;END
2021-07-03 14:15:51;fridge operation;START
2021-07-03 14:15:51;REFRIGERATOR;ON
2021-07-03 14:29:51;REFRIGERATOR;OFF
2021-07-03 14:29:51;fridge operation;END
2021-07-03 14:40:59;vacuuming;START
2021-07-03 14:40:59;VACUUMCLEANER;ON
2021-07-03 14:52:59;VACUUMCLEANER;OFF
2021-07-03 14:52:59;vacuuming;END
2021-07-03 15:33:14;fridge operation;START
2021-07-03 15:33:14;REFRIGERATOR;ON
2021-07-03 15:47:14;REFRIGERATOR;OFF
2021-07-03 15:47:14;fridge operation;END
2021-07-03 16:03:50;watching TV;START
2021-07-03 16:03:50;TV;ON
2021-07-03 16:32:31;vacuuming;START
2021-07-03 16:32:31;VACUUMCLEANER;ON
2021-07-03 16:44:31;VACUUMCLEANER;OFF
2021-07-03 16:44:31;vacuuming;END
2021-07-03 17:06:16;fridge operation;START
2021-07-03 17:06:16;REFRIGERATOR;ON
2021-07-03 17:20:16;REFRIGERATOR;OFF
2021-07-03 17:20:16;fridge operation;END
2021-07-03 17:22:23;TV;OFF
2021-07-03 17:22:24;TV;ON
2021-07-03 17:37:30;TV;OFF
2021-07-03 17:37:30;watching TV;END
2021-07-03 17:42:16;watching TV;START
2021-07-03 17:42:16;TV;ON
2021-07-03 18:04:01;fridge operation;START
2021-07-03 18:04:01;REFRIGERATOR;ON
2021-07-03 18:18:01;REFRIGERATOR;OFF
2021-07-03 18:18:01;fridge operation;END
2021-07-03 18:21:08;dishwasher operation;START
2021-07-03 18:21:15;washing a load of laundry;START
2021-07-03 18:21:15;DISHWASHER;ON
2021-07-03 18:21:26;WASHINGMACHINE;ON
2021-07-03 19:21:21;TV;OFF
2021-07-03 19:21:21;watching TV;END
2021-07-03 19:21:33;fridge operation;START
2021-07-03 19:21:33;REFRIGERATOR;ON
2021-07-03 19:28:31;DISHWASHER;OFF
2021-07-03 19:28:31;dishwasher operation;END
2021-07-03 19:34:55;watching TV;START
2021-07-03 19:34:55;TV;ON
2021-07-03 19:35:33;REFRIGERATOR;OFF
2021-07-03 19:35:33;fridge operation;END
2021-07-03 19:50:44;use a personal computer;START
2021-07-03 19:50:44;PC;ON
2021-07-03 20:00:59;fridge operation;START
2021-07-03 20:00:59;REFRIGERATOR;ON
2021-07-03 20:14:59;REFRIGERATOR;OFF
2021-07-03 20:14:59;fridge operation;END
2021-07-03 20:48:33;fridge operation;START
2021-07-03 20:48:33;REFRIGERATOR;ON
2021-07-03 21:00:49;TV;OFF
2021-07-03 21:00:50;TV;ON
2021-07-03 21:02:33;REFRIGERATOR;OFF
2021-07-03 21:02:33;fridge operation;END
2021-07-03 21:06:03;PC;OFF
2021-07-03 21:06:03;use a personal computer;END
2021-07-03 21:28:57;TV;OFF
2021-07-03 21:28:57;watching TV;END
2021-07-03 21:31:53;WASHINGMACHINE;OFF
2021-07-03 21:31:53;washing a load of laundry;END
2021-07-03 21:38:19;use a personal computer;START
2021-07-03 21:38:19;PC;ON
2021-07-03 22:02:16;watching TV;START
2021-07-03 22:02:16;TV;ON
2021-07-03 22:05:25;fridge operation;START
2021-07-03 22:05:25;REFRIGERATOR;ON
2021-07-03 22:19:25;REFRIGERATOR;OFF
2021-07-03 22:19:25;fridge operation;END
2021-07-03 22:53:08;fridge operation;START
2021-07-03 22:53:08;REFRIGERATOR;ON
2021-07-03 22:53:38;PC;OFF
2021-07-03 22:53:38;use a personal computer;END
2021-07-03 23:07:08;REFRIGERATOR;OFF
2021-07-03 23:07:08;fridge operation;END
2021-07-03 23:09:33;TV;OFF
2021-07-03 23:09:34;TV;ON
2021-07-03 23:25:40;TV;OFF
2021-07-03 23:25:40;watching TV;END
2021-07-04 00:00:00;fridge operation;START
2021-07-04 00:00:00;REFRIGERATOR;ON
2021-07-04 00:14:00;REFRIGERATOR;OFF
2021-07-04 00:14:00;fridge operation;END
2021-07-04 00:57:26;fridge operation;START
2021-07-04 00:57:26;REFRIGERATOR;ON
2021-07-04 01:11:26;REFRIGERATOR;OFF
2021-07-04 01:11:26;fridge operation;END
2021-07-04 01:47:29;fridge operation;START
2021-07-04 01:47:29;REFRIGERATOR;ON
2021-07-04 02:01:29;REFRIGERATOR;OFF
2021-07-04 02:01:29;fridge operation;END
2021-07-04 02:57:30;fridge operation;START
2021-07-04 02:57:30;REFRIGERATOR;ON
2021-07-04 03:11:30;REFRIGERATOR;OFF
2021-07-04 03:11:30;fridge operation;END
2021-07-04 04:09:57;fridge operation;START
2021-07-04 04:09:57;REFRIGERATOR;ON
2021-07-04 04:23:57;REFRIGERATOR;OFF
2021-07-04 04:23:57;fridge operation;END
2021-07-04 05:21:54;fridge operation;START
2021-07-04 05:21:54;REFRIGERATOR;ON
2021-07-04 05:35:54;REFRIGERATOR;OFF
2021-07-04 05:35:54;fridge operation;END
2021-07-04 05:55:29;fridge operation;START
2021-07-04 05:55:29;REFRIGERATOR;ON
2021-07-04 06:09:29;REFRIGERATOR;OFF
2021-07-04 06:09:29;fridge operation;END
2021-07-04 07:11:35;dishwasher operation;START
2021-07-04 07:11:43;DISHWASHER;ON
2021-07-04 07:12:38;dishwasher operation;START
2021-07-04 07:12:44;DISHWASHER;ON
2021-07-04 07:16:24;fridge operation;START
2021-07-04 07:16:24;REFRIGERATOR;ON
2021-07-04 07:30:24;REFRIGERATOR;OFF
2021-07-04 07:30:24;fridge operation;END
2021-07-04 08:08:45;fridge operation;START
2021-07-04 08:08:45;REFRIGERATOR;ON
2021-07-04 08:18:59;DISHWASHER;OFF
2021-07-04 08:18:59;dishwasher operation;END
2021-07-04 08:20:00;DISHWASHER;OFF
2021-07-04 08:20:00;dishwasher operation;END
2021-07-04 08:22:45;REFRIGERATOR;OFF
2021-07-04 08:22:45;fridge operation;END
2021-07-04 08:45:12;fridge operation;START
2021-07-04 08:45:12;REFRIGERATOR;ON
2021-07-04 08:59:12;REFRIGERATOR;OFF
2021-07-04 08:59:12;fridge operation;END
2021-07-04 09:41:01;fridge operation;START
2021-07-04 09:41:01;REFRIGERATOR;ON
2021-07-04 09:55:01;REFRIGERATOR;OFF
2021-07-04 09:55:01;fridge operation;END
2021-07-04 10:18:38;fridge operation;START
2021-07-04 10:18:38;REFRIGERATOR;ON
2021-07-04 10:32:38;REFRIGERATOR;OFF
2021-07-04 10:32:38;fridge operation;END
2021-07-04 11:11:43;fridge operation;START
2021-07-04 11:11:43;REFRIGERATOR;ON
2021-07-04 11:25:43;REFRIGERATOR;OFF
2021-07-04 11:25:43;fridge operation;END
2021-07-04 12:19:06;fridge operation;START
2021-07-04 12:19:06;REFRIGERATOR;ON
2021-07-04 12:33:06;REFRIGERATOR;OFF
2021-07-04 12:33:06;fridge operation;END
2021-07-04 12:55:10;fridge operation;START
2021-07-04 12:55:10;REFRIGERATOR;ON
2021-07-04 13:09:10;REFRIGERATOR;OFF
2021-07-04 13:09:10;fridge operation;END
2021-07-04 14:12:57;fridge operation;START
2021-07-04 14:12:57;REFRIGERATOR;ON
2021-07-04 14:15:20;vacuuming;START
2021-07-04 14:15:20;VACUUMCLEANER;ON
2021-07-04 14:26:57;REFRIGERATOR;OFF
2021-07-04 14:26:57;fridge operation;END
2021-07-04 14:27:20;VACUUMCLEANER;OFF
2021-07-04 14:27:20;vacuuming;END
2021-07-04 15:31:43;fridge operation;START
2021-07-04 15:31:43;REFRIGERATOR;ON
2021-07-04 15:45:43;REFRIGERATOR;OFF
2021-07-04 15:45:43;fridge operation;END
2021-07-04 16:06:21;fridge operation;START
2021-07-04 16:06:21;REFRIGERATOR;ON
2021-07-04 16:20:21;REFRIGERATOR;OFF
2021-07-04 16:20:21;fridge operation;END
2021-07-04 16:50:15;watching TV;START
2021-07-04 16:50:15;TV;ON
2021-07-04 17:03:03;fridge operation;START
2021-07-04 17:03:03;REFRIGERATOR;ON
2021-07-04 17:17:03;REFRIGERATOR;OFF
2021-07-04 17:17:03;fridge operation;END
2021-07-04 17:40:48;fridge operation;START
2021-07-04 17:40:48;REFRIGERATOR;ON
2021-07-04 17:54:48;REFRIGERATOR;OFF
2021-07-04 17:54:48;fridge operation;END
2021-07-04 18:08:23;TV;OFF
2021-07-04 18:08:24;TV;ON
2021-07-04 18:28:38;TV;OFF
2021-07-04 18:28:38;watching TV;END
2021-07-04 18:30:33;watching TV;START
2021-07-04 18:30:33;TV;ON
2021-07-04 18:39:33;watching TV;START
2021-07-04 18:39:33;TV;ON
2021-07-04 18:45:35;fridge operation;START
2021-07-04 18:45:35;REFRIGERATOR;ON
2021-07-04 18:59:35;REFRIGERATOR;OFF
2021-07-04 18:59:35;fridge operation;END
2021-07-04 19:39:24;TV;OFF
2021-07-04 19:39:25;TV;ON
2021-07-04 19:57:01;fridge operation;START
2021-07-04 19:57:01;REFRIGERATOR;ON
2021-07-04 20:02:23;TV;OFF
2021-07-04 20:02:23;watching TV;END
2021-07-04 20:02:24;use a personal computer;START
2021-07-04 20:02:24;PC;ON
2021-07-04 20:07:43;TV;OFF
2021-07-04 20:07:44;TV;ON
2021-07-04 20:11:01;REFRIGERATOR;OFF
2021-07-04 20:11:01;fridge operation;END
2021-07-04 20:33:15;TV;OFF
2021-07-04 20:33:15;watching TV;END
2021-07-04 20:56:02;watching TV;START
2021-07-04 20:56:02;TV;ON
2021-07-04 21:17:43;PC;OFF
2021-07-04 21:17:43;use a personal computer;END
2021-07-04 21:25:59;use a personal computer;START
2021-07-04 21:25:59;PC;ON
2021-07-04 21:30:47;fridge operation;START
2021-07-04 21:30:47;REFRIGERATOR;ON
2021-07-04 21:44:47;REFRIGERATOR;OFF
2021-07-04 21:44:47;fridge operation;END
2021-07-04 22:15:52;fridge operation;START
2021-07-04 22:15:52;REFRIGERATOR;ON
2021-07-04 22:29:52;REFRIGERATOR;OFF
2021-07-04 22:29:52;fridge operation;END
2021-07-04 22:35:03;TV;OFF
2021-07-04 22:35:04;TV;ON
2021-07-04 22:41:18;PC;OFF
2021-07-04 22:41:18;use a personal computer;END
2021-07-04 23:00:23;TV;OFF
2021-07-04 23:00:23;watching TV;END
2021-07-04 23:06:04;fridge operation;START
2021-07-04 23:06:04;REFRIGERATOR;ON
2021-07-04 23:20:04;REFRIGERATOR;OFF
2021-07-04 23:20:04;fridge operation;END
2021-07-05 00:01:33;fridge operation;START
2021-07-05 00:01:33;REFRIGERATOR;ON
2021-07-05 00:15:33;REFRIGERATOR;OFF
2021-07-05 00:15:33;fridge operation;END
2021-07-05 00:41:54;fridge operation;START
2021-07-05 00:41:54;REFRIGERATOR;ON
2021-07-05 00:55:54;REFRIGERATOR;OFF
2021-07-05 00:55:54;fridge operation;END
2021-07-05 01:30:38;fridge operation;START
2021-07-05 01:30:38;REFRIGERATOR;ON
2021-07-05 01:44:38;REFRIGERATOR;OFF
2021-07-05 01:44:38;fridge operation;END
2021-07-05 02:27:05;fridge operation;START
2021-07-05 02:27:05;REFRIGERATOR;ON
2021-07-05 02:41:05;REFRIGERATOR;OFF
2021-07-05 02:41:05;fridge operation;END
2021-07-05 03:03:01;fridge operation;START
2021-07-05 03:03:01;REFRIGERATOR;ON
2021-07-05 03:17:01;REFRIGERATOR;OFF
2021-07-05 03:17:01;fridge operation;END
2021-07-05 04:02:56;fridge operation;START
2021-07-05 04:02:56;REFRIGERATOR;ON
2021-07-05 04:16:56;REFRIGERATOR;OFF
2021-07-05 04:16:56;fridge operation;END
2021-07-05 05:17:49;fridge operation;START
2021-07-05 05:17:49;REFRIGERATOR;ON
2021-07-05 05:31:49;REFRIGERATOR;OFF
2021-07-05 05:31:49;fridge operation;END
2021-07-05 06:23:42;fridge operation;START
2021-07-05 06:23:42;REFRIGERATOR;ON
2021-07-05 06:37:42;REFRIGERATOR;OFF
2021-07-05 06:37:42;fridge operation;END
2021-07-05 07:09:21;dishwasher operation;START
2021-07-05 07:09:29;DISHWASHER;ON
2021-07-05 07:27:46;fridge operation;START
2021-07-05 07:27:46;REFRIGERATOR;ON
2021-07-05 07:41:46;REFRIGERATOR;OFF
2021-07-05 07:41:46;fridge operation;END
2021-07-05 08:16:45;DISHWASHER;OFF
2021-07-05 08:16:45;dishwasher operation;END
2021-07-05 08:23:28;fridge operation;START
2021-07-05 08:23:28;REFRIGERATOR;ON
2021-07-05 08:37:28;REFRIGERATOR;OFF
2021-07-05 08:37:28;fridge operation;END
2021-07-05 09:13:24;fridge operation;START
2021-07-05 09:13:24;REFRIGERATOR;ON
2021-07-05 09:27:24;REFRIGERATOR;OFF
2021-07-05 09:27:24;fridge operation;END
2021-07-05 10:10:24;fridge operation;START
2021-07-05 10:10:24;REFRIGERATOR;ON
2021-07-05 10:24:24;REFRIGERATOR;OFF
2021-07-05 10:24:24;fridge operation;END
2021-07-05 11:08:54;fridge operation;START
2021-07-05 11:08:54;REFRIGERATOR;ON
2021-07-05 11:22:54;REFRIGERATOR;OFF
2021-07-05 11:22:54;fridge operation;END
2021-07-05 12:04:42;fridge operation;START
2021-07-05 12:04:42;REFRIGERATOR;ON
2021-07-05 12:18:42;REFRIGERATOR;OFF
2021-07-05 12:18:42;fridge operation;END
2021-07-05 13:00:50;fridge operation;START
2021-07-05 13:00:50;REFRIGERATOR;ON
2021-07-05 13:14:50;REFRIGERATOR;OFF
2021-07-05 13:14:50;fridge operation;END
2021-07-05 14:21:25;fridge operation;START
2021-07-05 14:21:25;REFRIGERATOR;ON
2021-07-05 14:24:47;vacuuming;START
2021-07-05 14:24:47;VACUUMCLEANER;ON
2021-07-05 14:35:25;REFRIGERATOR;OFF
2021-07-05 14:35:25;fridge operation;END
2021-07-05 14:36:47;VACUUMCLEANER;OFF
2021-07-05 14:36:47;vacuuming;END
2021-07-05 15:02:32;watching TV;START
2021-07-05 15:02:32;TV;ON
2021-07-05 15:12:35;fridge operation;START
2021-07-05 15:12:35;REFRIGERATOR;ON
2021-07-05 15:26:35;REFRIGERATOR;OFF
2021-07-05 15:26:35;fridge operation;END
2021-07-05 15:43:40;vacuuming;START
2021-07-05 15:43:40;VACUUMCLEANER;ON
2021-07-05 15:55:40;VACUUMCLEANER;OFF
2021-07-05 15:55:40;vacuuming;END
2021-07-05 16:23:50;fridge operation;START
2021-07-05 16:23:50;REFRIGERATOR;ON
2021-07-05 16:34:09;watching TV;START
2021-07-05 16:34:09;TV;ON
2021-07-05 16:37:50;REFRIGERATOR;OFF
2021-07-05 16:37:50;fridge operation;END
2021-07-05 16:38:26;TV;OFF
2021-07-05 16:38:27;TV;ON
2021-07-05 17:05:31;TV;OFF
2021-07-05 17:05:31;watching TV;END
2021-07-05 17:24:22;watching TV;START
2021-07-05 17:24:22;TV;ON
2021-07-05 17:38:38;fridge operation;START
2021-07-05 17:38:38;REFRIGERATOR;ON
2021-07-05 17:48:31;TV;OFF
2021-07-05 17:48:32;TV;ON
2021-07-05 17:52:38;REFRIGERATOR;OFF
2021-07-05 17:52:38;fridge operation;END
2021-07-05 18:01:32;TV;OFF
2021-07-05 18:01:33;TV;ON
2021-07-05 18:09:33;TV;OFF
2021-07-05 18:09:33;watching TV;END
2021-07-05 18:26:01;TV;OFF
2021-07-05 18:26:01;watching TV;END
2021-07-05 18:37:05;use a personal computer;START
2021-07-05 18:37:05;PC;ON
2021-07-05 18:51:37;fridge operation;START
2021-07-05 18:51:37;REFRIGERATOR;ON
2021-07-05 18:55:21;dishwasher operation;START
2021-07-05 18:55:30;DISHWASHER;ON
2021-07-05 19:05:37;REFRIGERATOR;OFF
2021-07-05 19:05:37;fridge operation;END
2021-07-05 19:23:57;washing a load of laundry;START
2021-07-05 19:24:12;WASHINGMACHINE;ON
2021-07-05 19:29:31;watching TV;START
2021-07-05 19:29:31;TV;ON
2021-07-05 19:40:03;fridge operation;START
2021-07-05 19:40:03;REFRIGERATOR;ON
2021-07-05 19:52:24;PC;OFF
2021-07-05 19:52:24;use a personal computer;END
2021-07-05 19:54:03;REFRIGERATOR;OFF
2021-07-05 19:54:03;fridge operation;END
2021-07-05 20:02:46;DISHWASHER;OFF
2021-07-05 20:02:46;dishwasher operation;END
2021-07-05 20:28:31;fridge operation;START
2021-07-05 20:28:31;REFRIGERATOR;ON
2021-07-05 20:42:31;REFRIGERATOR;OFF
2021-07-05 20:42:31;fridge operation;END
2021-07-05 20:43:50;use a personal computer;START
2021-07-05 20:43:50;PC;ON
2021-07-05 21:17:42;fridge operation;START
2021-07-05 21:17:42;REFRIGERATOR;ON
2021-07-05 21:21:38;TV;OFF
2021-07-05 21:21:39;TV;ON
2021-07-05 21:31:42;REFRIGERATOR;OFF
2021-07-05 21:31:42;fridge operation;END
2021-07-05 21:44:34;TV;OFF
2021-07-05 21:44:34;watching TV;END
2021-07-05 21:59:09;PC;OFF
2021-07-05 21:59:09;use a personal computer;END
2021-07-05 22:21:54;fridge operation;START
2021-07-05 22:21:54;REFRIGERATOR;ON
2021-07-05 22:34:39;WASHINGMACHINE;OFF
2021-07-05 22:34:39;washing a load of laundry;END
2021-07-05 22:35:54;REFRIGERATOR;OFF
2021-07-05 22:35:54;fridge operation;END
2021-07-05 22:59:39;fridge operation;START
2021-07-05 22:59:39;REFRIGERATOR;ON
2021-07-05 23:13:39;REFRIGERATOR;OFF
2021-07-05 23:13:39;fridge operation;END
2021-07-06 00:08:57;fridge operation;START
2021-07-06 00:08:57;REFRIGERATOR;ON
2021-07-06 00:22:57;REFRIGERATOR;OFF
2021-07-06 00:22:57;fridge operation;END
2021-07-06 01:19:50;fridge operation;START
2021-07-06 01:19:50;REFRIGERATOR;ON
2021-07-06 01:33:50;REFRIGERATOR;OFF
2021-07-06 01:33:50;fridge operation;END
2021-07-06 01:59:28;fridge operation;START
2021-07-06 01:59:28;REFRIGERATOR;ON
2021-07-06 02:13:28;REFRIGERATOR;OFF
2021-07-06 02:13:28;fridge operation;END
2021-07-06 02:34:30;fridge operation;START
2021-07-06 02:34:30;REFRIGERATOR;ON
2021-07-06 02:48:30;REFRIGERATOR;OFF
2021-07-06 02:48:30;fridge operation;END
2021-07-06 04:03:24;fridge operation;START
2021-07-06 04:03:24;REFRIGERATOR;ON
2021-07-06 04:17:24;REFRIGERATOR;OFF
2021-07-06 04:17:24;fridge operation;END
2021-07-06 05:12:50;fridge operation;START
2021-07-06 05:12:50;REFRIGERATOR;ON
2021-07-06 05:26:50;REFRIGERATOR;OFF
2021-07-06 05:26:50;fridge operation;END
2021-07-06 05:55:23;fridge operation;START
2021-07-06 05:55:23;REFRIGERATOR;ON
2021-07-06 06:09:23;REFRIGERATOR;OFF
2021-07-06 06:09:23;fridge operation;END
2021-07-06 06:49:25;fridge operation;START
2021-07-06 06:49:25;REFRIGERATOR;ON
2021-07-06 07:03:25;REFRIGERATOR;OFF
2021-07-06 07:03:25;fridge operation;END
2021-07-06 07:29:58;fridge operation;START
2021-07-06 07:29:58;REFRIGERATOR;ON
2021-07-06 07:43:58;REFRIGERATOR;OFF
2021-07-06 07:43:58;fridge operation;END
2021-07-06 08:17:35;fridge operation;START
2021-07-06 08:17:35;REFRIGERATOR;ON
2021-07-06 08:31:35;REFRIGERATOR;OFF
2021-07-06 08:31:35;fridge operation;END
2021-07-06 09:42:31;fridge operation;START
2021-07-06 09:42:31;REFRIGERATOR;ON
2021-07-06 09:56:31;REFRIGERATOR;OFF
2021-07-06 09:56:31;fridge operation;END
2021-07-06 10:12:54;fridge operation;START
2021-07-06 10:12:54;REFRIGERATOR;ON
2021-07-06 10:26:54;REFRIGERATOR;OFF
2021-07-06 10:26:54;fridge operation;END
2021-07-06 11:04:51;fridge operation;START
2021-07-06 11:04:51;REFRIGERATOR;ON
2021-07-06 11:18:51;REFRIGERATOR;OFF
2021-07-06 11:18:51;fridge operation;END
2021-07-06 12:27:18;fridge operation;START
2021-07-06 12:27:18;REFRIGERATOR;ON
2021-07-06 12:41:18;REFRIGERATOR;OFF
2021-07-06 12:41:18;fridge operation;END
2021-07-06 13:23:37;fridge operation;START
2021-07-06 13:23:37;REFRIGERATOR;ON
2021-07-06 13:37:37;REFRIGERATOR;OFF
2021-07-06 13:37:37;fridge operation;END
2021-07-06 14:18:05;fridge operation;START
2021-07-06 14:18:05;REFRIGERATOR;ON
2021-07-06 14:32:05;REFRIGERATOR;OFF
2021-07-06 14:32:05;fridge operation;END
2021-07-06 15:08:44;watching TV;START
2021-07-06 15:08:44;TV;ON
2021-07-06 15:13:12;watching TV;START
2021-07-06 15:13:12;TV;ON
2021-07-06 15:23:54;fridge operation;START
2021-07-06 15:23:54;REFRIGERATOR;ON
2021-07-06 15:37:54;REFRIGERATOR;OFF
2021-07-06 15:37:54;fridge operation;END
2021-07-06 15:57:50;fridge operation;START
2021-07-06 15:57:50;REFRIGERATOR;ON
2021-07-06 16:11:50;REFRIGERATOR;OFF
2021-07-06 16:11:50;fridge operation;END
2021-07-06 16:30:31;TV;OFF
2021-07-06 16:30:32;TV;ON
2021-07-06 16:54:31;TV;OFF
2021-07-06 16:54:31;watching TV;END
2021-07-06 17:07:42;TV;OFF
2021-07-06 17:07:43;TV;ON
2021-07-06 17:08:28;fridge operation;START
2021-07-06 17:08:28;REFRIGERATOR;ON
2021-07-06 17:09:41;watching TV;START
2021-07-06 17:09:41;TV;ON
2021-07-06 17:22:28;REFRIGERATOR;OFF
2021-07-06 17:22:28;fridge operation;END
2021-07-06 17:33:13;TV;OFF
2021-07-06 17:33:13;watching TV;END
2021-07-06 17:33:14;use a personal computer;START
2021-07-06 17:33:14;PC;ON
2021-07-06 17:44:38;fridge operation;START
2021-07-06 17:44:38;REFRIGERATOR;ON
2021-07-06 17:53:22;TV;OFF
2021-07-06 17:53:22;watching TV;END
2021-07-06 17:58:38;REFRIGERATOR;OFF
2021-07-06 17:58:38;fridge operation;END
2021-07-06 18:32:37;fridge operation;START
2021-07-06 18:32:37;REFRIGERATOR;ON
2021-07-06 18:44:44;vacuuming;START
2021-07-06 18:44:44;VACUUMCLEANER;ON
2021-07-06 18:46:37;REFRIGERATOR;OFF
2021-07-06 18:46:37;fridge operation;END
2021-07-06 18:48:33;PC;OFF
2021-07-06 18:48:33;use a personal computer;END
2021-07-06 18:56:44;VACUUMCLEANER;OFF
2021-07-06 18:56:44;vacuuming;END
2021-07-06 19:52:22;fridge operation;START
2021-07-06 19:52:22;REFRIGERATOR;ON
2021-07-06 20:06:22;REFRIGERATOR;OFF
2021-07-06 20:06:22;fridge operation;END
2021-07-06 21:26:43;fridge operation;START
2021-07-06 21:26:43;REFRIGERATOR;ON
2021-07-06 21:40:43;REFRIGERATOR;OFF
2021-07-06 21:40:43;fridge operation;END
2021-07-06 22:22:51;fridge operation;START
2021-07-06 22:22:51;REFRIGERATOR;ON
2021-07-06 22:36:51;REFRIGERATOR;OFF
2021-07-06 22:36:51;fridge operation;END
2021-07-06 23:00:51;fridge operation;START
2021-07-06 23:00:51;REFRIGERATOR;ON
2021-07-06 23:14:51;REFRIGERATOR;OFF
2021-07-06 23:14:51;fridge operation;END
2021-07-07 00:28:05;fridge operation;START
2021-07-07 00:28:05;REFRIGERATOR;ON
2021-07-07 00:42:05;REFRIGERATOR;OFF
2021-07-07 00:42:05;fridge operation;END
2021-07-07 01:14:55;fridge operation;START
2021-07-07 01:14:55;REFRIGERATOR;ON
2021-07-07 01:28:55;REFRIGERATOR;OFF
2021-07-07 01:28:55;fridge operation;END
2021-07-07 02:09:34;fridge operation;START
2021-07-07 02:09:34;REFRIGERATOR;ON
2021-07-07 02:23:34;REFRIGERATOR;OFF
2021-07-07 02:23:34;fridge operation;END
2021-07-07 03:08:21;fridge operation;START
2021-07-07 03:08:21;REFRIGERATOR;ON
2021-07-07 03:22:21;REFRIGERATOR;OFF
2021-07-07 03:22:21;fridge operation;END
2021-07-07 03:47:24;fridge operation;START
2021-07-07 03:47:24;REFRIGERATOR;ON
2021-07-07 04:01:24;REFRIGERATOR;OFF
2021-07-07 04:01:24;fridge operation;END
2021-07-07 04:22:57;fridge operation;START
2021-07-07 04:22:57;REFRIGERATOR;ON
2021-07-07 04:36:57;REFRIGERATOR;OFF
2021-07-07 04:36:57;fridge operation;END
2021-07-07 05:09:19;fridge operation;START
2021-07-07 05:09:19;REFRIGERATOR;ON
2021-07-07 05:23:19;REFRIGERATOR;OFF
2021-07-07 05:23:19;fridge operation;END
2021-07-07 05:53:05;fridge operation;START
2021-07-07 05:53:05;REFRIGERATOR;ON
2021-07-07 06:07:05;REFRIGERATOR;OFF
2021-07-07 06:07:05;fridge operation;END
2021-07-07 07:13:36;fridge operation;START
2021-07-07 07:13:36;REFRIGERATOR;ON
2021-07-07 07:27:36;REFRIGERATOR;OFF
2021-07-07 07:27:36;fridge operation;END
2021-07-07 08:28:05;fridge operation;START
2021-07-07 08:28:05;REFRIGERATOR;ON
2021-07-07 08:42:05;REFRIGERATOR;OFF
2021-07-07 08:42:05;fridge operation;END
2021-07-07 09:14:37;fridge operation;START
2021-07-07 09:14:37;REFRIGERATOR;ON
2021-07-07 09:28:37;REFRIGERATOR;OFF
2021-07-07 09:28:37;fridge operation;END
2021-07-07 10:22:49;fridge operation;START
2021-07-07 10:22:49;REFRIGERATOR;ON
2021-07-07 10:36:49;REFRIGERATOR;OFF
2021-07-07 10:36:49;fridge operation;END
2021-07-07 11:29:05;fridge operation;START
2021-07-07 11:29:05;REFRIGERATOR;ON
2021-07-07 11:43:05;REFRIGERATOR;OFF
2021-07-07 11:43:05;fridge operation;END
2021-07-07 13:01:11;fridge operation;START
2021-07-07 13:01:11;REFRIGERATOR;ON
2021-07-07 13:15:11;REFRIGERATOR;OFF
2021-07-07 13:15:11;fridge operation;END
2021-07-07 13:56:59;fridge operation;START
2021-07-07 13:56:59;REFRIGERATOR;ON
2021-07-07 14:00:00;dishwasher operation;START
2021-07-07 14:00:05;DISHWASHER;ON
2021-07-07 14:10:59;REFRIGERATOR;OFF
2021-07-07 14:10:59;fridge operation;END
2021-07-07 14:46:14;use a personal computer;START
2021-07-07 14:46:14;PC;ON
2021-07-07 15:07:21;DISHWASHER;OFF
2021-07-07 15:07:21;dishwasher operation;END
2021-07-07 15:09:33;use a personal computer;START
2021-07-07 15:09:33;PC;ON
2021-07-07 15:23:03;fridge operation;START
2021-07-07 15:23:03;REFRIGERATOR;ON
2021-07-07 15:37:03;REFRIGERATOR;OFF
2021-07-07 15:37:03;fridge operation;END
2021-07-07 16:01:33;PC;OFF
2021-07-07 16:01:33;use a personal computer;END
2021-07-07 16:11:04;dishwasher operation;START
2021-07-07 16:11:10;DISHWASHER;ON
2021-07-07 16:24:52;PC;OFF
2021-07-07 16:24:52;use a personal computer;END
2021-07-07 16:36:42;watching TV;START
2021-07-07 16:36:42;TV;ON
2021-07-07 16:37:58;watching TV;START
2021-07-07 16:37:58;TV;ON
2021-07-07 17:04:46;fridge operation;START
2021-07-07 17:04:46;REFRIGERATOR;ON
2021-07-07 17:18:26;DISHWASHER;OFF
2021-07-07 17:18:26;dishwasher operation;END
2021-07-07 17:18:46;REFRIGERATOR;OFF
2021-07-07 17:18:46;fridge operation;END
2021-07-07 17:39:15;TV;OFF
2021-07-07 17:39:16;TV;ON
2021-07-07 18:03:45;TV;OFF
2021-07-07 18:03:45;watching TV;END
2021-07-07 18:07:49;watching TV;START
2021-07-07 18:07:49;TV;ON
2021-07-07 18:24:51;TV;OFF
2021-07-07 18:24:52;TV;ON
2021-07-07 18:30:44;fridge operation;START
2021-07-07 18:30:44;REFRIGERATOR;ON
2021-07-07 18:44:44;REFRIGERATOR;OFF
2021-07-07 18:44:44;fridge operation;END
2021-07-07 18:45:55;TV;OFF
2021-07-07 18:45:56;TV;ON
2021-07-07 18:47:19;TV;OFF
2021-07-07 18:47:19;watching TV;END
2021-07-07 19:12:28;TV;OFF
2021-07-07 19:12:28;watching TV;END
2021-07-07 19:28:42;use a personal computer;START
2021-07-07 19:28:42;PC;ON
2021-07-07 19:38:48;fridge operation;START
2021-07-07 19:38:48;REFRIGERATOR;ON
2021-07-07 19:52:48;REFRIGERATOR;OFF
2021-07-07 19:52:48;fridge operation;END
2021-07-07 20:12:22;use a personal computer;START
2021-07-07 20:12:22;PC;ON
2021-07-07 20:21:45;fridge operation;START
2021-07-07 20:21:45;REFRIGERATOR;ON
2021-07-07 20:35:45;REFRIGERATOR;OFF
2021-07-07 20:35:45;fridge operation;END
2021-07-07 20:44:01;PC;OFF
2021-07-07 20:44:01;use a personal computer;END
2021-07-07 21:21:29;fridge operation;START
2021-07-07 21:21:29;REFRIGERATOR;ON
2021-07-07 21:27:41;PC;OFF
2021-07-07 21:27:41;use a personal computer;END
2021-07-07 21:35:29;REFRIGERATOR;OFF
2021-07-07 21:35:29;fridge operation;END
2021-07-07 21:38:53;watching TV;START
2021-07-07 21:38:53;TV;ON
2021-07-07 22:16:57;fridge operation;START
2021-07-07 22:16:57;REFRIGERATOR;ON
2021-07-07 22:30:57;REFRIGERATOR;OFF
2021-07-07 22:30:57;fridge operation;END
2021-07-07 22:45:17;TV;OFF
2021-07-07 22:45:18;TV;ON
2021-07-07 23:02:01;fridge operation;START
2021-07-07 23:02:01;REFRIGERATOR;ON
2021-07-07 23:11:17;TV;OFF
2021-07-07 23:11:17;watching TV;END
2021-07-07 23:16:01;REFRIGERATOR;OFF
2021-07-07 23:16:01;fridge operation;END
