Date;Power
2022-09-29 00:00:00;3650.9999999999995
2022-09-29 00:01:00;3651.000000000002
2022-09-29 00:02:00;3651.0
2022-09-29 00:03:00;3651.0
2022-09-29 00:04:00;3651.0000000000014
2022-09-29 00:05:00;3650.9999999999995
2022-09-29 00:06:00;3651.0
2022-09-29 00:07:00;3650.999999999999
2022-09-29 00:08:00;3651.000000000001
2022-09-29 00:09:00;3651.0
2022-09-29 00:10:00;3651.0000000000005
2022-09-29 00:11:00;3651.0
2022-09-29 00:12:00;3651.0
2022-09-29 00:13:00;3650.999999999999
2022-09-29 00:14:00;3651.000000000001
2022-09-29 00:15:00;3651.0
2022-09-29 00:16:00;3650.9999999999995
2022-09-29 00:17:00;3651.0
2022-09-29 00:18:00;3651.000000000001
2022-09-29 00:19:00;3650.9999999999995
2022-09-29 00:20:00;3650.9999999999995
2022-09-29 00:21:00;3651.0
2022-09-29 00:22:00;3651.0
2022-09-29 00:23:00;3650.9999999999995
2022-09-29 00:24:00;3650.999999999999
2022-09-29 00:25:00;3650.9999999999995
2022-09-29 00:26:00;3651.0
2022-09-29 00:27:00;3650.9999999999995
2022-09-29 00:28:00;3651.000000000001
2022-09-29 00:29:00;3650.999999999999
2022-09-29 00:30:00;3651.0000000000005
2022-09-29 00:31:00;3651.0
2022-09-29 00:32:00;3651.0
2022-09-29 00:33:00;3650.9999999999995
2022-09-29 00:34:00;3651.0
2022-09-29 00:35:00;3651.0000000000005
2022-09-29 00:36:00;3651.0000000000005
2022-09-29 00:37:00;3651.000000000001
2022-09-29 00:38:00;3650.9999999999995
2022-09-29 00:39:00;3651.0000000000005
2022-09-29 00:40:00;3651.0
2022-09-29 00:41:00;3650.9999999999995
2022-09-29 00:42:00;3651.000000000001
2022-09-29 00:43:00;3651.0
2022-09-29 00:44:00;3650.9999999999995
2022-09-29 00:45:00;3651.0
2022-09-29 00:46:00;3651.0
2022-09-29 00:47:00;3651.0
2022-09-29 00:48:00;3651.0
2022-09-29 00:49:00;3651.0
2022-09-29 00:50:00;3651.0
2022-09-29 00:51:00;3651.0
2022-09-29 00:52:00;3651.0
2022-09-29 00:53:00;3651.0
2022-09-29 00:54:00;3651.0
2022-09-29 00:55:00;3651.0000000000005
2022-09-29 00:56:00;3650.9999999999995
2022-09-29 00:57:00;3650.9999999999995
2022-09-29 00:58:00;3651.000000000001
2022-09-29 00:59:00;3689.86
2022-09-29 01:00:00;4884.859999999999
2022-09-29 01:01:00;5734.0
2022-09-29 01:02:00;5733.999999999998
2022-09-29 01:03:00;5734.000000000001
2022-09-29 01:04:00;5734.000000000001
2022-09-29 01:05:00;5734.0
2022-09-29 01:06:00;5734.000000000001
2022-09-29 01:07:00;5734.0
2022-09-29 01:08:00;5734.000000000001
2022-09-29 01:09:00;5734.0
2022-09-29 01:10:00;5734.000000000001
2022-09-29 01:11:00;5733.999999999999
2022-09-29 01:12:00;5966.623333333333
2022-09-29 01:13:00;8222.566666666664
2022-09-29 01:14:00;8671.58333333333
2022-09-29 01:15:00;8669.0
2022-09-29 01:16:00;8668.999999999998
2022-09-29 01:17:00;8669.0
2022-09-29 01:18:00;8669.0
2022-09-29 01:19:00;8669.0
2022-09-29 01:20:00;8669.0
2022-09-29 01:21:00;8669.0
2022-09-29 01:22:00;8668.999999999998
2022-09-29 01:23:00;8669.0
2022-09-29 01:24:00;8668.999999999998
2022-09-29 01:25:00;8502.916666666668
2022-09-29 01:26:00;6676.0
2022-09-29 01:27:00;8272.714999999998
2022-09-29 01:28:00;9221.639999999998
2022-09-29 01:29:00;9611.001666666665
2022-09-29 01:30:00;9611.000000000002
2022-09-29 01:31:00;9610.999999999998
2022-09-29 01:32:00;9611.0
2022-09-29 01:33:00;9611.000000000002
2022-09-29 01:34:00;9611.0
2022-09-29 01:35:00;9611.0
2022-09-29 01:36:00;9611.0
2022-09-29 01:37:00;9611.0
2022-09-29 01:38:00;9611.0
2022-09-29 01:39:00;8018.3533333333335
2022-09-29 01:40:00;9337.425000000001
2022-09-29 01:41:00;11681.800000000001
2022-09-29 01:42:00;11681.0
2022-09-29 01:43:00;11675.179999999997
2022-09-29 01:44:00;11609.343333333334
2022-09-29 01:45:00;11810.526666666667
2022-09-29 01:46:00;12140.058333333334
2022-09-29 01:47:00;12614.595000000003
2022-09-29 01:48:00;12714.98
2022-09-29 01:49:00;12749.49
2022-09-29 01:50:00;12788.791666666664
2022-09-29 01:51:00;12814.011666666665
2022-09-29 01:52:00;12827.096666666665
2022-09-29 01:53:00;12185.48
2022-09-29 01:54:00;10049.945
2022-09-29 01:55:00;10059.461666666668
2022-09-29 01:56:00;10068.32
2022-09-29 01:57:00;10068.668333333335
2022-09-29 01:58:00;10081.766666666666
2022-09-29 01:59:00;9974.871666666666
2022-09-29 02:00:00;10084.583333333336
2022-09-29 02:01:00;10059.431666666667
2022-09-29 02:02:00;10066.220000000001
2022-09-29 02:03:00;10072.808333333336
2022-09-29 02:04:00;10079.228333333334
2022-09-29 02:05:00;10146.513333333332
2022-09-29 02:06:00;7357.356666666666
2022-09-29 02:07:00;7772.0183333333325
2022-09-29 02:08:00;8218.03
2022-09-29 02:09:00;8224.828333333333
2022-09-29 02:10:00;8231.52
2022-09-29 02:11:00;8159.500000000001
2022-09-29 02:12:00;8216.918333333331
2022-09-29 02:13:00;8216.755
2022-09-29 02:14:00;8231.518333333333
2022-09-29 02:15:00;8246.386666666665
2022-09-29 02:16:00;8304.938333333334
2022-09-29 02:17:00;8487.085000000001
2022-09-29 02:18:00;8262.846666666668
2022-09-29 02:19:00;8252.769999999999
2022-09-29 02:20:00;8435.861666666668
2022-09-29 02:21:00;8327.598333333332
2022-09-29 02:22:00;8244.903333333334
2022-09-29 02:23:00;8271.528333333334
2022-09-29 02:24:00;8315.514999999998
2022-09-29 02:25:00;8331.89833333333
2022-09-29 02:26:00;8343.091666666667
2022-09-29 02:27:00;8405.124999999998
2022-09-29 02:28:00;8581.575
2022-09-29 02:29:00;8377.255000000001
2022-09-29 02:30:00;8397.326666666666
2022-09-29 02:31:00;8924.013333333334
2022-09-29 02:32:00;9099.398333333334
2022-09-29 02:33:00;7167.176666666667
2022-09-29 02:34:00;6140.946666666667
2022-09-29 02:35:00;6170.528333333334
2022-09-29 02:36:00;6200.661666666665
2022-09-29 02:37:00;6206.009999999999
2022-09-29 02:38:00;6761.643333333333
2022-09-29 02:39:00;8833.078333333335
2022-09-29 02:40:00;9143.056666666671
2022-09-29 02:41:00;9291.09
2022-09-29 02:42:00;9595.791666666666
2022-09-29 02:43:00;9738.436666666665
2022-09-29 02:44:00;10230.595000000001
2022-09-29 02:45:00;10120.113333333333
2022-09-29 02:46:00;10597.376666666665
2022-09-29 02:47:00;10346.245
2022-09-29 02:48:00;10241.068333333336
2022-09-29 02:49:00;10236.615
2022-09-29 02:50:00;10267.84
2022-09-29 02:51:00;10294.876666666667
2022-09-29 02:52:00;10309.13
2022-09-29 02:53:00;10467.088333333335
2022-09-29 02:54:00;12883.371666666668
2022-09-29 02:55:00;13456.021666666666
2022-09-29 02:56:00;13569.725000000002
2022-09-29 02:57:00;13650.611666666668
2022-09-29 02:58:00;13689.706666666667
2022-09-29 02:59:00;13749.290000000003
2022-09-29 03:00:00;14309.136666666665
2022-09-29 03:01:00;14201.688333333332
2022-09-29 03:02:00;13880.271666666666
2022-09-29 03:03:00;13850.523333333334
2022-09-29 03:04:00;16721.11333333333
2022-09-29 03:05:00;14436.171666666665
2022-09-29 03:06:00;14127.043333333335
2022-09-29 03:07:00;13992.263333333332
2022-09-29 03:08:00;14179.576666666666
2022-09-29 03:09:00;14310.89833333333
2022-09-29 03:10:00;12596.173333333336
2022-09-29 03:11:00;11910.201666666668
2022-09-29 03:12:00;11763.071666666669
2022-09-29 03:13:00;11796.898333333333
2022-09-29 03:14:00;11403.333333333336
2022-09-29 03:15:00;11303.3
2022-09-29 03:16:00;11277.966666666664
2022-09-29 03:17:00;11294.265
2022-09-29 03:18:00;12680.186666666665
2022-09-29 03:19:00;14136.51
2022-09-29 03:20:00;12414.001666666669
2022-09-29 03:21:00;11385.53333333333
2022-09-29 03:22:00;11619.613333333331
2022-09-29 03:23:00;11400.906666666666
2022-09-29 03:24:00;11023.318333333333
2022-09-29 03:25:00;8628.958333333334
2022-09-29 03:26:00;8642.848333333333
2022-09-29 03:27:00;8663.989999999998
2022-09-29 03:28:00;8684.373333333331
2022-09-29 03:29:00;8704.045000000002
2022-09-29 03:30:00;8953.571666666667
2022-09-29 03:31:00;11647.05166666667
2022-09-29 03:32:00;11738.69833333333
2022-09-29 03:33:00;11741.923333333334
2022-09-29 03:34:00;11556.231666666668
2022-09-29 03:35:00;11703.604999999998
2022-09-29 03:36:00;11846.831666666667
2022-09-29 03:37:00;9964.77
2022-09-29 03:38:00;9252.48166666667
2022-09-29 03:39:00;9330.093333333334
2022-09-29 03:40:00;9520.918333333331
2022-09-29 03:41:00;9211.0
2022-09-29 03:42:00;8935.678333333333
2022-09-29 03:43:00;8998.298333333334
2022-09-29 03:44:00;8786.365
2022-09-29 03:45:00;8770.765
2022-09-29 03:46:00;8770.564999999999
2022-09-29 03:47:00;9100.026666666667
2022-09-29 03:48:00;8820.59
2022-09-29 03:49:00;8847.186666666665
2022-09-29 03:50:00;8871.595000000001
2022-09-29 03:51:00;8964.770000000002
2022-09-29 03:52:00;8992.121666666668
2022-09-29 03:53:00;8964.275
2022-09-29 03:54:00;9083.478333333336
2022-09-29 03:55:00;9154.109999999999
2022-09-29 03:56:00;8897.699999999999
2022-09-29 03:57:00;8871.356666666667
2022-09-29 03:58:00;11786.050000000001
2022-09-29 03:59:00;11658.208333333334
2022-09-29 04:00:00;13870.148333333334
2022-09-29 04:01:00;14484.456666666669
2022-09-29 04:02:00;14777.358333333334
2022-09-29 04:03:00;14847.566666666666
2022-09-29 04:04:00;13081.001666666667
2022-09-29 04:05:00;12095.270000000002
2022-09-29 04:06:00;12143.579999999998
2022-09-29 04:07:00;12282.44333333333
2022-09-29 04:08:00;12338.621666666666
2022-09-29 04:09:00;12516.279999999999
2022-09-29 04:10:00;12252.403333333335
2022-09-29 04:11:00;12293.84666666667
2022-09-29 04:12:00;12319.1
2022-09-29 04:13:00;11997.45166666667
2022-09-29 04:14:00;11963.566666666666
2022-09-29 04:15:00;11830.320000000002
2022-09-29 04:16:00;12138.511666666665
2022-09-29 04:17:00;13328.006666666666
2022-09-29 04:18:00;14425.30166666667
2022-09-29 04:19:00;14390.12833333333
2022-09-29 04:20:00;14612.211666666668
2022-09-29 04:21:00;14381.78666666667
2022-09-29 04:22:00;13913.800000000003
2022-09-29 04:23:00;13562.449999999997
2022-09-29 04:24:00;13415.614999999998
2022-09-29 04:25:00;13413.283333333338
2022-09-29 04:26:00;11911.636666666669
2022-09-29 04:27:00;10750.026666666663
2022-09-29 04:28:00;10604.951666666668
2022-09-29 04:29:00;11217.730000000001
2022-09-29 04:30:00;15746.194999999998
2022-09-29 04:31:00;16139.241666666665
2022-09-29 04:32:00;16231.325
2022-09-29 04:33:00;16259.085000000003
2022-09-29 04:34:00;16404.195
2022-09-29 04:35:00;16571.11166666667
2022-09-29 04:36:00;14021.47
2022-09-29 04:37:00;13086.503333333332
2022-09-29 04:38:00;13007.563333333334
2022-09-29 04:39:00;13011.708333333336
2022-09-29 04:40:00;13118.535000000003
2022-09-29 04:41:00;13164.656666666668
2022-09-29 04:42:00;13089.523333333333
2022-09-29 04:43:00;11564.946666666667
2022-09-29 04:44:00;11423.674999999997
2022-09-29 04:45:00;14002.58
2022-09-29 04:46:00;14394.063333333334
2022-09-29 04:47:00;14372.666666666666
2022-09-29 04:48:00;14287.52
2022-09-29 04:49:00;13858.241666666665
2022-09-29 04:50:00;13806.971666666672
2022-09-29 04:51:00;12374.955
2022-09-29 04:52:00;11057.598333333335
2022-09-29 04:53:00;11311.051666666668
2022-09-29 04:54:00;11012.425000000001
2022-09-29 04:55:00;11020.15166666667
2022-09-29 04:56:00;8822.763333333332
2022-09-29 04:57:00;8455.641666666666
2022-09-29 04:58:00;9869.408333333331
2022-09-29 04:59:00;10160.638333333332
2022-09-29 05:00:00;10150.151666666665
2022-09-29 05:01:00;10070.735
2022-09-29 05:02:00;10121.210000000003
2022-09-29 05:03:00;9698.256666666664
2022-09-29 05:04:00;9683.196666666667
2022-09-29 05:05:00;9396.593333333336
2022-09-29 05:06:00;9514.775000000003
2022-09-29 05:07:00;9562.91166666667
2022-09-29 05:08:00;9432.373333333337
2022-09-29 05:09:00;9296.388333333332
2022-09-29 05:10:00;9519.606666666667
2022-09-29 05:11:00;9588.336666666666
2022-09-29 05:12:00;9653.15
2022-09-29 05:13:00;9707.958333333332
2022-09-29 05:14:00;9831.019999999995
2022-09-29 05:15:00;10100.615000000002
2022-09-29 05:16:00;9379.508333333331
2022-09-29 05:17:00;9741.421666666665
2022-09-29 05:18:00;10040.046666666665
2022-09-29 05:19:00;9939.353333333334
2022-09-29 05:20:00;9964.591666666669
2022-09-29 05:21:00;9621.169999999996
2022-09-29 05:22:00;9524.868333333337
2022-09-29 05:23:00;9046.47
2022-09-29 05:24:00;7105.464999999999
2022-09-29 05:25:00;7139.28
2022-09-29 05:26:00;8228.570000000002
2022-09-29 05:27:00;9241.458333333334
2022-09-29 05:28:00;9555.669999999998
2022-09-29 05:29:00;9747.32
2022-09-29 05:30:00;10175.401666666667
2022-09-29 05:31:00;10225.10166666667
2022-09-29 05:32:00;10340.855
2022-09-29 05:33:00;10098.943333333333
2022-09-29 05:34:00;9532.878333333332
2022-09-29 05:35:00;9106.536666666669
2022-09-29 05:36:00;9041.64
2022-09-29 05:37:00;9049.563333333332
2022-09-29 05:38:00;9064.153333333334
2022-09-29 05:39:00;9178.496666666664
2022-09-29 05:40:00;9166.480000000003
2022-09-29 05:41:00;9083.516666666668
2022-09-29 05:42:00;9358.343333333334
2022-09-29 05:43:00;9523.331666666667
2022-09-29 05:44:00;9800.783333333331
2022-09-29 05:45:00;9659.870000000003
2022-09-29 05:46:00;9602.87
2022-09-29 05:47:00;9393.453333333333
2022-09-29 05:48:00;8531.71
2022-09-29 05:49:00;8266.75333333333
2022-09-29 05:50:00;8258.433333333332
2022-09-29 05:51:00;10538.616666666667
2022-09-29 05:52:00;9241.538333333334
2022-09-29 05:53:00;9070.871666666666
2022-09-29 05:54:00;9148.845000000001
2022-09-29 05:55:00;9292.256666666668
2022-09-29 05:56:00;9259.076666666668
2022-09-29 05:57:00;8098.459999999999
2022-09-29 05:58:00;6864.431666666666
2022-09-29 05:59:00;7046.97
2022-09-29 06:00:00;7134.539999999999
2022-09-29 06:01:00;7206.19
2022-09-29 06:02:00;6861.106666666666
2022-09-29 06:03:00;6117.996666666668
2022-09-29 06:04:00;5617.198333333334
2022-09-29 06:05:00;5464.3166666666675
2022-09-29 06:06:00;5418.5633333333335
2022-09-29 06:07:00;7100.368333333334
2022-09-29 06:08:00;7361.549999999999
2022-09-29 06:09:00;7364.876666666667
2022-09-29 06:10:00;7368.186666666666
2022-09-29 06:11:00;7371.488333333334
2022-09-29 06:12:00;7374.791666666665
2022-09-29 06:13:00;7378.075000000001
2022-09-29 06:14:00;7393.126666666666
2022-09-29 06:15:00;7398.836666666666
2022-09-29 06:16:00;7379.183333333334
2022-09-29 06:17:00;7381.915
2022-09-29 06:18:00;7384.036666666667
2022-09-29 06:19:00;7385.7699999999995
2022-09-29 06:20:00;7625.365
2022-09-29 06:21:00;10225.143333333333
2022-09-29 06:22:00;10206.981666666667
2022-09-29 06:23:00;10201.413333333332
2022-09-29 06:24:00;10200.126666666667
2022-09-29 06:25:00;10204.916666666668
2022-09-29 06:26:00;10223.738333333335
2022-09-29 06:27:00;8304.813333333334
2022-09-29 06:28:00;7712.238333333333
2022-09-29 06:29:00;7468.591666666667
2022-09-29 06:30:00;7419.33
2022-09-29 06:31:00;7404.748333333333
2022-09-29 06:32:00;7062.123333333333
2022-09-29 06:33:00;6747.484999999999
2022-09-29 06:34:00;7467.168333333333
2022-09-29 06:35:00;6652.9
2022-09-29 06:36:00;6305.034999999999
2022-09-29 06:37:00;6307.455
2022-09-29 06:38:00;6371.758333333335
2022-09-29 06:39:00;6442.294999999999
2022-09-29 06:40:00;6297.015
2022-09-29 06:41:00;6878.188333333333
2022-09-29 06:42:00;7451.551666666666
2022-09-29 06:43:00;6443.961666666666
2022-09-29 06:44:00;5955.111666666667
2022-09-29 06:45:00;6540.275
2022-09-29 06:46:00;6562.0650000000005
2022-09-29 06:47:00;6430.6933333333345
2022-09-29 06:48:00;6721.386666666666
2022-09-29 06:49:00;6848.163333333333
2022-09-29 06:50:00;6840.129999999999
2022-09-29 06:51:00;6249.350000000002
2022-09-29 06:52:00;10012.005
2022-09-29 06:53:00;10893.318333333336
2022-09-29 06:54:00;9053.34
2022-09-29 06:55:00;8223.99
2022-09-29 06:56:00;8041.606666666667
2022-09-29 06:57:00;8378.438333333335
2022-09-29 06:58:00;7934.941666666665
2022-09-29 06:59:00;8272.105000000001
2022-09-29 07:00:00;7396.673333333334
2022-09-29 07:01:00;7625.266666666666
2022-09-29 07:02:00;6638.874999999999
2022-09-29 07:03:00;6223.131666666665
2022-09-29 07:04:00;5743.626666666666
2022-09-29 07:05:00;6078.915000000002
2022-09-29 07:06:00;6332.283333333333
2022-09-29 07:07:00;6233.013333333332
2022-09-29 07:08:00;5913.783333333332
2022-09-29 07:09:00;5484.116666666669
2022-09-29 07:10:00;5267.946666666667
2022-09-29 07:11:00;5233.001666666667
2022-09-29 07:12:00;5235.8066666666655
2022-09-29 07:13:00;6077.908333333334
2022-09-29 07:14:00;7118.5566666666655
2022-09-29 07:15:00;6505.571666666666
2022-09-29 07:16:00;5499.63
2022-09-29 07:17:00;6304.74
2022-09-29 07:18:00;8130.978333333334
2022-09-29 07:19:00;6813.550000000001
2022-09-29 07:20:00;5690.996666666666
2022-09-29 07:21:00;6389.238333333333
2022-09-29 07:22:00;6647.556666666666
2022-09-29 07:23:00;5541.778333333334
2022-09-29 07:24:00;5968.240000000001
2022-09-29 07:25:00;6786.074999999999
2022-09-29 07:26:00;6562.74
2022-09-29 07:27:00;5636.953333333333
2022-09-29 07:28:00;6329.7
2022-09-29 07:29:00;5876.01
2022-09-29 07:30:00;6118.431666666666
2022-09-29 07:31:00;6483.144999999999
2022-09-29 07:32:00;8955.415
2022-09-29 07:33:00;8939.446666666667
2022-09-29 07:34:00;6579.848333333332
2022-09-29 07:35:00;7050.073333333334
2022-09-29 07:36:00;8945.811666666663
2022-09-29 07:37:00;9409.161666666669
2022-09-29 07:38:00;7412.265
2022-09-29 07:39:00;8030.486666666666
2022-09-29 07:40:00;7282.975000000001
2022-09-29 07:41:00;6974.035
2022-09-29 07:42:00;6139.553333333333
2022-09-29 07:43:00;6821.761666666665
2022-09-29 07:44:00;6021.346666666666
2022-09-29 07:45:00;6159.103333333333
2022-09-29 07:46:00;5778.018333333333
2022-09-29 07:47:00;5803.063333333334
2022-09-29 07:48:00;5936.323333333334
2022-09-29 07:49:00;5385.568333333334
2022-09-29 07:50:00;5372.051666666667
2022-09-29 07:51:00;8349.938333333334
2022-09-29 07:52:00;6152.913333333334
2022-09-29 07:53:00;5562.623333333334
2022-09-29 07:54:00;5302.703333333334
2022-09-29 07:55:00;5954.225
2022-09-29 07:56:00;5527.906666666667
2022-09-29 07:57:00;5243.788333333333
2022-09-29 07:58:00;5878.646666666666
2022-09-29 07:59:00;7900.926666666667
2022-09-29 08:00:00;9047.866666666667
2022-09-29 08:01:00;13229.66333333333
2022-09-29 08:02:00;12818.716666666664
2022-09-29 08:03:00;9283.168333333335
2022-09-29 08:04:00;8316.183333333334
2022-09-29 08:05:00;8548.193333333333
2022-09-29 08:06:00;11567.055
2022-09-29 08:07:00;11981.265000000001
2022-09-29 08:08:00;9183.256666666666
2022-09-29 08:09:00;6556.343333333333
2022-09-29 08:10:00;6409.1066666666675
2022-09-29 08:11:00;6152.936666666667
2022-09-29 08:12:00;6067.115
2022-09-29 08:13:00;7283.918333333331
2022-09-29 08:14:00;6989.856666666667
2022-09-29 08:15:00;7278.346666666666
2022-09-29 08:16:00;6619.744999999999
2022-09-29 08:17:00;8186.205000000001
2022-09-29 08:18:00;9081.598333333332
2022-09-29 08:19:00;10646.70333333333
2022-09-29 08:20:00;8848.223333333333
2022-09-29 08:21:00;8271.086666666668
2022-09-29 08:22:00;7130.319999999999
2022-09-29 08:23:00;7735.79
2022-09-29 08:24:00;11171.914999999997
2022-09-29 08:25:00;11015.713333333335
2022-09-29 08:26:00;8855.505000000001
2022-09-29 08:27:00;7459.621666666667
2022-09-29 08:28:00;6294.974999999999
2022-09-29 08:29:00;6472.426666666669
2022-09-29 08:30:00;10379.39
2022-09-29 08:31:00;9742.778333333334
2022-09-29 08:32:00;7450.656666666667
2022-09-29 08:33:00;6020.296666666667
2022-09-29 08:34:00;7133.808333333333
2022-09-29 08:35:00;8476.601666666666
2022-09-29 08:36:00;8334.786666666667
2022-09-29 08:37:00;12804.533333333333
2022-09-29 08:38:00;13160.828333333331
2022-09-29 08:39:00;10675.573333333334
2022-09-29 08:40:00;9785.741666666667
2022-09-29 08:41:00;9886.424999999997
2022-09-29 08:42:00;9845.956666666667
2022-09-29 08:43:00;9373.748333333333
2022-09-29 08:44:00;9836.823333333334
2022-09-29 08:45:00;8474.218333333334
2022-09-29 08:46:00;6789.866666666666
2022-09-29 08:47:00;7070.391666666667
2022-09-29 08:48:00;10996.656666666666
2022-09-29 08:49:00;12420.378333333334
2022-09-29 08:50:00;12608.744999999999
2022-09-29 08:51:00;10325.55333333333
2022-09-29 08:52:00;8516.85333333333
2022-09-29 08:53:00;6803.908333333334
2022-09-29 08:54:00;7831.924999999999
2022-09-29 08:55:00;8328.146666666667
2022-09-29 08:56:00;5787.671666666667
2022-09-29 08:57:00;6379.638333333332
2022-09-29 08:58:00;5195.641666666666
2022-09-29 08:59:00;4932.865
2022-09-29 09:00:00;5988.558333333333
2022-09-29 09:01:00;7001.4833333333345
2022-09-29 09:02:00;9495.144999999999
2022-09-29 09:03:00;9094.72333333333
2022-09-29 09:04:00;6441.2266666666665
2022-09-29 09:05:00;5782.158333333334
2022-09-29 09:06:00;5789.783333333333
2022-09-29 09:07:00;5853.743333333334
2022-09-29 09:08:00;5857.100000000001
2022-09-29 09:09:00;6474.361666666667
2022-09-29 09:10:00;7073.631666666666
2022-09-29 09:11:00;8367.421666666667
2022-09-29 09:12:00;7011.141666666666
2022-09-29 09:13:00;5579.015
2022-09-29 09:14:00;5018.606666666667
2022-09-29 09:15:00;6512.048333333334
2022-09-29 09:16:00;8090.361666666668
2022-09-29 09:17:00;8182.458333333334
2022-09-29 09:18:00;9230.973333333333
2022-09-29 09:19:00;9060.698333333336
2022-09-29 09:20:00;10812.329999999998
2022-09-29 09:21:00;12192.183333333334
2022-09-29 09:22:00;12303.911666666663
2022-09-29 09:23:00;11655.526666666667
2022-09-29 09:24:00;10241.60833333333
2022-09-29 09:25:00;10388.221666666666
2022-09-29 09:26:00;9015.81
2022-09-29 09:27:00;9589.098333333332
2022-09-29 09:28:00;7682.758333333331
2022-09-29 09:29:00;5112.866666666669
2022-09-29 09:30:00;5780.4800000000005
2022-09-29 09:31:00;7017.286666666667
2022-09-29 09:32:00;7272.525
2022-09-29 09:33:00;8586.376666666667
2022-09-29 09:34:00;7871.501666666665
2022-09-29 09:35:00;7033.343333333332
2022-09-29 09:36:00;6868.3133333333335
2022-09-29 09:37:00;6876.6933333333345
2022-09-29 09:38:00;6868.344999999999
2022-09-29 09:39:00;8046.205
2022-09-29 09:40:00;8826.551666666666
2022-09-29 09:41:00;7887.741666666668
2022-09-29 09:42:00;6937.931666666667
2022-09-29 09:43:00;6931.055
2022-09-29 09:44:00;7024.670000000001
2022-09-29 09:45:00;7020.433333333332
2022-09-29 09:46:00;7708.375
2022-09-29 09:47:00;7039.515000000001
2022-09-29 09:48:00;7018.905000000001
2022-09-29 09:49:00;7019.8099999999995
2022-09-29 09:50:00;7007.504999999999
2022-09-29 09:51:00;6918.358333333333
2022-09-29 09:52:00;8106.958333333334
2022-09-29 09:53:00;6921.374999999999
2022-09-29 09:54:00;6922.593333333332
2022-09-29 09:55:00;6928.541666666665
2022-09-29 09:56:00;4945.778333333332
2022-09-29 09:57:00;4940.823333333334
2022-09-29 09:58:00;4941.921666666667
2022-09-29 09:59:00;5017.538333333333
2022-09-29 10:00:00;5071.275
2022-09-29 10:01:00;5103.536666666667
2022-09-29 10:02:00;5132.421666666667
2022-09-29 10:03:00;5117.446666666668
2022-09-29 10:04:00;5125.355
2022-09-29 10:05:00;5146.37
2022-09-29 10:06:00;5198.161666666666
2022-09-29 10:07:00;5170.933333333333
2022-09-29 10:08:00;5168.525
2022-09-29 10:09:00;5203.835
2022-09-29 10:10:00;5227.323333333334
2022-09-29 10:11:00;7156.938333333333
2022-09-29 10:12:00;7291.548333333331
2022-09-29 10:13:00;7289.705
2022-09-29 10:14:00;7276.818333333332
2022-09-29 10:15:00;7272.688333333334
2022-09-29 10:16:00;7201.160000000002
2022-09-29 10:17:00;8736.751666666669
2022-09-29 10:18:00;8446.298333333336
2022-09-29 10:19:00;7563.59
2022-09-29 10:20:00;7145.8133333333335
2022-09-29 10:21:00;7644.393333333335
2022-09-29 10:22:00;7815.2266666666665
2022-09-29 10:23:00;7139.533333333333
2022-09-29 10:24:00;7171.945000000001
2022-09-29 10:25:00;7687.579999999999
2022-09-29 10:26:00;9031.668333333333
2022-09-29 10:27:00;9188.089999999998
2022-09-29 10:28:00;8489.941666666666
2022-09-29 10:29:00;7757.613333333333
2022-09-29 10:30:00;8322.289999999999
2022-09-29 10:31:00;7713.588333333333
2022-09-29 10:32:00;7155.81
2022-09-29 10:33:00;7838.38
2022-09-29 10:34:00;7749.895
2022-09-29 10:35:00;7641.365
2022-09-29 10:36:00;9009.018333333335
2022-09-29 10:37:00;8471.851666666667
2022-09-29 10:38:00;6296.905000000001
2022-09-29 10:39:00;9099.039999999999
2022-09-29 10:40:00;7471.870000000001
2022-09-29 10:41:00;6126.755000000001
2022-09-29 10:42:00;7721.238333333335
2022-09-29 10:43:00;11399.255
2022-09-29 10:44:00;10555.711666666668
2022-09-29 10:45:00;10380.276666666667
2022-09-29 10:46:00;10574.191666666666
2022-09-29 10:47:00;10036.568333333336
2022-09-29 10:48:00;9983.72
2022-09-29 10:49:00;10302.448333333332
2022-09-29 10:50:00;11368.62166666667
2022-09-29 10:51:00;10868.720000000001
2022-09-29 10:52:00;9074.398333333334
2022-09-29 10:53:00;9257.216666666667
2022-09-29 10:54:00;9092.968333333334
2022-09-29 10:55:00;9594.958333333332
2022-09-29 10:56:00;9337.456666666665
2022-09-29 10:57:00;9502.55
2022-09-29 10:58:00;10796.928333333333
2022-09-29 10:59:00;11452.195000000002
2022-09-29 11:00:00;11417.405000000002
2022-09-29 11:01:00;10695.783333333331
2022-09-29 11:02:00;10790.156666666666
2022-09-29 11:03:00;10217.731666666665
2022-09-29 11:04:00;10104.409999999998
2022-09-29 11:05:00;10685.333333333334
2022-09-29 11:06:00;10156.549999999996
2022-09-29 11:07:00;9015.85333333333
2022-09-29 11:08:00;8305.309999999998
2022-09-29 11:09:00;9554.581666666667
2022-09-29 11:10:00;8542.141666666666
2022-09-29 11:11:00;9345.781666666668
2022-09-29 11:12:00;8456.041666666664
2022-09-29 11:13:00;8266.559999999998
2022-09-29 11:14:00;8230.560000000001
2022-09-29 11:15:00;8200.148333333333
2022-09-29 11:16:00;8191.011666666667
2022-09-29 11:17:00;8152.168333333336
2022-09-29 11:18:00;8146.266666666668
2022-09-29 11:19:00;8188.034999999998
2022-09-29 11:20:00;8263.183333333334
2022-09-29 11:21:00;10065.771666666666
2022-09-29 11:22:00;11408.653333333332
2022-09-29 11:23:00;11435.128333333334
2022-09-29 11:24:00;11449.385
2022-09-29 11:25:00;11440.873333333331
2022-09-29 11:26:00;11369.30833333333
2022-09-29 11:27:00;11339.693333333333
2022-09-29 11:28:00;11374.194999999998
2022-09-29 11:29:00;11401.863333333331
2022-09-29 11:30:00;11388.005000000001
2022-09-29 11:31:00;11285.78833333333
2022-09-29 11:32:00;11292.993333333334
2022-09-29 11:33:00;11377.881666666668
2022-09-29 11:34:00;10511.429999999998
2022-09-29 11:35:00;9432.105
2022-09-29 11:36:00;8858.39
2022-09-29 11:37:00;8594.858333333332
2022-09-29 11:38:00;8604.506666666664
2022-09-29 11:39:00;8611.686666666663
2022-09-29 11:40:00;8655.76
2022-09-29 11:41:00;8646.27333333333
2022-09-29 11:42:00;8777.354999999996
2022-09-29 11:43:00;8690.481666666663
2022-09-29 11:44:00;8677.108333333332
2022-09-29 11:45:00;8695.469999999998
2022-09-29 11:46:00;7861.939999999999
2022-09-29 11:47:00;5861.348333333332
2022-09-29 11:48:00;5590.538333333333
2022-09-29 11:49:00;6684.049999999999
2022-09-29 11:50:00;6724.518333333333
2022-09-29 11:51:00;6879.106666666667
2022-09-29 11:52:00;7768.574999999999
2022-09-29 11:53:00;7728.266666666666
2022-09-29 11:54:00;7738.949999999998
2022-09-29 11:55:00;7723.5199999999995
2022-09-29 11:56:00;7669.348333333332
2022-09-29 11:57:00;7668.915000000001
2022-09-29 11:58:00;7988.0999999999985
2022-09-29 11:59:00;7688.463333333334
2022-09-29 12:00:00;7657.301666666666
2022-09-29 12:01:00;7941.0633333333335
2022-09-29 12:02:00;10023.178333333333
2022-09-29 12:03:00;9526.621666666666
2022-09-29 12:04:00;9075.84
2022-09-29 12:05:00;9931.391666666668
2022-09-29 12:06:00;9927.295000000002
2022-09-29 12:07:00;9860.669999999998
2022-09-29 12:08:00;9586.353333333333
2022-09-29 12:09:00;8735.706666666665
2022-09-29 12:10:00;8384.581666666667
2022-09-29 12:11:00;7649.901666666666
2022-09-29 12:12:00;7818.019999999999
2022-09-29 12:13:00;8180.283333333334
2022-09-29 12:14:00;8008.039999999999
2022-09-29 12:15:00;8073.025000000002
2022-09-29 12:16:00;8175.088333333333
2022-09-29 12:17:00;7894.629999999999
2022-09-29 12:18:00;7759.49
2022-09-29 12:19:00;7688.066666666667
2022-09-29 12:20:00;7738.036666666667
2022-09-29 12:21:00;8200.373333333333
2022-09-29 12:22:00;8986.830000000002
2022-09-29 12:23:00;9253.068333333329
2022-09-29 12:24:00;8626.564999999999
2022-09-29 12:25:00;7838.221666666668
2022-09-29 12:26:00;7795.671666666666
2022-09-29 12:27:00;6508.203333333333
2022-09-29 12:28:00;4789.1483333333335
2022-09-29 12:29:00;5234.956666666667
2022-09-29 12:30:00;5815.2750000000015
2022-09-29 12:31:00;4892.361666666668
2022-09-29 12:32:00;4484.846666666667
2022-09-29 12:33:00;4460.078333333335
2022-09-29 12:34:00;7983.466666666667
2022-09-29 12:35:00;8455.810000000001
2022-09-29 12:36:00;8594.09
2022-09-29 12:37:00;8675.71
2022-09-29 12:38:00;8771.521666666667
2022-09-29 12:39:00;8843.078333333331
2022-09-29 12:40:00;7329.993333333334
2022-09-29 12:41:00;5217.663333333333
2022-09-29 12:42:00;4973.648333333333
2022-09-29 12:43:00;4821.358333333334
2022-09-29 12:44:00;5611.03
2022-09-29 12:45:00;5513.083333333334
2022-09-29 12:46:00;6489.465
2022-09-29 12:47:00;6289.056666666668
2022-09-29 12:48:00;5560.925
2022-09-29 12:49:00;6119.055000000001
2022-09-29 12:50:00;6725.416666666666
2022-09-29 12:51:00;6881.705000000001
2022-09-29 12:52:00;6793.528333333333
2022-09-29 12:53:00;6753.345000000001
2022-09-29 12:54:00;6724.9766666666665
2022-09-29 12:55:00;6520.093333333334
2022-09-29 12:56:00;4237.848333333333
2022-09-29 12:57:00;4295.706666666667
2022-09-29 12:58:00;5487.943333333334
2022-09-29 12:59:00;6258.393333333333
2022-09-29 13:00:00;9045.789999999999
2022-09-29 13:01:00;9200.891666666666
2022-09-29 13:02:00;10215.228333333334
2022-09-29 13:03:00;10576.268333333335
2022-09-29 13:04:00;10854.481666666667
2022-09-29 13:05:00;11885.27166666667
2022-09-29 13:06:00;8983.625000000004
2022-09-29 13:07:00;7688.456666666667
2022-09-29 13:08:00;8411.731666666667
2022-09-29 13:09:00;7557.639999999999
2022-09-29 13:10:00;6819.043333333332
2022-09-29 13:11:00;6916.0616666666665
2022-09-29 13:12:00;7264.2283333333335
2022-09-29 13:13:00;7112.610000000001
2022-09-29 13:14:00;6974.800000000001
2022-09-29 13:15:00;7994.176666666666
2022-09-29 13:16:00;7959.32
2022-09-29 13:17:00;7993.026666666667
2022-09-29 13:18:00;7967.41
2022-09-29 13:19:00;7274.939999999999
2022-09-29 13:20:00;6738.21
2022-09-29 13:21:00;6784.709999999999
2022-09-29 13:22:00;6822.038333333334
2022-09-29 13:23:00;6502.809999999999
2022-09-29 13:24:00;6234.838333333334
2022-09-29 13:25:00;7307.8099999999995
2022-09-29 13:26:00;7093.388333333333
2022-09-29 13:27:00;5937.59
2022-09-29 13:28:00;5147.066666666666
2022-09-29 13:29:00;4636.751666666666
2022-09-29 13:30:00;4663.873333333333
2022-09-29 13:31:00;4680.745000000001
2022-09-29 13:32:00;4754.658333333333
2022-09-29 13:33:00;4785.5233333333335
2022-09-29 13:34:00;4567.3966666666665
2022-09-29 13:35:00;5528.203333333333
2022-09-29 13:36:00;5863.501666666667
2022-09-29 13:37:00;6108.123333333333
2022-09-29 13:38:00;5150.595
2022-09-29 13:39:00;8448.480000000003
2022-09-29 13:40:00;9699.105000000001
2022-09-29 13:41:00;9483.030000000002
2022-09-29 13:42:00;9349.053333333333
2022-09-29 13:43:00;9256.458333333334
2022-09-29 13:44:00;7453.125000000001
2022-09-29 13:45:00;7575.361666666668
2022-09-29 13:46:00;9068.433333333332
2022-09-29 13:47:00;9135.863333333333
2022-09-29 13:48:00;7338.191666666668
2022-09-29 13:49:00;7130.615000000001
2022-09-29 13:50:00;8556.34333333333
2022-09-29 13:51:00;9984.686666666665
2022-09-29 13:52:00;8918.52
2022-09-29 13:53:00;7514.833333333334
2022-09-29 13:54:00;8723.761666666665
2022-09-29 13:55:00;8354.036666666667
2022-09-29 13:56:00;6981.148333333334
2022-09-29 13:57:00;7919.294999999998
2022-09-29 13:58:00;7999.576666666667
2022-09-29 13:59:00;9115.103333333333
2022-09-29 14:00:00;7200.563333333332
2022-09-29 14:01:00;7912.743333333332
2022-09-29 14:02:00;7762.695
2022-09-29 14:03:00;7835.851666666667
2022-09-29 14:04:00;7823.253333333334
2022-09-29 14:05:00;5774.02
2022-09-29 14:06:00;6800.526666666668
2022-09-29 14:07:00;7389.191666666667
2022-09-29 14:08:00;8291.771666666666
2022-09-29 14:09:00;7050.545000000001
2022-09-29 14:10:00;7494.154999999999
2022-09-29 14:11:00;5948.793333333333
2022-09-29 14:12:00;5934.925
2022-09-29 14:13:00;5152.086666666667
2022-09-29 14:14:00;4816.995000000001
2022-09-29 14:15:00;4834.973333333333
2022-09-29 14:16:00;4974.558333333333
2022-09-29 14:17:00;5261.453333333333
2022-09-29 14:18:00;7106.391666666667
2022-09-29 14:19:00;7968.236666666666
2022-09-29 14:20:00;8474.946666666665
2022-09-29 14:21:00;10522.04
2022-09-29 14:22:00;11239.655000000002
2022-09-29 14:23:00;11256.545000000004
2022-09-29 14:24:00;9099.636666666665
2022-09-29 14:25:00;9189.051666666666
2022-09-29 14:26:00;9980.260000000004
2022-09-29 14:27:00;10878.270000000002
2022-09-29 14:28:00;10186.56
2022-09-29 14:29:00;11300.771666666666
2022-09-29 14:30:00;11316.085
2022-09-29 14:31:00;11304.456666666669
2022-09-29 14:32:00;11859.736666666668
2022-09-29 14:33:00;11424.373333333333
2022-09-29 14:34:00;10653.301666666664
2022-09-29 14:35:00;10666.906666666666
2022-09-29 14:36:00;10992.778333333332
2022-09-29 14:37:00;10385.646666666667
2022-09-29 14:38:00;9675.701666666671
2022-09-29 14:39:00;9699.635000000004
2022-09-29 14:40:00;8864.946666666665
2022-09-29 14:41:00;8517.678333333331
2022-09-29 14:42:00;8525.603333333336
2022-09-29 14:43:00;8523.536666666667
2022-09-29 14:44:00;8517.243333333332
2022-09-29 14:45:00;8486.016666666663
2022-09-29 14:46:00;9098.526666666665
2022-09-29 14:47:00;10700.631666666668
2022-09-29 14:48:00;12083.166666666666
2022-09-29 14:49:00;9858.344999999998
2022-09-29 14:50:00;8472.7
2022-09-29 14:51:00;9271.31
2022-09-29 14:52:00;9576.033333333335
2022-09-29 14:53:00;9306.704999999998
2022-09-29 14:54:00;8374.195000000002
2022-09-29 14:55:00;7747.926666666668
2022-09-29 14:56:00;7062.885000000001
2022-09-29 14:57:00;7042.195000000001
2022-09-29 14:58:00;8022.451666666667
2022-09-29 14:59:00;5816.226666666666
2022-09-29 15:00:00;5409.72
2022-09-29 15:01:00;5413.388333333333
2022-09-29 15:02:00;5439.76
2022-09-29 15:03:00;6630.225000000001
2022-09-29 15:04:00;6581.6849999999995
2022-09-29 15:05:00;6662.594999999998
2022-09-29 15:06:00;6702.788333333334
2022-09-29 15:07:00;6760.671666666668
2022-09-29 15:08:00;7294.781666666667
2022-09-29 15:09:00;7233.594999999998
2022-09-29 15:10:00;5899.643333333334
2022-09-29 15:11:00;5715.201666666665
2022-09-29 15:12:00;5796.7
2022-09-29 15:13:00;5846.238333333333
2022-09-29 15:14:00;5892.34
2022-09-29 15:15:00;4793.613333333333
2022-09-29 15:16:00;4806.285
2022-09-29 15:17:00;4805.016666666666
2022-09-29 15:18:00;4948.5566666666655
2022-09-29 15:19:00;4879.918333333335
2022-09-29 15:20:00;4858.228333333333
2022-09-29 15:21:00;4958.168333333335
2022-09-29 15:22:00;6008.475
2022-09-29 15:23:00;6056.230000000001
2022-09-29 15:24:00;6075.285
2022-09-29 15:25:00;6166.123333333334
2022-09-29 15:26:00;6231.206666666666
2022-09-29 15:27:00;6036.078333333333
2022-09-29 15:28:00;6009.545000000001
2022-09-29 15:29:00;6072.965
2022-09-29 15:30:00;6083.634999999999
2022-09-29 15:31:00;6091.923333333332
2022-09-29 15:32:00;6119.143333333333
2022-09-29 15:33:00;6158.866666666667
2022-09-29 15:34:00;5139.636666666666
2022-09-29 15:35:00;5150.025000000001
2022-09-29 15:36:00;5224.994999999999
2022-09-29 15:37:00;5373.971666666667
2022-09-29 15:38:00;5195.553333333333
2022-09-29 15:39:00;5185.263333333332
2022-09-29 15:40:00;5140.076666666665
2022-09-29 15:41:00;5116.46
2022-09-29 15:42:00;5464.700000000001
2022-09-29 15:43:00;5525.488333333333
2022-09-29 15:44:00;5553.021666666667
2022-09-29 15:45:00;5538.566666666666
2022-09-29 15:46:00;5572.336666666666
2022-09-29 15:47:00;5679.819999999999
2022-09-29 15:48:00;5764.423333333333
2022-09-29 15:49:00;5577.2733333333335
2022-09-29 15:50:00;5565.976666666666
2022-09-29 15:51:00;5550.976666666667
2022-09-29 15:52:00;5506.26
2022-09-29 15:53:00;5397.920000000001
2022-09-29 15:54:00;5346.713333333332
2022-09-29 15:55:00;5412.505
2022-09-29 15:56:00;5392.711666666668
2022-09-29 15:57:00;5399.573333333334
2022-09-29 15:58:00;5580.585000000001
2022-09-29 15:59:00;5668.226666666666
2022-09-29 16:00:00;5633.498333333331
2022-09-29 16:01:00;5799.861666666667
2022-09-29 16:02:00;6035.293333333334
2022-09-29 16:03:00;6238.196666666666
2022-09-29 16:04:00;6266.841666666665
2022-09-29 16:05:00;6376.428333333334
2022-09-29 16:06:00;6360.726666666667
2022-09-29 16:07:00;6810.678333333335
2022-09-29 16:08:00;6932.340000000001
2022-09-29 16:09:00;6903.6916666666675
2022-09-29 16:10:00;6938.366666666667
2022-09-29 16:11:00;6948.48
2022-09-29 16:12:00;6954.649999999999
2022-09-29 16:13:00;6952.743333333334
2022-09-29 16:14:00;7060.25
2022-09-29 16:15:00;6993.059999999998
2022-09-29 16:16:00;6965.174999999999
2022-09-29 16:17:00;6934.876666666668
2022-09-29 16:18:00;6971.08
2022-09-29 16:19:00;5951.791666666666
2022-09-29 16:20:00;5791.763333333335
2022-09-29 16:21:00;5790.3133333333335
2022-09-29 16:22:00;5847.923333333332
2022-09-29 16:23:00;6151.688333333333
2022-09-29 16:24:00;10483.949999999999
2022-09-29 16:25:00;11344.674999999997
2022-09-29 16:26:00;11600.236666666668
2022-09-29 16:27:00;11644.616666666667
2022-09-29 16:28:00;11674.234999999999
2022-09-29 16:29:00;12084.178333333333
2022-09-29 16:30:00;10789.13833333333
2022-09-29 16:31:00;10011.88833333333
2022-09-29 16:32:00;10014.238333333333
2022-09-29 16:33:00;9960.841666666665
2022-09-29 16:34:00;10071.223333333335
2022-09-29 16:35:00;10054.230000000003
2022-09-29 16:36:00;10080.108333333337
2022-09-29 16:37:00;10072.093333333336
2022-09-29 16:38:00;10010.76333333333
2022-09-29 16:39:00;9941.881666666663
2022-09-29 16:40:00;9987.335000000001
2022-09-29 16:41:00;9565.801666666668
2022-09-29 16:42:00;9021.06
2022-09-29 16:43:00;10973.410000000002
2022-09-29 16:44:00;11764.268333333333
2022-09-29 16:45:00;12923.963333333333
2022-09-29 16:46:00;12869.626666666663
2022-09-29 16:47:00;12849.166666666666
2022-09-29 16:48:00;12878.16333333333
2022-09-29 16:49:00;12843.751666666669
2022-09-29 16:50:00;11990.876666666667
2022-09-29 16:51:00;9934.943333333335
2022-09-29 16:52:00;9971.126666666669
2022-09-29 16:53:00;9987.935000000001
2022-09-29 16:54:00;9929.32
2022-09-29 16:55:00;10002.188333333334
2022-09-29 16:56:00;10013.390000000003
2022-09-29 16:57:00;10066.985
2022-09-29 16:58:00;10067.43
2022-09-29 16:59:00;10045.865
2022-09-29 17:00:00;10197.400000000001
2022-09-29 17:01:00;10236.558333333332
2022-09-29 17:02:00;10065.366666666667
2022-09-29 17:03:00;10089.206666666665
2022-09-29 17:04:00;10087.369999999999
2022-09-29 17:05:00;10125.515
2022-09-29 17:06:00;10092.336666666668
2022-09-29 17:07:00;10173.491666666667
2022-09-29 17:08:00;9123.033333333333
2022-09-29 17:09:00;8258.025000000001
2022-09-29 17:10:00;6368.42
2022-09-29 17:11:00;6256.033333333333
2022-09-29 17:12:00;6286.973333333335
2022-09-29 17:13:00;6141.874999999999
2022-09-29 17:14:00;6170.855000000001
2022-09-29 17:15:00;6159.486666666667
2022-09-29 17:16:00;6204.343333333333
2022-09-29 17:17:00;6393.744999999999
2022-09-29 17:18:00;6266.806666666666
2022-09-29 17:19:00;6196.379999999999
2022-09-29 17:20:00;6203.450000000001
2022-09-29 17:21:00;6228.868333333336
2022-09-29 17:22:00;6391.513333333334
2022-09-29 17:23:00;7376.203333333334
2022-09-29 17:24:00;8121.108333333334
2022-09-29 17:25:00;9834.235
2022-09-29 17:26:00;10127.313333333334
2022-09-29 17:27:00;10056.703333333333
2022-09-29 17:28:00;10328.32166666667
2022-09-29 17:29:00;10187.309999999998
2022-09-29 17:30:00;10024.941666666668
2022-09-29 17:31:00;9995.191666666668
2022-09-29 17:32:00;9959.750000000002
2022-09-29 17:33:00;10039.753333333336
2022-09-29 17:34:00;9908.341666666667
2022-09-29 17:35:00;9843.166666666666
2022-09-29 17:36:00;10070.455
2022-09-29 17:37:00;10100.878333333332
2022-09-29 17:38:00;10170.851666666664
2022-09-29 17:39:00;11336.663333333336
2022-09-29 17:40:00;11518.151666666665
2022-09-29 17:41:00;11279.224999999999
2022-09-29 17:42:00;10885.191666666664
2022-09-29 17:43:00;10866.835000000001
2022-09-29 17:44:00;10915.426666666666
2022-09-29 17:45:00;10884.876666666669
2022-09-29 17:46:00;10828.201666666668
2022-09-29 17:47:00;10821.541666666668
2022-09-29 17:48:00;10810.466666666665
2022-09-29 17:49:00;9116.36
2022-09-29 17:50:00;8444.65
2022-09-29 17:51:00;5653.751666666667
2022-09-29 17:52:00;5443.115000000001
2022-09-29 17:53:00;5713.516666666666
2022-09-29 17:54:00;5699.523333333333
2022-09-29 17:55:00;5672.086666666666
2022-09-29 17:56:00;5669.123333333336
2022-09-29 17:57:00;5815.341666666667
2022-09-29 17:58:00;5649.511666666665
2022-09-29 17:59:00;5314.13
2022-09-29 18:00:00;5381.518333333334
2022-09-29 18:01:00;5464.821666666667
2022-09-29 18:02:00;5416.663333333334
2022-09-29 18:03:00;5389.375
2022-09-29 18:04:00;5426.14
2022-09-29 18:05:00;5348.851666666666
2022-09-29 18:06:00;5370.371666666667
2022-09-29 18:07:00;5434.361666666668
2022-09-29 18:08:00;5395.458333333334
2022-09-29 18:09:00;5802.755000000001
2022-09-29 18:10:00;6552.011666666667
2022-09-29 18:11:00;6583.151666666667
2022-09-29 18:12:00;6602.724999999999
2022-09-29 18:13:00;6595.871666666666
2022-09-29 18:14:00;6699.375
2022-09-29 18:15:00;8205.448333333334
2022-09-29 18:16:00;9510.419999999998
2022-09-29 18:17:00;9320.785000000002
2022-09-29 18:18:00;9376.699999999999
2022-09-29 18:19:00;9192.901666666668
2022-09-29 18:20:00;8950.166666666666
2022-09-29 18:21:00;7957.299999999999
2022-09-29 18:22:00;5124.461666666668
2022-09-29 18:23:00;5085.761666666667
2022-09-29 18:24:00;5133.870000000001
2022-09-29 18:25:00;5141.9400000000005
2022-09-29 18:26:00;5167.086666666668
2022-09-29 18:27:00;5171.373333333333
2022-09-29 18:28:00;5159.005000000001
2022-09-29 18:29:00;5212.263333333333
2022-09-29 18:30:00;5199.278333333334
2022-09-29 18:31:00;5155.543333333333
2022-09-29 18:32:00;5138.608333333334
2022-09-29 18:33:00;5169.235
2022-09-29 18:34:00;5104.026666666667
2022-09-29 18:35:00;5139.816666666667
2022-09-29 18:36:00;5003.964999999998
2022-09-29 18:37:00;4952.843333333334
2022-09-29 18:38:00;5040.233333333334
2022-09-29 18:39:00;4949.831666666667
2022-09-29 18:40:00;4946.081666666668
2022-09-29 18:41:00;4915.046666666667
2022-09-29 18:42:00;4928.411666666666
2022-09-29 18:43:00;4877.026666666667
2022-09-29 18:44:00;4829.569999999999
2022-09-29 18:45:00;4826.348333333333
2022-09-29 18:46:00;4893.47
2022-09-29 18:47:00;4973.843333333332
2022-09-29 18:48:00;4976.379999999999
2022-09-29 18:49:00;5102.136666666665
2022-09-29 18:50:00;5031.99
2022-09-29 18:51:00;5062.593333333332
2022-09-29 18:52:00;5387.025
2022-09-29 18:53:00;5045.868333333332
2022-09-29 18:54:00;4981.826666666666
2022-09-29 18:55:00;4989.035
2022-09-29 18:56:00;4945.623333333332
2022-09-29 18:57:00;4914.450000000001
2022-09-29 18:58:00;4976.088333333335
2022-09-29 18:59:00;5025.506666666666
2022-09-29 19:00:00;5768.995
2022-09-29 19:01:00;6507.163333333334
2022-09-29 19:02:00;6266.715
2022-09-29 19:03:00;6745.168333333333
2022-09-29 19:04:00;7331.148333333333
2022-09-29 19:05:00;7634.913333333333
2022-09-29 19:06:00;8026.195
2022-09-29 19:07:00;9560.810000000001
2022-09-29 19:08:00;8666.711666666666
2022-09-29 19:09:00;8664.873333333335
2022-09-29 19:10:00;8610.208333333334
2022-09-29 19:11:00;8595.288333333332
2022-09-29 19:12:00;8712.123333333333
2022-09-29 19:13:00;11179.726666666667
2022-09-29 19:14:00;12533.048333333332
2022-09-29 19:15:00;13592.62166666667
2022-09-29 19:16:00;12452.23666666667
2022-09-29 19:17:00;11966.221666666666
2022-09-29 19:18:00;11309.378333333334
2022-09-29 19:19:00;11315.625
2022-09-29 19:20:00;11307.33166666667
2022-09-29 19:21:00;11201.600000000002
2022-09-29 19:22:00;11171.543333333337
2022-09-29 19:23:00;11184.536666666667
2022-09-29 19:24:00;12070.960000000001
2022-09-29 19:25:00;12875.649999999998
2022-09-29 19:26:00;12249.385000000004
2022-09-29 19:27:00;11040.388333333334
2022-09-29 19:28:00;11195.98833333333
2022-09-29 19:29:00;11273.94666666667
2022-09-29 19:30:00;11334.605
2022-09-29 19:31:00;11390.816666666668
2022-09-29 19:32:00;11472.818333333335
2022-09-29 19:33:00;10530.913333333332
2022-09-29 19:34:00;10377.461666666666
2022-09-29 19:35:00;10013.61833333333
2022-09-29 19:36:00;10737.17
2022-09-29 19:37:00;9834.598333333333
2022-09-29 19:38:00;10403.926666666664
2022-09-29 19:39:00;10867.684999999998
2022-09-29 19:40:00;10947.581666666665
2022-09-29 19:41:00;10526.314999999999
2022-09-29 19:42:00;10346.138333333336
2022-09-29 19:43:00;9511.643333333335
2022-09-29 19:44:00;9620.01
2022-09-29 19:45:00;10628.015000000001
2022-09-29 19:46:00;11853.861666666668
2022-09-29 19:47:00;11605.378333333336
2022-09-29 19:48:00;11044.23
2022-09-29 19:49:00;11047.173333333332
2022-09-29 19:50:00;12740.416666666666
2022-09-29 19:51:00;13536.339999999998
2022-09-29 19:52:00;13250.05
2022-09-29 19:53:00;12716.294999999998
2022-09-29 19:54:00;12691.294999999996
2022-09-29 19:55:00;12714.484999999997
2022-09-29 19:56:00;12622.464999999998
2022-09-29 19:57:00;11832.29
2022-09-29 19:58:00;11002.899999999998
2022-09-29 19:59:00;9757.671666666665
2022-09-29 20:00:00;10163.51333333333
2022-09-29 20:01:00;10990.985
2022-09-29 20:02:00;10476.345
2022-09-29 20:03:00;10389.750000000002
2022-09-29 20:04:00;10803.673333333334
2022-09-29 20:05:00;10993.776666666663
2022-09-29 20:06:00;9822.931666666664
2022-09-29 20:07:00;9057.72
2022-09-29 20:08:00;9362.453333333337
2022-09-29 20:09:00;9375.308333333332
2022-09-29 20:10:00;9280.779999999999
2022-09-29 20:11:00;8868.395
2022-09-29 20:12:00;8974.816666666668
2022-09-29 20:13:00;8999.12
2022-09-29 20:14:00;8915.484999999999
2022-09-29 20:15:00;8962.994999999999
2022-09-29 20:16:00;8989.831666666667
2022-09-29 20:17:00;10336.255
2022-09-29 20:18:00;11839.536666666663
2022-09-29 20:19:00;10586.921666666667
2022-09-29 20:20:00;11989.940000000004
2022-09-29 20:21:00;12776.836666666666
2022-09-29 20:22:00;11702.571666666669
2022-09-29 20:23:00;11365.888333333332
2022-09-29 20:24:00;13383.503333333334
2022-09-29 20:25:00;13793.283333333331
2022-09-29 20:26:00;13884.480000000001
2022-09-29 20:27:00;14085.555
2022-09-29 20:28:00;14394.459999999997
2022-09-29 20:29:00;14642.788333333332
2022-09-29 20:30:00;15802.526666666667
2022-09-29 20:31:00;16998.036666666667
2022-09-29 20:32:00;15626.130000000001
2022-09-29 20:33:00;15520.776666666667
2022-09-29 20:34:00;15577.186666666663
2022-09-29 20:35:00;16928.313333333335
2022-09-29 20:36:00;17407.958333333332
2022-09-29 20:37:00;16255.65
2022-09-29 20:38:00;16456.06
2022-09-29 20:39:00;17829.893333333333
2022-09-29 20:40:00;19860.803333333333
2022-09-29 20:41:00;19656.881666666664
2022-09-29 20:42:00;18416.82833333333
2022-09-29 20:43:00;18806.649999999998
2022-09-29 20:44:00;18953.90166666666
2022-09-29 20:45:00;19872.523333333334
2022-09-29 20:46:00;18472.614999999994
2022-09-29 20:47:00;18213.196666666663
2022-09-29 20:48:00;18233.478333333333
2022-09-29 20:49:00;19923.505
2022-09-29 20:50:00;16969.53
2022-09-29 20:51:00;17887.05
2022-09-29 20:52:00;18337.70333333334
2022-09-29 20:53:00;17424.945000000003
2022-09-29 20:54:00;17510.50333333333
2022-09-29 20:55:00;17564.75833333333
2022-09-29 20:56:00;17639.636666666665
2022-09-29 20:57:00;19278.93833333333
2022-09-29 20:58:00;18898.131666666668
2022-09-29 20:59:00;18340.671666666665
2022-09-29 21:00:00;18371.323333333334
2022-09-29 21:01:00;18363.673333333332
2022-09-29 21:02:00;18362.44833333333
2022-09-29 21:03:00;18361.78333333333
2022-09-29 21:04:00;18032.433333333334
2022-09-29 21:05:00;17501.37333333333
2022-09-29 21:06:00;17360.971666666665
2022-09-29 21:07:00;17956.82333333333
2022-09-29 21:08:00;17106.245000000003
2022-09-29 21:09:00;15610.421666666667
2022-09-29 21:10:00;16306.011666666665
2022-09-29 21:11:00;16373.228333333334
2022-09-29 21:12:00;15589.985000000002
2022-09-29 21:13:00;16250.718333333332
2022-09-29 21:14:00;16316.945
2022-09-29 21:15:00;16698.629999999997
2022-09-29 21:16:00;16425.15166666667
2022-09-29 21:17:00;14959.774999999998
2022-09-29 21:18:00;14404.300000000001
2022-09-29 21:19:00;15048.141666666668
2022-09-29 21:20:00;16117.556666666665
2022-09-29 21:21:00;13506.296666666667
2022-09-29 21:22:00;12790.533333333333
2022-09-29 21:23:00;12051.304999999998
2022-09-29 21:24:00;12258.941666666668
2022-09-29 21:25:00;12094.066666666666
2022-09-29 21:26:00;12516.456666666667
2022-09-29 21:27:00;12780.168333333331
2022-09-29 21:28:00;11807.210000000003
2022-09-29 21:29:00;12334.535
2022-09-29 21:30:00;12444.916666666666
2022-09-29 21:31:00;12227.244999999999
2022-09-29 21:32:00;11859.628333333332
2022-09-29 21:33:00;11800.628333333332
2022-09-29 21:34:00;11833.079999999998
2022-09-29 21:35:00;14905.461666666668
2022-09-29 21:36:00;15162.390000000001
2022-09-29 21:37:00;15015.293333333331
2022-09-29 21:38:00;15167.818333333333
2022-09-29 21:39:00;14532.793333333333
2022-09-29 21:40:00;14310.741666666667
2022-09-29 21:41:00;14317.015
2022-09-29 21:42:00;14285.649999999998
2022-09-29 21:43:00;14195.96833333333
2022-09-29 21:44:00;15002.173333333334
2022-09-29 21:45:00;15591.53666666667
2022-09-29 21:46:00;15561.653333333332
2022-09-29 21:47:00;15002.216666666665
2022-09-29 21:48:00;15023.311666666666
2022-09-29 21:49:00;15074.773333333334
2022-09-29 21:50:00;15144.131666666668
2022-09-29 21:51:00;14994.465
2022-09-29 21:52:00;15105.701666666664
2022-09-29 21:53:00;15398.796666666667
2022-09-29 21:54:00;14154.995
2022-09-29 21:55:00;10905.61166666667
2022-09-29 21:56:00;10874.005
2022-09-29 21:57:00;11856.463333333331
2022-09-29 21:58:00;10616.258333333335
2022-09-29 21:59:00;10678.235000000002
2022-09-29 22:00:00;9091.128333333334
2022-09-29 22:01:00;8801.621666666666
2022-09-29 22:02:00;10172.891666666668
2022-09-29 22:03:00;10496.165
2022-09-29 22:04:00;8931.67
2022-09-29 22:05:00;8617.963333333333
2022-09-29 22:06:00;9199.126666666667
2022-09-29 22:07:00;8774.651666666667
2022-09-29 22:08:00;7992.801666666666
2022-09-29 22:09:00;7997.718333333332
2022-09-29 22:10:00;7961.761666666665
2022-09-29 22:11:00;7999.133333333333
2022-09-29 22:12:00;7996.226666666667
2022-09-29 22:13:00;7978.723333333332
2022-09-29 22:14:00;8233.396666666666
2022-09-29 22:15:00;10850.134999999998
2022-09-29 22:16:00;10854.603333333333
2022-09-29 22:17:00;10834.188333333332
2022-09-29 22:18:00;11228.163333333332
2022-09-29 22:19:00;10486.793333333335
2022-09-29 22:20:00;9790.686666666668
2022-09-29 22:21:00;10048.538333333332
2022-09-29 22:22:00;9999.194999999998
2022-09-29 22:23:00;7561.586666666667
2022-09-29 22:24:00;7270.6933333333345
2022-09-29 22:25:00;7468.421666666666
2022-09-29 22:26:00;8284.698333333334
2022-09-29 22:27:00;6973.436666666666
2022-09-29 22:28:00;6176.21
2022-09-29 22:29:00;6145.068333333334
2022-09-29 22:30:00;6709.8566666666675
2022-09-29 22:31:00;6504.098333333333
2022-09-29 22:32:00;6039.631666666666
2022-09-29 22:33:00;5960.868333333333
2022-09-29 22:34:00;5950.803333333332
2022-09-29 22:35:00;5954.923333333334
2022-09-29 22:36:00;5898.52
2022-09-29 22:37:00;5888.8949999999995
2022-09-29 22:38:00;6652.416666666665
2022-09-29 22:39:00;7812.961666666666
2022-09-29 22:40:00;7819.416666666667
2022-09-29 22:41:00;6815.345
2022-09-29 22:42:00;7251.630000000001
2022-09-29 22:43:00;9009.030000000002
2022-09-29 22:44:00;8700.645000000002
2022-09-29 22:45:00;6981.066666666666
2022-09-29 22:46:00;6979.005000000001
2022-09-29 22:47:00;7125.15
2022-09-29 22:48:00;7777.318333333333
2022-09-29 22:49:00;7025.455000000001
2022-09-29 22:50:00;6556.586666666666
2022-09-29 22:51:00;7912.668333333334
2022-09-29 22:52:00;8091.855
2022-09-29 22:53:00;8902.066666666668
2022-09-29 22:54:00;8452.370000000003
2022-09-29 22:55:00;7987.198333333332
2022-09-29 22:56:00;7842.69
2022-09-29 22:57:00;7896.521666666668
2022-09-29 22:58:00;9704.830000000004
2022-09-29 22:59:00;9499.193333333335
2022-09-29 23:00:00;9353.636666666664
2022-09-29 23:01:00;8454.243333333332
2022-09-29 23:02:00;8158.423333333337
2022-09-29 23:03:00;9482.408333333333
2022-09-29 23:04:00;10271.603333333334
2022-09-29 23:05:00;9192.388333333334
2022-09-29 23:06:00;8050.499999999999
2022-09-29 23:07:00;8042.288333333333
2022-09-29 23:08:00;8732.024999999998
2022-09-29 23:09:00;8196.730000000001
2022-09-29 23:10:00;7888.135
2022-09-29 23:11:00;7868.833333333332
2022-09-29 23:12:00;7913.7249999999985
2022-09-29 23:13:00;8093.871666666667
2022-09-29 23:14:00;8197.061666666665
2022-09-29 23:15:00;8238.789999999999
2022-09-29 23:16:00;7143.456666666666
2022-09-29 23:17:00;6894.886666666665
2022-09-29 23:18:00;6887.004999999999
2022-09-29 23:19:00;6924.526666666667
2022-09-29 23:20:00;7003.933333333333
2022-09-29 23:21:00;7038.701666666667
2022-09-29 23:22:00;6971.306666666666
2022-09-29 23:23:00;7006.775
2022-09-29 23:24:00;7024.778333333333
2022-09-29 23:25:00;6977.624999999999
2022-09-29 23:26:00;6949.926666666665
2022-09-29 23:27:00;7208.525
2022-09-29 23:28:00;7263.9333333333325
2022-09-29 23:29:00;7301.666666666666
2022-09-29 23:30:00;6377.929999999999
2022-09-29 23:31:00;6116.669999999999
2022-09-29 23:32:00;5403.036666666666
2022-09-29 23:33:00;4970.488333333334
2022-09-29 23:34:00;4916.618333333333
2022-09-29 23:35:00;4890.3
2022-09-29 23:36:00;4887.671666666667
2022-09-29 23:37:00;4397.05
2022-09-29 23:38:00;3965.935
2022-09-29 23:39:00;3962.953333333332
2022-09-29 23:40:00;3960.165
2022-09-29 23:41:00;3957.2866666666664
2022-09-29 23:42:00;3954.485
2022-09-29 23:43:00;3951.6966666666663
2022-09-29 23:44:00;3948.9066666666663
2022-09-29 23:45:00;3946.06
2022-09-29 23:46:00;3943.226666666667
2022-09-29 23:47:00;3940.4383333333335
2022-09-29 23:48:00;3937.645
2022-09-29 23:49:00;3934.856666666667
2022-09-29 23:50:00;3932.068333333333
2022-09-29 23:51:00;3904.1883333333335
2022-09-29 23:52:00;3885.081666666667
2022-09-29 23:53:00;3839.821666666667
2022-09-29 23:54:00;3777.181666666667
2022-09-29 23:55:00;3776.2533333333336
2022-09-29 23:56:00;3775.323333333333
2022-09-29 23:57:00;3756.501666666667
2022-09-29 23:58:00;3651.0
2022-09-29 23:59:00;3651.0
